g1 - 4
Tabla 1 – Principales características de las teorías de participación política revisadas......42
t2 - 50
t3 - 51
t4 - 52
t5 - 55
t6 - 58
t7 - 60
t8 - 61
g2 - 72
g3 - 74
t9 - 75
t10 - 76
t11 - 81
t12 - 83
t13 - 85
g4 - 91
t14 - 98
g5 - 101
t15 - 102
t16 - 109
t17 - 110
t18 - 112
t19 - 114
t20 - 116
t21 - 118
t22 - 119
t23 - 121
g6 - 123
g7 y 8 - 125
t24 - 127
