country,code,value
Argentina,ARG,41261490
Bolivia,BOL,10396246
Brazil,BRA,198185302
Chile,CHL,17173573
Colombia,COL,45308899
Costa Rica,CRI,4679926
Dominican Republic,DOM,9903737
Ecuador,ECU,15237728
Guatemala,GTM,14521515
Honduras,HND,8622504
Mexico,MEX,114150481
Nicaragua,NIC,5942553
Panama,PAN,3688674
Peru,PER,29477721
Paraguay,PRY,5843939
El Salvador,SLV,6137349
Uruguay,URY,3361637
