pais,Frequency_Una vez a la semana,Frequency_Una o dos veces al mes,Frequency_Una o dos veces al año,Frequency_Nunca,Frequency_NA,Percent_Una vez a la semana,Percent_Una o dos veces al mes,Percent_Una o dos veces al año,Percent_Nunca,Percent_NA
México,30,51,36,671,772,1.9,3.3,2.3,43,49.5
Guatemala,28,105,33,587,756,1.9,7,2.2,38.9,50.1
El Salvador,10,25,13,694,755,0.7,1.7,0.9,46.4,50.4
Honduras,36,49,23,752,868,2.1,2.8,1.3,43.5,50.2
Nicaragua,12,66,24,732,852,0.7,3.9,1.4,43.4,50.5
Costa Rica,17,21,10,717,733,1.1,1.4,0.7,47.9,48.9
Panamá,19,15,25,746,815,1.2,0.9,1.5,46,50.3
Colombia,27,26,30,671,758,1.8,1.7,2,44.4,50.1
Ecuador,18,42,50,582,808,1.2,2.8,3.3,38.8,53.9
Bolivia,37,181,127,1152,1532,1.2,6,4.2,38,50.6
Perú,30,80,50,588,752,2,5.3,3.3,39.2,50.1
Paraguay,17,39,25,640,789,1.1,2.6,1.7,42.4,52.3
Chile,39,34,19,897,582,2.5,2.2,1.2,57.1,37
Uruguay,11,25,8,710,758,0.7,1.7,0.5,47,50.1
Brasil,22,30,15,671,762,1.5,2,1,44.7,50.8
Argentina,10,19,15,713,755,0.7,1.3,1,47.2,49.9
Rep. Dom.,32,49,18,656,757,2.1,3.2,1.2,43.4,50.1
