pais,Frequency_Una vez a la semana,Frequency_Una o dos veces al mes,Frequency_Una o dos veces al año,Frequency_Nunca,Frequency_NA,Percent_Una vez a la semana,Percent_Una o dos veces al mes,Percent_Una o dos veces al año,Percent_Nunca,Percent_NA
México,133,100,64,1254,9,8.5,6.4,4.1,80.4,0.6
Guatemala,149,188,73,1089,10,9.9,12.5,4.8,72.2,0.7
El Salvador,190,88,30,1187,2,12.7,5.9,2,79.3,0.1
Honduras,197,107,62,1336,26,11.4,6.2,3.6,77.3,1.5
Nicaragua,128,124,30,1385,19,7.6,7.4,1.8,82.1,1.1
Costa Rica,108,88,18,1266,18,7.2,5.9,1.2,84.5,1.2
Panamá,85,108,79,1330,18,5.2,6.7,4.9,82.1,1.1
Colombia,120,129,104,1154,5,7.9,8.5,6.9,76.3,0.3
Ecuador,166,157,164,981,32,11.1,10.5,10.9,65.4,2.1
Bolivia,307,478,341,1887,16,10.1,15.8,11.3,62.3,0.5
Perú,144,178,147,1010,21,9.6,11.9,9.8,67.3,1.4
Paraguay,187,135,65,1119,4,12.4,8.9,4.3,74.1,0.3
Chile,55,95,32,1385,4,3.5,6,2,88.2,0.3
Uruguay,175,114,62,1160,1,11.6,7.5,4.1,76.7,0.1
Brasil,43,55,26,1354,22,2.9,3.7,1.7,90.3,1.5
Argentina,133,104,51,1216,8,8.8,6.9,3.4,80.4,0.5
Rep. Dom.,179,136,80,1115,2,11.8,9,5.3,73.7,0.1
