pais,Frequency_Sí,Frequency_No,Frequency_NA,Percent_Sí,Percent_No,Percent_NA
México,103,1456,1,6.6,93.3,0.1
Guatemala,80,1416,13,5.3,93.8,0.9
El Salvador,101,1395,1,6.7,93.2,0.1
Honduras,115,1599,14,6.7,92.5,0.8
Nicaragua,110,1576,NA,6.5,93.5,NA
Costa Rica,59,1439,NA,3.9,96.1,NA
Panamá,106,1509,5,6.5,93.1,0.3
Colombia,61,1449,2,4,95.8,0.1
Ecuador,57,1420,23,3.8,94.7,1.5
Bolivia,133,2872,24,4.4,94.8,0.8
Perú,26,1468,6,1.7,97.9,0.4
Paraguay,46,1460,4,3,96.7,0.3
Chile,58,1510,3,3.7,96.1,0.2
Uruguay,64,1447,1,4.2,95.7,0.1
Brasil,70,1425,5,4.7,95,0.3
Argentina,62,1449,1,4.1,95.8,0.1
Rep. Dom.,143,1368,1,9.5,90.5,0.1
