pais,Frequency_Una vez a la semana,Frequency_Una o dos veces al mes,Frequency_Una o dos veces al año,Frequency_Nunca,Frequency_NA,Percent_Una vez a la semana,Percent_Una o dos veces al mes,Percent_Una o dos veces al año,Percent_Nunca,Percent_NA
México,63,325,152,1015,5,4,20.8,9.7,65.1,0.3
Guatemala,84,442,169,805,9,5.6,29.3,11.2,53.3,0.6
El Salvador,24,414,153,900,6,1.6,27.7,10.2,60.1,0.4
Honduras,155,315,101,1137,20,9,18.2,5.8,65.8,1.2
Nicaragua,60,694,56,866,10,3.6,41.2,3.3,51.4,0.6
Costa Rica,30,185,129,1154,NA,2,12.3,8.6,77,NA
Panamá,67,192,165,1176,20,4.1,11.9,10.2,72.6,1.2
Colombia,21,318,192,979,2,1.4,21,12.7,64.7,0.1
Ecuador,82,360,291,751,16,5.5,24,19.4,50.1,1.1
Bolivia,177,1070,466,1278,38,5.8,35.3,15.4,42.2,1.3
Perú,44,362,273,821,NA,2.9,24.1,18.2,54.7,NA
Paraguay,31,420,187,865,7,2.1,27.8,12.4,57.3,0.5
Chile,32,409,60,1067,3,2,26,3.8,67.9,0.2
Uruguay,39,247,154,1069,3,2.6,16.3,10.2,70.7,0.2
Brasil,42,194,212,1046,6,2.8,12.9,14.1,69.7,0.4
Argentina,46,189,172,1098,7,3,12.5,11.4,72.6,0.5
Rep. Dom.,40,396,217,854,5,2.6,26.2,14.4,56.5,0.3
