pais,Frequency_Sí,Frequency_No,Frequency_NA,Percent_Sí,Percent_No,Percent_NA
México,141,1413,6,9,90.6,0.4
Guatemala,164,1333,12,10.9,88.3,0.8
El Salvador,82,1410,5,5.5,94.2,0.3
Honduras,98,1594,36,5.7,92.2,2.1
Nicaragua,117,1565,4,6.9,92.8,0.2
Costa Rica,106,1374,18,7.1,91.7,1.2
Panamá,83,1531,6,5.1,94.5,0.4
Colombia,161,1346,5,10.6,89,0.3
Ecuador,195,1285,20,13,85.7,1.3
Bolivia,NA,NA,3029,NA,NA,100
Perú,159,1315,26,10.6,87.7,1.7
Paraguay,165,1340,5,10.9,88.7,0.3
Chile,110,1455,6,7,92.6,0.4
Uruguay,226,1272,14,14.9,84.1,0.9
Brasil,230,1262,8,15.3,84.1,0.5
Argentina,191,1313,8,12.6,86.8,0.5
Rep. Dom.,112,1392,8,7.4,92.1,0.5
