pais,Frequency_Hombre,Frequency_Mujer,Frequency_NA,Percent_Hombre,Percent_Mujer,Percent_NA
México,765,795,NA,49,51,NA
Guatemala,756,753,NA,50.1,49.9,NA
El Salvador,750,746,1,50.1,49.8,0.1
Honduras,864,864,NA,50,50,NA
Nicaragua,843,843,NA,50,50,NA
Costa Rica,730,768,NA,48.7,51.3,NA
Panamá,810,810,NA,50,50,NA
Colombia,756,756,NA,50,50,NA
Ecuador,749,751,NA,49.9,50.1,NA
Bolivia,1508,1521,NA,49.8,50.2,NA
Perú,749,751,NA,49.9,50.1,NA
Paraguay,771,739,NA,51.1,48.9,NA
Chile,574,997,NA,36.5,63.5,NA
Uruguay,754,758,NA,49.9,50.1,NA
Brasil,745,755,NA,49.7,50.3,NA
Argentina,754,758,NA,49.9,50.1,NA
Rep. Dom.,755,757,NA,49.9,50.1,NA
