pais,cp2,cp4a,cp4,np1,np2,cp5,cp6,cp7,cp8,cp9,cp13,cp21,prot3,prot8,vic44,vb2,pp1,pp2
7,2,1,2,1,1,2,1,2,2,2,2,2,2,2,2,1,1,1
7,2,2,2,2,2,2,2,2,2,1,2,2,2,2,2,1,2,2
7,2,1,2,2,2,2,2,2,2,2,2,2,2,2,2,1,2,2
7,2,2,2,2,2,2,2,2,2,2,2,2,2,2,2,2,2,2
7,1,1,1,2,2,2,2,2,2,2,2,2,2,2,1,2,2,2
7,2,2,2,2,2,2,2,1,2,2,2,2,2,2,2,2,2,2
7,2,1,2,2,2,2,2,2,NA,2,2,2,1,2,2,1,2,2
7,1,1,2,1,1,2,2,2,2,2,2,2,1,2,2,1,1,2
7,1,2,2,2,2,2,2,2,2,1,2,2,1,2,2,1,2,2
7,2,2,2,2,2,2,2,2,2,2,2,2,2,2,2,2,2,2
7,2,2,2,2,2,2,2,2,2,2,2,1,1,2,2,2,2,2
7,1,1,NA,2,2,1,2,1,2,2,NA,NA,2,2,2,1,2,2
7,2,2,2,2,2,2,2,2,2,2,2,2,2,2,2,2,2,2
7,2,2,2,2,2,2,1,2,2,2,2,2,2,2,2,2,1,2
7,2,2,2,2,2,2,1,2,2,2,2,2,1,2,2,1,1,2
7,2,2,2,2,2,2,1,1,1,2,2,2,2,2,1,1,1,2
7,2,1,2,1,1,1,1,1,2,2,2,2,1,2,2,1,1,2
7,2,1,2,1,1,2,1,2,2,2,2,2,1,2,2,1,1,2
7,2,2,2,2,2,NA,2,NA,2,2,2,2,2,2,2,1,2,2
7,1,1,1,1,1,1,1,1,2,2,2,2,1,2,2,1,1,2
7,2,2,2,2,1,2,2,1,1,2,2,2,2,2,2,1,1,1
7,2,2,2,2,2,2,1,1,2,2,2,2,2,2,2,1,1,2
7,2,2,2,2,2,2,2,2,2,2,1,2,2,2,2,1,1,1
7,2,1,2,2,2,2,2,2,2,2,2,2,2,2,2,2,2,2
7,2,2,2,2,2,2,2,2,2,2,2,2,2,2,2,1,1,2
7,1,2,2,2,1,2,2,1,2,2,2,2,2,2,2,1,1,2
7,2,2,2,2,2,2,2,2,2,2,2,2,2,2,2,1,1,2
7,2,2,2,2,2,2,1,2,2,2,2,2,2,2,2,1,1,2
7,2,2,2,2,2,2,2,2,2,2,2,2,2,2,2,1,1,2
7,2,1,2,2,2,NA,2,2,2,2,2,2,1,2,2,1,2,2
7,2,2,1,2,2,2,1,2,2,2,2,2,2,2,2,1,2,2
7,2,2,2,2,2,2,2,2,2,2,2,2,2,2,2,1,2,2
7,2,2,2,2,2,1,2,2,2,2,2,2,2,2,2,1,2,2
7,2,1,1,1,2,2,1,2,2,2,2,2,2,2,2,1,1,2
7,2,2,2,2,2,2,2,2,2,2,2,2,2,2,2,1,2,2
7,2,2,2,2,2,2,2,1,2,2,2,2,2,2,2,1,2,2
7,2,2,2,2,2,2,2,2,2,2,2,2,2,2,2,2,2,2
7,2,2,2,2,2,2,2,2,2,2,2,2,2,2,2,1,2,2
7,2,2,2,2,2,2,2,2,2,2,2,2,2,2,2,2,2,2
7,2,2,2,2,2,2,2,2,2,2,2,2,2,2,2,2,2,2
7,2,2,2,2,2,2,2,2,2,2,2,2,2,2,2,1,2,2
7,2,2,2,2,2,2,1,1,2,2,2,2,2,2,2,1,2,2
7,2,1,1,2,2,2,2,1,1,2,2,2,1,2,1,2,2,2
7,2,2,2,2,2,2,2,2,2,2,2,2,2,2,2,1,1,2
7,2,2,2,2,2,2,1,2,2,2,2,1,2,2,1,1,2,2
7,2,1,1,2,2,2,2,2,2,2,2,2,2,2,2,1,2,2
7,2,1,2,1,2,2,1,2,2,2,2,2,2,2,2,1,1,2
7,2,2,2,2,2,1,2,2,2,1,2,2,2,2,2,2,2,2
7,2,2,2,1,1,2,2,2,2,2,2,2,2,2,2,2,2,2
7,1,2,2,2,2,NA,2,2,2,2,2,2,2,2,2,2,2,2
7,1,1,2,2,1,2,2,1,2,2,2,2,1,2,2,1,2,2
7,2,2,2,2,2,2,NA,NA,NA,NA,NA,NA,2,2,2,2,2,2
7,2,2,2,2,2,2,2,1,2,2,2,2,2,2,2,1,1,2
7,2,2,2,2,2,2,2,2,2,2,2,2,2,2,2,1,2,2
7,2,2,2,2,2,2,2,1,2,2,2,2,2,2,2,1,1,2
7,2,2,2,2,2,2,1,2,2,2,2,2,2,2,2,2,1,2
7,2,2,2,2,2,2,2,2,2,2,2,1,2,2,2,2,1,2
7,1,2,2,2,2,2,1,1,1,2,2,2,2,2,2,1,2,2
7,1,1,2,1,1,2,1,2,2,2,2,1,1,2,2,1,1,1
7,2,2,2,2,2,2,2,1,2,2,2,2,2,2,2,1,2,2
7,2,2,2,2,2,2,1,2,2,2,2,1,2,2,NA,2,2,2
7,2,2,2,2,2,2,2,2,2,2,2,2,2,2,2,NA,2,2
7,2,2,2,2,2,2,1,2,2,2,2,2,2,2,2,NA,2,2
7,2,1,2,1,2,1,1,2,2,2,2,2,1,2,2,1,1,2
7,2,2,2,2,2,2,2,2,2,2,2,2,2,2,2,2,2,2
7,2,2,2,2,2,1,1,1,1,2,1,1,1,2,2,NA,2,2
7,2,2,2,2,2,2,2,2,2,2,2,2,2,2,2,1,2,2
7,2,2,2,2,2,2,2,2,2,2,NA,2,2,2,2,1,2,2
7,2,2,2,2,2,2,2,2,2,2,2,2,2,2,2,1,1,2
7,2,2,2,2,2,2,2,1,2,2,2,2,2,2,2,1,1,2
7,2,2,2,2,2,2,1,2,2,2,2,2,2,2,2,1,2,2
7,2,2,2,2,2,2,1,2,2,2,2,2,2,2,2,2,2,2
7,1,2,1,2,2,2,2,2,2,2,2,2,2,2,2,1,2,2
7,1,1,1,2,1,2,1,2,2,1,2,1,2,2,2,2,2,2
7,1,1,1,2,1,1,2,1,1,1,2,1,1,1,2,1,2,2
7,2,2,2,2,2,2,2,2,2,2,2,2,1,2,2,2,2,2
7,2,2,2,2,2,1,1,1,2,2,2,2,2,2,1,1,2,2
7,2,2,2,2,2,2,2,2,2,2,2,2,2,2,2,1,2,2
7,2,2,2,2,2,2,2,2,2,2,2,2,2,2,2,1,1,2
7,2,2,2,2,2,2,2,2,2,2,2,2,2,2,2,1,1,2
7,2,2,2,2,2,2,2,2,2,2,2,2,2,2,2,2,2,2
7,1,1,1,2,2,1,2,2,1,2,2,2,1,2,2,2,2,2
7,1,1,1,2,1,2,2,2,2,2,2,2,2,2,2,2,2,2
7,2,2,2,2,2,2,2,2,2,2,2,2,2,2,2,2,2,2
7,2,2,2,2,2,2,2,2,2,2,2,2,2,2,2,1,1,2
7,2,2,1,2,2,2,2,2,2,2,2,2,2,2,2,1,NA,2
7,2,2,2,2,2,1,2,2,2,2,2,2,2,2,2,1,1,2
7,2,2,2,2,2,2,2,2,2,2,2,2,2,2,2,1,2,2
7,1,1,2,2,2,2,2,2,2,2,2,2,2,2,2,2,2,2
7,2,2,2,2,2,2,1,2,2,2,2,2,2,2,2,1,2,2
7,2,2,2,1,2,2,1,2,2,2,2,2,1,2,2,1,1,1
7,2,2,2,2,2,2,1,1,2,2,2,2,2,2,2,2,2,2
7,2,2,2,2,2,2,1,2,2,2,2,2,2,2,2,1,2,2
7,1,1,1,2,2,2,2,1,2,2,2,2,2,2,2,1,1,1
7,2,2,2,2,2,2,1,1,2,2,2,2,2,2,2,1,2,2
7,2,2,2,2,2,2,1,1,2,2,2,2,2,2,2,2,1,2
7,2,2,2,2,2,1,1,2,2,NA,NA,2,NA,2,2,NA,2,2
7,2,2,2,2,2,2,1,2,2,2,2,2,2,2,2,NA,2,2
7,2,2,2,2,2,2,2,2,2,2,2,2,2,2,2,2,2,2
7,2,2,2,2,2,2,1,2,1,2,2,2,2,2,2,1,2,1
7,2,2,2,2,2,2,2,2,2,2,2,2,2,2,2,1,2,2
7,2,2,2,2,2,2,2,2,2,2,2,2,1,2,2,1,1,2
7,2,2,2,2,2,2,1,2,2,2,2,2,2,2,2,1,2,2
7,2,2,2,2,2,2,2,2,2,2,2,2,2,2,2,1,2,2
7,2,2,2,2,2,2,2,2,2,2,2,2,2,2,2,1,2,2
7,2,2,2,2,2,2,1,1,2,2,2,2,2,2,2,1,2,2
7,2,2,2,2,2,2,2,2,2,2,2,2,2,2,2,1,2,2
7,1,1,2,2,2,2,1,2,2,2,2,2,2,2,2,1,2,1
7,1,1,1,NA,1,2,1,2,1,NA,2,2,2,2,2,1,2,2
7,2,2,2,2,2,1,1,2,2,2,2,2,2,2,2,1,2,2
7,1,1,2,2,1,1,2,2,2,2,2,2,2,2,2,1,2,2
7,2,2,2,2,2,2,2,2,2,2,2,1,2,2,2,2,2,2
7,1,1,1,2,2,2,2,2,2,2,2,2,2,2,2,2,2,2
7,2,2,2,2,2,2,2,2,2,2,2,2,2,2,2,1,1,2
7,2,2,2,2,2,2,2,2,2,2,2,2,2,2,2,2,2,2
7,2,2,2,2,2,2,2,2,2,2,2,2,2,2,2,1,2,2
7,2,2,2,2,2,2,1,2,2,2,2,2,2,2,2,1,1,2
7,2,2,2,2,2,1,2,2,2,2,2,2,2,2,2,1,2,2
7,2,2,2,2,2,2,2,2,2,2,2,2,2,2,2,1,1,2
7,1,1,1,2,1,1,1,2,2,2,2,2,2,2,2,2,2,2
7,2,2,2,2,1,2,2,2,2,2,2,2,2,2,2,2,2,2
7,2,2,2,2,2,2,2,2,2,2,2,2,2,2,2,2,2,2
7,2,2,2,2,2,2,1,2,2,2,2,2,2,2,2,1,2,2
7,2,2,2,2,2,2,2,2,2,2,2,2,2,2,2,1,2,2
7,2,2,2,2,2,2,1,2,2,2,2,2,2,2,2,2,2,2
7,1,1,1,1,1,1,1,2,2,2,2,2,2,2,2,1,2,2
7,1,1,1,2,2,1,1,1,2,2,2,2,2,2,2,1,2,2
7,2,1,2,2,1,1,1,2,2,2,2,2,2,2,2,1,2,2
7,2,1,1,2,1,2,1,1,2,NA,2,1,2,2,2,1,2,2
7,2,2,2,1,2,2,1,1,2,2,2,2,2,2,2,1,1,2
7,2,2,2,2,2,2,2,2,2,2,2,2,2,2,2,1,2,2
7,1,1,1,2,1,2,2,2,2,2,2,2,2,2,2,1,2,2
7,1,1,1,2,1,2,1,1,2,2,2,2,2,2,2,1,2,2
7,2,2,2,2,2,2,1,2,2,2,2,2,2,2,2,1,2,2
7,2,2,2,2,2,2,2,2,2,2,2,2,2,2,2,1,2,2
7,2,2,2,2,2,2,1,2,2,2,2,2,2,2,2,1,2,2
7,2,2,2,2,2,1,1,2,2,2,2,2,2,1,1,2,2,2
7,2,2,2,2,2,2,1,NA,2,2,2,NA,2,2,2,NA,2,2
7,2,2,2,1,2,2,2,1,2,2,2,2,2,2,2,1,2,2
7,2,2,2,2,2,2,2,2,2,2,2,2,2,2,2,1,2,2
7,2,2,2,2,2,2,2,2,2,2,2,2,2,2,2,1,2,2
7,NA,2,2,2,2,2,1,2,2,2,2,1,2,2,2,2,2,2
7,2,2,2,2,2,2,2,2,2,2,2,2,2,2,2,1,2,2
7,2,2,2,2,2,2,2,2,2,2,2,2,2,2,2,2,2,2
7,2,2,2,2,2,2,1,2,2,2,2,1,2,2,2,1,2,2
7,2,2,2,2,2,1,1,1,2,2,2,2,2,2,2,1,1,2
7,2,2,2,2,2,2,2,1,2,2,2,2,2,2,2,1,2,2
7,2,2,2,2,2,2,2,2,2,2,2,2,2,2,2,2,2,2
7,2,2,2,2,2,2,1,2,2,2,2,2,2,2,2,1,2,2
7,2,2,2,2,2,2,2,2,2,2,2,2,2,2,2,1,2,2
7,2,2,2,2,2,2,1,2,2,2,2,2,2,2,1,NA,2,2
7,2,2,2,2,2,2,2,2,2,2,2,2,2,2,2,1,2,2
7,2,2,2,2,2,2,2,2,2,2,2,2,2,2,2,1,2,2
7,1,2,2,1,1,2,1,2,2,2,2,2,2,2,2,1,1,2
7,1,1,1,2,1,2,1,1,1,2,2,2,2,2,2,1,2,2
7,1,1,1,NA,1,1,2,2,1,2,2,1,2,2,2,2,2,2
7,2,2,2,2,2,2,2,2,2,2,2,2,2,2,2,1,2,2
7,2,2,2,2,2,1,1,1,2,2,2,1,2,2,2,1,2,2
7,2,2,2,2,2,2,2,2,2,2,2,2,2,2,2,2,2,2
7,2,2,1,2,2,2,1,2,2,2,2,2,2,2,2,1,2,2
7,2,2,2,2,2,2,1,2,2,2,2,2,2,2,2,1,2,2
7,2,2,2,2,2,2,2,2,2,2,2,2,2,2,2,1,2,2
7,1,1,1,2,1,1,2,2,2,2,2,2,2,2,2,2,2,2
7,2,2,2,2,2,2,2,2,2,2,2,2,2,2,2,1,2,2
7,2,2,2,2,2,2,2,2,2,2,2,NA,2,2,2,1,2,2
7,2,2,2,2,2,2,2,2,2,2,2,2,2,2,2,1,2,2
7,2,2,2,2,2,2,2,2,2,2,2,2,2,2,2,2,2,2
7,2,2,2,2,2,2,1,1,1,2,2,2,2,2,1,1,2,2
7,2,2,2,2,2,2,1,2,2,2,2,2,2,2,2,2,2,2
7,2,2,2,2,2,2,2,2,2,2,2,2,2,2,2,1,1,2
7,2,2,2,2,2,1,1,2,1,2,2,2,2,2,2,2,2,2
7,2,2,2,2,2,2,2,2,2,2,2,2,2,2,2,1,2,2
7,2,2,2,2,2,1,1,2,2,2,2,2,2,2,2,1,2,2
7,2,2,2,2,2,2,2,2,2,2,2,2,2,2,2,1,2,2
7,2,2,2,2,2,2,2,2,2,2,2,2,2,2,2,2,2,2
7,2,2,2,2,2,2,1,2,2,2,2,2,2,2,2,1,2,2
7,2,2,2,2,2,2,2,2,2,2,2,2,2,2,2,2,2,2
7,2,2,2,2,2,2,2,2,2,2,2,2,2,2,2,1,2,2
7,2,2,2,2,2,2,1,2,2,2,2,2,2,2,2,1,2,2
7,2,2,2,2,2,2,1,1,2,2,2,2,2,2,2,1,1,2
7,2,2,2,2,2,2,1,2,2,2,2,2,2,2,2,2,1,2
7,2,2,2,2,2,2,1,2,2,1,2,2,2,2,2,1,2,2
7,2,2,2,2,2,2,2,2,2,2,2,2,2,2,2,1,2,2
7,2,2,2,2,2,2,1,2,2,2,2,2,2,2,2,1,2,2
7,2,2,2,2,2,2,2,2,2,2,2,2,2,2,2,2,2,2
7,2,2,2,2,2,2,1,1,2,2,2,2,2,2,2,1,2,2
7,2,2,2,2,2,2,1,1,1,2,2,2,2,2,1,1,2,2
7,2,2,2,2,2,2,1,2,2,2,2,2,2,2,2,2,2,2
7,2,2,2,2,2,2,2,2,2,2,2,2,2,2,2,1,2,2
7,2,2,2,2,2,2,1,2,2,2,2,2,2,2,2,2,2,2
7,2,2,2,2,2,2,2,2,2,2,2,2,2,2,2,2,2,2
7,1,1,1,2,2,2,1,1,2,NA,2,2,2,2,2,1,2,2
7,2,2,2,2,2,2,2,2,2,2,2,2,2,2,2,1,2,2
7,2,2,2,2,2,2,2,1,2,2,2,2,2,2,2,1,2,2
7,2,2,NA,2,2,1,2,2,1,2,2,2,2,2,2,1,1,2
7,2,2,2,2,2,2,1,2,2,2,2,1,2,2,2,NA,2,2
7,2,2,2,1,1,2,1,2,1,1,2,1,2,2,1,1,2,2
7,2,2,2,2,2,2,1,1,2,2,2,2,2,2,2,1,2,2
7,2,2,2,1,1,2,1,2,2,2,2,2,2,2,2,2,2,2
7,2,2,2,2,2,1,2,2,1,2,2,2,2,2,2,1,2,2
7,2,2,2,2,2,1,1,1,2,2,2,2,2,2,2,1,2,2
7,2,2,2,2,2,2,2,2,2,2,2,2,2,2,2,2,1,2
7,2,2,2,2,2,1,1,1,1,1,2,2,2,2,2,1,2,2
7,2,2,2,2,2,2,2,2,2,2,2,1,2,2,2,2,1,2
7,2,2,2,2,2,2,1,2,2,2,2,1,2,2,2,1,2,2
7,2,2,2,2,1,2,1,2,2,2,2,2,2,2,2,2,2,2
7,2,2,2,2,2,2,1,2,2,2,2,2,2,2,2,1,1,2
7,2,2,2,2,2,NA,2,2,2,2,2,2,2,2,2,1,2,2
7,2,2,2,2,2,2,2,2,2,2,2,2,2,2,2,1,2,2
7,2,2,2,2,2,2,2,2,2,2,2,2,2,2,2,1,2,2
7,2,2,2,2,2,2,1,2,2,2,2,2,2,2,2,2,2,2
7,2,2,2,2,2,2,2,2,2,2,2,2,2,2,2,1,2,2
7,2,2,2,2,2,2,1,2,2,2,2,2,2,2,2,2,2,2
7,2,2,2,2,2,2,2,2,2,2,2,2,2,2,2,1,2,2
7,2,2,2,2,2,2,2,2,2,2,2,2,2,2,2,1,2,2
7,2,2,2,2,2,2,2,2,2,2,2,2,2,2,2,1,2,2
7,2,2,2,2,2,2,1,2,2,2,2,2,2,2,2,1,2,2
7,2,2,2,2,2,2,1,1,2,2,2,2,2,2,2,1,2,2
7,2,2,2,2,2,2,2,2,2,2,2,2,2,2,2,1,1,2
7,2,2,2,2,2,2,2,2,2,2,2,2,2,2,2,1,2,2
7,2,2,2,2,2,2,1,2,2,2,2,2,2,2,2,1,2,2
7,2,2,2,2,2,2,1,2,2,2,2,2,2,2,2,1,2,2
7,2,2,2,2,2,2,1,2,2,2,2,2,2,2,2,2,2,2
7,2,2,2,2,2,2,2,2,2,2,2,2,2,2,2,1,2,2
7,2,2,2,2,2,2,2,2,2,2,2,2,2,2,2,2,2,2
7,2,2,2,2,2,2,2,2,2,2,2,1,2,2,2,2,2,2
7,2,2,2,2,2,2,1,1,2,2,2,2,2,2,2,1,2,2
7,2,2,2,2,2,2,2,2,2,2,2,2,2,2,2,2,2,2
7,2,2,2,2,2,2,1,2,2,2,2,2,2,2,2,1,2,2
7,1,1,2,2,NA,2,1,1,2,2,2,1,2,2,2,2,2,2
7,2,1,1,1,1,2,1,2,2,2,2,2,2,1,2,2,2,2
7,2,2,2,2,2,2,2,2,2,2,2,2,2,2,2,2,2,2
7,2,2,2,2,2,2,2,2,2,2,2,2,2,2,2,1,2,2
7,2,2,2,2,2,2,1,2,2,2,2,2,2,2,2,1,2,2
7,2,1,1,2,2,2,2,2,2,2,2,2,2,2,2,1,2,2
7,2,2,2,2,2,2,2,2,2,2,2,2,2,2,2,1,2,2
7,2,2,2,2,2,1,1,2,2,2,2,2,2,2,2,2,2,2
7,2,2,2,2,2,2,1,1,2,2,2,2,2,2,2,1,2,2
7,2,2,2,2,2,2,1,1,2,1,2,2,2,2,2,NA,2,2
7,2,1,2,2,1,2,1,2,2,2,2,2,2,2,2,1,2,2
7,2,2,2,2,2,2,1,2,2,2,2,2,2,2,2,2,2,2
7,2,2,2,2,2,2,2,1,2,2,2,2,2,2,2,1,1,2
7,2,2,2,2,2,2,2,2,2,2,2,2,2,2,2,2,2,2
7,2,2,2,2,2,2,2,2,2,2,2,2,2,2,2,1,2,2
7,2,2,2,2,2,2,2,2,2,2,2,2,2,2,2,2,2,2
7,2,2,2,2,2,2,2,2,2,2,2,2,2,2,2,1,2,2
7,1,1,1,2,1,2,1,2,2,2,2,2,2,2,2,1,2,2
7,2,2,2,2,2,2,2,2,2,2,2,2,2,2,2,1,2,2
7,2,2,2,2,2,2,1,2,2,2,2,2,2,2,2,2,2,2
7,2,2,2,2,2,2,1,2,2,2,2,2,2,2,2,2,2,2
7,2,2,2,2,2,2,1,2,2,2,2,2,2,2,2,1,2,2
7,2,2,2,2,2,2,2,2,2,2,2,2,2,2,2,2,NA,2
7,2,2,2,2,2,2,1,2,2,2,2,2,2,2,2,1,2,2
7,2,2,2,2,2,2,1,2,2,2,2,2,2,2,2,2,2,2
7,2,2,2,2,2,2,1,2,2,2,2,2,2,2,2,1,2,2
7,1,2,2,2,2,2,2,2,2,2,2,2,2,2,2,1,2,2
7,2,2,2,2,2,2,2,2,2,2,2,2,2,2,2,1,2,2
7,2,2,2,2,2,2,2,2,2,2,2,2,2,2,2,2,2,2
7,2,2,2,2,2,2,1,2,2,2,2,2,2,2,1,1,2,2
7,2,2,1,2,2,2,2,2,2,2,2,2,2,2,2,1,2,2
7,2,2,2,2,2,2,1,2,2,2,2,2,2,2,2,2,2,2
7,2,2,2,1,1,2,1,2,2,2,2,2,2,2,2,1,1,2
7,2,2,2,2,2,2,1,2,NA,NA,NA,NA,2,2,2,NA,NA,2
7,2,1,2,2,2,NA,1,2,2,2,2,2,2,2,2,1,NA,2
7,2,2,2,2,2,1,1,1,1,2,1,2,2,2,2,1,1,2
7,2,2,2,2,2,2,2,2,2,2,2,2,2,2,2,2,2,2
7,1,1,1,2,2,2,2,2,2,2,2,2,2,2,2,2,2,2
7,2,2,2,2,2,2,2,2,2,2,2,2,2,2,2,2,2,2
7,2,1,2,2,2,2,2,2,2,2,2,2,2,2,2,1,2,2
7,2,1,2,2,2,2,2,1,2,2,2,2,2,2,2,1,2,2
7,2,2,2,2,2,2,2,2,2,2,2,2,2,2,2,2,2,2
7,2,2,2,2,2,2,2,2,2,2,2,2,2,2,2,1,2,2
7,2,2,2,2,2,2,2,2,2,2,2,2,2,2,2,2,2,2
7,2,2,2,2,2,2,1,2,2,2,2,2,2,2,2,1,2,1
7,2,1,1,2,1,2,1,2,2,2,2,2,2,2,2,1,2,2
7,2,2,2,2,2,1,2,2,2,2,2,2,2,2,2,1,2,2
7,2,2,2,2,2,2,1,2,2,2,2,1,2,2,2,2,1,2
7,2,2,2,2,2,2,2,2,2,2,2,2,2,2,2,1,2,2
7,2,2,2,2,2,2,2,2,2,2,2,2,2,2,2,1,2,2
7,2,2,2,2,2,1,1,2,2,2,2,2,2,2,2,1,2,2
7,2,2,2,2,2,2,1,2,2,2,2,2,2,2,2,1,2,2
7,2,2,2,2,2,2,2,2,2,2,2,2,2,2,2,1,2,2
7,2,2,2,2,2,2,2,2,2,2,2,2,2,2,2,1,2,2
7,2,2,2,2,2,2,1,2,2,2,2,2,2,2,2,1,2,2
7,2,2,2,2,2,2,2,2,2,2,2,2,2,2,2,2,2,2
7,2,2,2,2,2,2,2,2,2,1,2,2,2,2,2,1,2,2
7,2,2,2,2,2,2,2,2,2,2,2,2,2,2,2,1,2,2
7,2,2,2,2,2,2,1,2,2,2,2,2,2,2,2,2,2,2
7,2,2,2,2,2,2,2,2,2,2,2,2,2,2,2,1,1,2
7,2,2,2,2,2,1,2,2,2,2,2,2,2,2,1,1,2,2
7,2,2,2,2,2,2,2,2,2,2,2,2,2,2,2,1,2,2
7,2,2,2,2,2,2,1,1,2,2,2,2,1,2,2,1,2,2
7,2,2,2,2,2,2,2,2,2,2,2,2,2,2,2,2,2,2
7,2,2,2,2,2,2,1,2,2,2,2,2,2,2,2,1,2,2
7,2,2,2,2,2,2,1,2,2,1,2,1,2,2,2,2,NA,2
7,2,2,2,2,2,2,1,2,2,2,2,2,2,2,2,1,2,2
7,2,2,2,2,2,2,2,2,2,2,1,1,2,1,2,1,1,1
7,2,2,2,2,2,2,1,2,2,2,2,2,2,1,2,2,2,2
7,2,2,2,2,2,2,1,2,2,2,2,2,2,2,2,2,2,2
7,2,2,2,2,2,1,2,2,2,2,2,2,2,2,2,2,2,2
7,2,2,2,2,2,2,2,2,2,2,2,2,2,2,2,1,2,2
7,2,2,2,2,2,2,2,2,2,2,2,2,2,2,1,2,1,2
7,2,2,2,2,2,2,2,2,2,2,2,2,2,1,2,1,1,2
7,2,2,1,2,2,2,2,2,2,2,2,2,2,2,2,1,2,2
7,2,2,2,2,2,2,2,2,2,2,2,2,2,2,2,2,2,2
7,2,2,2,2,2,2,2,2,1,1,2,2,1,2,2,1,2,2
7,2,2,2,1,2,2,1,2,2,2,2,2,2,2,2,2,2,2
7,2,2,2,2,1,2,1,2,2,2,2,2,2,2,2,1,2,2
7,1,2,2,2,2,2,2,2,2,2,2,2,2,2,2,1,2,2
7,2,2,2,2,2,2,1,2,2,2,2,2,2,2,2,1,2,2
7,2,2,2,2,2,1,1,2,2,2,2,2,2,2,2,2,2,2
7,2,2,2,2,2,2,2,2,2,2,2,2,2,2,2,2,2,2
7,2,2,2,2,2,2,2,2,2,2,2,2,2,2,2,NA,2,2
7,2,2,2,2,2,2,1,2,2,2,2,2,2,2,2,1,2,2
7,2,1,2,2,2,2,2,2,2,2,2,1,2,2,2,NA,2,2
7,2,2,2,2,2,2,1,2,2,2,2,1,2,2,2,1,1,2
7,2,2,2,2,2,2,2,1,2,2,2,2,2,2,2,1,2,2
7,2,2,2,2,2,2,2,2,2,2,2,2,2,2,2,2,2,2
7,2,2,2,2,2,2,2,1,2,2,2,2,2,2,2,2,2,2
7,2,2,2,2,2,2,2,2,2,2,2,2,2,2,2,2,2,2
7,1,1,2,2,2,1,1,2,1,2,2,2,2,2,2,1,2,2
7,2,2,2,2,2,2,2,1,2,2,2,2,2,2,2,2,2,2
7,2,2,2,2,2,2,2,2,2,2,2,2,2,2,2,1,2,2
7,2,2,2,2,2,2,2,2,2,2,2,2,2,2,2,2,2,2
7,2,2,2,2,2,2,2,2,2,2,2,2,2,2,2,2,2,2
7,2,2,2,2,2,2,2,2,2,2,2,2,2,2,2,1,2,2
7,2,2,2,2,2,2,2,2,2,1,2,1,2,2,2,1,2,2
7,2,2,2,2,2,2,2,2,2,2,2,2,2,2,1,2,2,2
7,2,2,2,2,2,2,2,2,2,2,2,2,2,2,2,2,2,2
7,2,2,2,2,2,2,2,2,2,2,2,2,2,2,2,2,2,2
7,2,2,2,2,2,2,1,2,2,2,2,2,2,2,2,1,2,2
7,2,2,2,2,2,2,1,2,2,2,2,2,2,2,2,1,1,2
7,2,2,2,2,2,2,2,2,2,2,2,2,2,2,2,2,1,2
7,2,2,2,2,2,2,2,2,2,2,2,2,2,2,2,1,1,2
7,2,2,2,2,2,2,2,2,2,2,2,2,2,2,2,1,2,2
7,2,2,2,2,2,2,2,2,2,2,2,2,2,2,2,2,2,2
7,2,2,2,2,2,2,2,2,2,2,2,1,2,2,2,1,1,2
7,2,2,2,2,2,2,1,2,2,2,2,2,2,2,2,1,2,2
7,1,2,2,2,2,2,1,2,2,2,2,2,2,2,2,1,1,2
7,2,1,2,2,2,2,2,2,2,2,2,2,2,2,2,1,2,2
7,2,2,2,1,2,2,1,2,2,2,2,2,2,2,2,1,1,2
7,2,2,2,2,2,2,1,2,2,2,2,2,2,2,2,2,2,2
7,2,2,2,2,2,2,1,2,1,2,NA,NA,2,2,2,NA,2,2
7,2,2,2,2,2,2,2,2,2,2,2,2,2,2,2,1,1,2
7,2,2,2,2,2,2,2,2,2,2,2,2,2,2,2,2,2,2
7,2,2,2,2,2,2,1,2,2,2,2,2,2,2,2,1,1,1
7,2,1,2,2,2,2,2,2,2,2,2,1,2,2,2,1,2,2
7,2,2,2,2,2,2,2,2,2,2,2,2,2,2,2,1,2,2
7,2,2,2,1,2,2,1,2,2,2,2,2,2,2,2,1,1,2
7,2,1,1,2,2,1,2,1,2,2,2,2,2,2,2,1,2,2
7,2,2,2,2,2,2,1,2,2,2,2,2,2,2,2,2,2,2
7,2,2,2,2,2,2,1,2,2,2,2,2,2,2,2,1,2,2
7,2,2,2,2,2,2,1,1,2,2,2,1,2,2,1,1,2,2
7,2,2,2,2,2,2,2,2,2,2,2,2,2,2,2,2,2,2
7,1,1,1,1,1,1,1,1,1,2,2,2,2,2,2,2,1,2
7,2,2,2,2,2,2,2,2,2,2,2,2,2,2,2,2,2,2
7,2,2,2,2,2,2,1,2,2,2,2,2,2,2,2,1,2,2
7,2,2,2,2,2,2,2,2,2,2,2,2,2,2,2,2,2,2
7,2,2,2,2,2,2,2,2,2,2,2,2,2,2,2,1,2,2
7,2,2,2,2,2,2,2,2,2,2,2,2,2,2,2,2,2,2
7,2,2,2,2,2,2,2,1,2,2,2,2,2,2,2,1,1,2
7,2,2,1,2,2,2,1,2,2,2,2,2,1,2,2,1,2,2
7,2,2,2,2,2,2,2,2,2,2,2,2,2,2,2,1,2,2
7,2,2,2,2,2,2,2,1,2,2,2,2,2,2,2,2,2,2
7,2,2,2,2,2,2,2,2,2,2,2,2,2,2,2,1,2,2
7,2,2,2,2,2,2,1,2,2,2,2,2,2,2,2,1,2,2
7,2,1,2,2,NA,2,1,1,2,2,2,2,2,2,2,1,2,2
7,2,2,2,2,2,2,1,2,2,2,2,2,2,2,2,2,2,2
7,2,2,2,2,2,1,2,2,2,2,2,2,2,2,2,1,2,2
7,2,2,2,2,2,2,1,2,2,2,2,2,2,2,2,1,2,2
7,2,2,2,2,2,2,2,2,2,2,2,2,2,2,2,2,2,2
7,2,2,2,2,2,2,2,2,2,2,2,2,2,2,2,2,2,2
7,2,2,2,2,2,2,1,1,2,2,2,2,2,2,2,2,2,2
7,2,2,2,2,2,2,1,1,2,2,2,1,2,2,2,1,2,2
7,2,2,2,2,2,2,2,2,2,2,2,2,2,2,2,1,1,1
7,2,2,2,2,2,2,2,2,2,2,2,2,2,2,2,1,2,2
7,2,2,2,2,2,2,2,1,NA,2,2,1,1,2,2,1,1,1
7,2,1,2,2,2,2,1,2,2,1,2,1,2,1,2,2,2,2
7,2,2,2,2,2,2,2,2,2,2,2,2,2,2,2,1,2,2
7,2,2,2,2,2,2,2,2,2,2,2,2,2,2,2,1,NA,2
7,2,2,2,2,2,2,1,2,2,2,2,2,2,2,2,1,1,2
7,2,2,2,1,2,2,1,1,2,2,2,2,2,2,2,1,1,2
7,2,2,2,1,2,2,1,2,2,2,2,2,2,2,2,1,1,2
7,2,2,2,2,2,2,1,1,2,2,2,2,2,2,2,1,2,2
7,2,2,2,1,1,2,1,2,2,2,2,2,2,2,2,1,1,2
7,2,2,2,2,2,2,2,2,2,2,2,2,2,2,2,2,2,2
7,2,2,2,1,2,2,1,2,2,2,2,2,2,2,2,1,1,2
7,2,2,2,2,2,2,2,2,2,2,2,2,2,2,2,2,2,2
7,2,2,2,2,2,2,2,2,2,2,2,2,2,2,2,1,2,2
7,2,1,1,1,1,2,1,2,2,2,2,2,2,2,2,1,1,2
7,2,2,2,2,2,2,1,2,2,2,2,2,2,2,2,2,2,2
7,2,2,2,2,2,2,1,1,2,2,2,2,2,2,2,1,1,2
7,2,2,2,2,2,2,2,1,2,2,2,2,2,2,2,2,2,2
7,2,2,2,2,2,2,2,2,2,2,2,2,2,2,2,1,1,2
7,2,2,2,2,2,2,2,2,2,2,2,2,2,2,2,1,2,2
7,2,2,2,2,2,2,2,2,2,2,2,2,2,2,2,1,2,2
7,2,1,1,2,1,NA,1,2,2,2,2,2,2,2,2,1,1,2
7,2,2,2,2,2,2,1,2,2,2,2,2,2,2,2,1,1,2
7,2,2,2,2,2,2,1,NA,2,2,2,1,2,2,2,1,1,2
7,2,2,2,2,2,2,1,2,2,2,2,2,2,2,2,1,2,2
7,2,2,2,2,2,2,1,1,1,2,2,2,2,2,2,1,1,2
7,2,2,2,2,2,2,2,2,2,2,2,2,2,2,2,2,2,2
7,2,2,2,2,2,2,2,2,NA,2,2,2,2,2,2,2,2,2
7,2,2,2,2,2,2,2,2,2,2,2,2,2,2,2,2,1,2
7,2,2,2,2,2,2,1,2,2,2,2,1,2,NA,NA,2,1,NA
7,2,2,2,2,2,2,2,2,2,2,2,2,2,2,2,1,2,2
7,2,2,2,2,2,2,1,1,NA,2,2,2,2,2,2,1,1,2
7,2,2,2,2,2,2,2,2,2,2,2,2,2,2,2,1,2,2
7,2,2,2,2,2,2,2,2,2,2,2,2,2,1,2,2,2,2
7,2,2,2,2,2,2,2,2,2,2,2,2,2,2,2,1,2,2
7,2,2,2,2,2,2,1,2,2,2,2,2,2,2,2,1,2,2
7,2,2,2,2,2,2,1,2,2,2,2,2,2,2,2,2,2,2
7,2,2,2,2,2,2,1,2,2,2,2,2,2,2,2,2,1,2
7,2,2,2,2,2,1,1,1,NA,NA,NA,1,2,2,2,1,2,2
7,2,2,2,2,2,2,1,1,2,2,2,2,2,2,2,1,1,2
7,2,2,2,2,2,2,2,2,2,2,2,1,2,2,2,NA,2,2
7,2,2,2,2,2,2,2,1,2,2,2,2,2,2,2,1,2,2
7,2,2,2,2,2,2,1,1,1,2,2,2,2,2,2,1,1,2
7,2,2,2,2,2,1,2,2,2,2,2,2,2,2,2,2,1,2
7,2,2,2,2,2,1,NA,NA,1,2,2,1,2,2,2,1,1,2
7,2,2,2,2,2,2,1,1,1,2,2,2,2,2,2,1,1,2
7,2,2,2,2,2,1,2,1,1,2,1,2,2,NA,2,NA,2,2
7,2,2,2,2,2,2,2,2,2,2,2,1,2,2,2,2,2,2
7,2,2,2,2,2,2,2,2,2,2,2,2,2,1,2,2,2,2
7,1,1,NA,2,1,2,1,1,NA,2,2,2,2,2,2,1,1,2
7,2,2,2,2,2,2,2,2,2,2,2,2,2,2,2,1,1,2
7,2,2,2,2,2,2,2,2,2,2,2,2,2,2,2,1,1,2
7,2,2,2,2,2,2,1,1,1,2,2,2,2,2,2,1,1,2
7,2,2,2,2,2,2,2,2,2,2,2,2,2,2,2,2,2,2
7,2,2,2,2,2,2,1,2,2,2,2,2,2,2,2,1,2,2
7,2,2,2,2,2,2,2,2,2,2,2,2,2,2,2,2,2,2
7,2,1,1,2,2,2,2,1,2,2,2,2,2,2,2,1,2,2
7,2,2,2,2,2,2,2,2,2,2,2,2,2,2,2,2,2,2
7,2,2,2,2,2,2,1,2,2,2,2,2,2,2,2,2,2,2
7,2,2,2,2,2,2,1,1,1,NA,2,NA,2,2,2,1,1,2
7,2,2,2,2,2,2,2,2,2,2,2,2,2,2,2,1,1,2
7,2,2,2,2,2,2,1,1,2,2,2,2,2,2,2,1,2,2
7,2,2,2,2,2,2,2,2,2,2,2,2,2,2,2,2,2,2
7,2,2,2,2,2,2,1,2,2,2,2,2,2,2,2,1,2,2
7,2,2,2,2,2,2,1,2,2,2,2,1,2,2,2,1,1,2
7,2,2,2,1,1,2,2,2,2,2,2,2,2,2,2,2,2,2
7,2,2,2,2,2,2,1,2,2,2,2,2,2,2,2,2,2,2
7,2,2,2,2,2,2,2,1,2,2,2,1,2,NA,2,1,1,2
7,2,2,2,2,2,2,2,2,2,2,2,2,2,2,2,1,2,1
7,2,2,2,2,2,NA,2,2,2,2,2,2,2,2,2,1,2,2
7,2,2,2,2,2,2,2,2,2,2,2,1,2,2,2,2,1,2
7,2,2,2,2,2,2,2,2,2,2,2,2,2,2,2,2,2,2
7,2,2,2,2,2,2,2,2,2,2,2,2,2,2,2,2,2,2
7,2,2,2,2,2,2,2,2,2,2,2,2,2,2,2,2,2,2
7,2,2,2,2,2,2,1,2,2,2,2,2,2,2,2,1,2,2
7,2,2,2,2,2,NA,1,2,2,2,2,1,2,2,2,NA,1,2
7,2,2,1,2,2,1,1,2,2,2,2,2,2,2,1,NA,2,2
7,2,2,2,2,2,2,1,1,2,2,2,2,2,2,2,2,2,2
7,2,2,2,2,2,2,1,1,2,2,2,2,2,2,2,1,1,2
7,2,2,2,2,2,2,2,2,2,2,2,2,2,2,2,2,2,2
7,2,2,2,2,2,2,2,2,2,2,2,2,2,2,2,2,2,2
7,2,1,1,1,2,2,2,1,2,2,2,2,2,2,2,1,2,2
7,2,2,2,2,2,1,1,2,1,2,2,1,2,1,2,2,2,2
7,2,2,2,2,2,2,2,2,2,2,2,1,2,2,2,1,1,1
7,2,2,2,2,2,2,2,2,2,2,2,2,2,2,2,2,1,2
7,2,2,2,2,2,2,2,2,2,2,2,2,2,2,2,1,2,2
7,1,1,1,2,2,2,1,1,2,2,2,2,2,2,2,1,NA,2
7,1,1,2,2,2,2,NA,1,NA,NA,2,2,1,2,2,1,2,2
7,2,2,2,2,2,2,2,2,2,2,2,2,2,1,2,1,2,2
7,1,1,1,1,1,1,1,2,2,2,2,2,2,2,2,1,1,1
7,2,2,2,2,2,2,2,2,2,2,2,2,2,2,2,1,2,2
7,2,2,2,2,2,2,2,2,2,2,2,2,2,2,2,2,2,2
7,2,2,2,2,2,2,2,2,2,2,2,2,2,2,2,2,2,2
7,2,2,2,1,2,1,1,1,1,2,2,2,2,2,2,NA,2,2
7,2,2,2,2,2,2,1,2,2,2,2,2,2,2,2,1,1,1
7,2,2,2,2,2,NA,NA,2,2,2,2,1,2,2,2,NA,1,2
7,1,1,1,1,2,2,2,2,1,1,1,2,2,2,2,1,1,1
7,2,2,2,2,1,2,1,2,2,2,2,2,2,2,2,1,1,2
7,2,2,2,2,1,2,2,2,2,2,2,1,2,2,2,1,1,1
7,2,2,2,2,2,2,1,2,2,2,2,2,2,2,2,1,2,2
7,1,1,1,2,1,2,2,1,2,2,2,2,2,2,2,1,2,1
7,2,2,2,2,2,2,2,2,2,2,2,2,2,2,2,2,2,2
7,2,2,2,2,2,2,2,2,2,2,2,2,2,2,2,1,2,2
7,2,2,2,2,2,2,2,2,2,2,2,2,2,2,2,2,2,1
7,2,2,2,2,2,2,1,1,2,2,2,2,2,2,2,1,2,2
7,2,2,2,2,2,2,2,1,2,2,2,2,2,2,2,1,1,2
7,2,2,2,2,2,2,1,2,2,2,2,2,2,2,2,1,2,2
7,1,1,1,2,2,2,2,2,2,2,2,2,2,2,2,1,2,2
7,2,2,2,2,2,2,1,2,2,2,2,2,2,2,2,1,2,2
7,2,2,2,2,2,2,2,2,2,2,2,2,2,2,2,1,2,2
7,2,2,2,2,2,2,1,1,2,2,2,2,2,2,2,2,2,2
7,2,2,2,2,2,2,2,2,2,2,2,2,2,2,2,2,2,2
7,2,2,2,2,2,2,2,1,2,2,2,2,2,2,2,1,2,2
7,2,2,2,1,2,2,2,NA,2,2,2,2,2,2,2,1,2,2
7,2,2,2,2,2,2,2,2,2,2,2,1,2,2,2,1,2,1
7,2,2,2,2,2,2,2,2,2,2,2,2,2,2,2,2,2,2
7,2,2,2,2,2,2,1,1,2,2,2,2,2,2,2,1,1,2
7,2,2,2,2,2,2,1,2,2,2,2,2,2,2,2,1,1,2
7,2,2,2,2,2,2,1,2,2,2,2,1,2,2,2,1,1,2
7,2,1,2,2,2,1,2,2,1,1,1,2,1,1,2,1,1,1
7,1,2,2,2,2,2,1,2,2,2,2,2,2,2,1,1,2,2
7,2,2,2,2,2,NA,1,1,NA,2,2,2,2,2,2,1,1,2
7,1,2,2,2,2,2,2,2,2,2,2,2,2,2,2,2,2,2
7,2,2,2,2,2,2,2,1,2,2,2,2,2,2,1,1,2,2
7,2,2,2,2,2,2,1,2,2,2,2,2,2,2,2,2,1,2
7,2,2,2,2,2,2,2,1,2,2,2,2,2,2,2,1,1,2
7,2,2,2,1,2,2,2,2,2,2,2,2,2,2,2,2,2,2
7,2,2,2,2,2,2,1,2,2,2,2,2,2,2,2,1,1,2
7,2,2,2,2,2,2,1,2,2,2,2,2,2,2,2,1,2,2
7,2,2,2,2,2,2,2,2,2,2,2,2,2,2,2,1,2,2
7,2,1,2,1,1,2,1,2,2,2,2,2,2,2,2,1,1,2
7,2,2,2,2,2,2,1,2,2,2,2,2,2,2,2,2,2,2
7,2,2,2,2,2,2,1,2,2,2,2,2,2,2,2,1,2,2
7,2,2,2,2,2,2,2,2,2,2,2,2,2,2,2,2,2,2
7,1,1,1,2,1,2,1,2,2,2,2,2,2,2,2,1,2,2
7,2,2,2,2,2,2,2,2,2,2,2,2,2,2,2,1,2,2
7,2,2,2,2,2,2,1,1,2,2,2,2,2,2,2,1,1,2
7,2,2,2,2,2,1,2,2,2,2,2,2,2,2,2,1,2,2
7,2,2,2,2,2,2,2,2,2,2,2,2,2,2,2,1,1,2
7,2,2,2,2,2,2,1,1,2,2,2,1,2,2,2,1,1,2
7,2,2,2,1,2,2,1,2,2,2,2,2,2,2,2,1,1,2
7,2,2,2,1,1,2,1,2,2,2,2,2,2,2,2,1,1,1
7,2,1,1,2,2,2,2,2,2,2,2,1,2,1,2,2,1,2
7,2,2,2,2,2,2,2,2,2,2,2,2,2,2,2,2,2,2
7,2,2,2,2,2,2,2,2,2,2,2,2,2,2,2,2,2,2
7,2,2,2,2,2,2,2,2,2,2,2,2,2,2,2,1,2,2
7,2,2,2,2,2,2,2,2,2,2,2,2,2,1,2,1,1,2
7,2,2,2,2,2,2,2,2,2,2,2,2,2,2,2,1,2,2
7,2,2,2,2,2,2,2,2,2,2,2,1,2,2,2,2,2,2
7,2,2,2,2,2,2,2,2,2,2,2,1,2,2,2,2,2,2
7,2,2,2,2,2,2,2,2,2,2,2,2,2,2,2,1,2,2
7,2,2,2,2,2,2,2,2,2,2,2,2,2,2,2,2,2,2
7,2,2,2,2,2,2,2,2,2,2,2,2,2,2,2,2,2,2
7,2,2,2,2,2,2,2,2,2,2,2,2,2,1,2,2,2,2
7,2,2,2,2,2,2,2,2,2,2,2,2,2,2,2,1,1,2
7,2,2,2,2,2,2,1,2,2,2,2,2,2,1,2,1,2,2
7,1,1,2,2,2,2,1,1,2,1,1,1,2,2,2,1,2,2
7,2,2,2,2,2,2,2,2,2,2,2,2,2,2,2,1,2,2
7,2,2,2,2,2,2,2,2,2,2,2,2,2,2,2,1,2,2
7,2,2,2,2,2,2,1,1,2,2,2,2,2,2,2,1,2,2
7,2,2,2,2,2,2,2,2,NA,2,2,1,2,2,2,1,1,2
7,2,2,2,1,2,2,1,2,2,2,2,2,2,2,2,1,1,1
7,2,2,2,2,2,2,2,2,2,2,2,2,2,2,2,2,2,2
7,2,2,2,2,2,2,1,2,2,2,2,2,2,2,2,1,2,2
7,2,2,2,2,2,2,1,2,2,2,NA,2,2,1,2,1,2,2
7,2,2,2,2,2,2,1,2,2,2,2,2,2,2,2,1,2,2
7,2,2,2,1,2,2,1,2,2,2,2,2,2,2,2,1,1,2
7,2,2,2,2,2,2,2,2,2,2,2,2,2,2,2,1,2,2
7,2,2,2,2,2,2,2,2,2,2,2,2,2,2,2,1,2,2
7,2,2,2,2,2,2,1,2,2,2,2,2,2,2,2,1,2,2
7,1,1,2,2,2,2,2,2,2,2,2,1,2,2,2,2,2,2
7,1,1,2,1,1,2,2,1,2,2,2,2,2,1,2,1,2,1
7,2,1,2,2,2,2,1,2,2,2,2,1,2,2,2,2,2,2
7,2,2,2,1,1,2,1,2,2,2,2,2,2,2,2,1,1,2
7,2,2,2,2,2,2,1,2,2,2,2,2,2,2,2,1,1,2
7,2,2,2,1,2,2,1,2,2,2,2,2,2,1,2,1,2,2
7,2,2,2,1,2,2,1,2,2,2,2,2,2,2,2,1,1,2
7,2,2,2,2,2,2,1,2,2,2,2,2,2,2,2,2,2,2
7,2,2,2,2,2,2,2,2,2,2,2,2,2,2,2,1,2,2
7,2,2,2,2,2,1,1,2,2,2,2,2,2,2,2,1,1,1
7,2,2,2,2,2,2,2,2,2,2,2,2,2,2,2,2,2,2
7,2,2,2,2,2,2,2,2,2,2,2,2,2,2,2,2,2,2
7,2,2,2,2,2,2,2,2,2,2,2,2,2,2,2,1,2,2
7,2,2,2,2,2,2,2,2,2,2,2,2,2,2,2,1,2,2
7,2,2,2,2,2,2,2,2,2,2,2,1,2,2,2,1,1,2
7,2,2,2,2,2,2,2,2,2,2,2,2,2,2,2,1,2,2
7,2,2,2,2,2,2,2,1,2,2,2,2,2,2,2,NA,2,2
7,2,2,2,2,2,2,2,2,2,2,2,2,2,2,2,2,2,NA
7,2,2,2,2,2,1,1,1,NA,2,2,2,2,2,2,1,NA,2
7,2,2,2,2,2,2,2,2,2,2,2,2,2,1,2,1,2,2
7,2,2,2,2,2,2,1,2,2,2,2,2,2,2,2,1,2,2
7,2,2,2,2,2,2,2,2,2,2,2,2,2,2,2,1,1,2
7,2,2,2,2,2,2,2,2,2,2,2,2,2,2,2,1,2,2
7,2,2,2,2,2,2,1,2,2,2,2,2,2,2,2,1,2,2
7,1,2,2,2,2,2,1,1,2,2,2,2,2,2,2,1,2,1
7,2,2,2,2,2,2,1,1,2,1,2,2,2,2,2,2,1,2
7,2,2,1,2,2,2,2,2,2,2,2,2,1,1,2,2,2,2
7,2,2,2,2,2,NA,NA,2,2,2,2,1,2,2,2,NA,2,2
7,2,2,2,2,2,2,1,2,2,2,2,2,2,2,2,1,1,2
7,1,1,1,2,1,2,2,2,2,2,2,2,2,2,2,1,2,2
7,2,2,2,2,2,2,2,2,2,2,2,2,2,2,2,1,2,2
7,2,2,2,2,2,2,2,2,2,2,2,2,2,2,2,1,2,2
7,2,1,1,2,2,2,1,2,2,2,2,2,1,2,2,1,1,2
7,2,2,2,2,2,2,2,2,2,2,2,2,2,2,2,1,2,2
7,2,2,2,2,2,2,2,2,2,2,2,2,2,2,2,2,2,2
7,2,2,2,2,2,2,2,2,2,2,2,2,2,2,1,1,2,2
7,2,2,2,2,2,2,2,2,2,2,2,1,2,2,2,2,2,2
7,2,2,2,2,2,2,2,2,2,2,2,2,2,2,2,2,2,2
7,2,2,2,2,2,2,1,1,2,2,2,2,2,2,2,1,2,2
7,2,2,1,1,1,1,1,1,1,2,NA,2,2,NA,2,1,NA,2
7,2,2,2,2,2,2,2,2,2,NA,2,2,2,2,2,NA,2,2
7,2,2,2,2,2,2,2,1,2,2,2,2,2,2,2,2,2,2
7,1,1,2,2,2,2,1,1,2,2,2,2,2,2,2,1,2,2
7,2,2,2,2,2,2,2,2,2,2,2,2,2,2,2,1,2,2
7,2,2,1,2,2,1,1,1,2,2,2,2,2,1,2,1,2,2
7,2,2,2,2,2,1,1,2,1,2,2,1,2,2,1,1,2,2
7,2,2,2,2,2,2,2,2,2,2,2,2,2,2,2,1,2,2
7,2,2,2,2,2,2,2,2,2,2,2,2,2,2,2,1,2,2
7,2,2,2,2,2,2,2,2,2,2,2,2,2,2,2,2,2,2
7,2,2,2,2,2,2,2,2,2,2,2,2,2,2,1,1,1,2
7,2,2,2,2,2,2,2,2,2,2,2,2,2,2,2,1,2,2
7,2,2,2,2,2,1,1,2,1,2,2,2,2,2,1,1,2,2
7,2,2,2,2,2,2,1,2,2,2,2,1,2,2,2,1,2,2
7,2,2,2,2,2,NA,NA,NA,NA,NA,NA,NA,2,2,2,1,2,2
7,2,2,2,2,2,2,2,2,2,2,2,2,2,2,2,1,2,2
7,2,2,2,2,2,2,2,2,2,2,2,2,2,1,2,1,2,2
7,2,2,2,NA,2,2,1,2,2,2,2,2,2,2,2,2,2,2
7,2,2,2,2,2,2,2,2,2,2,2,2,2,2,2,2,2,2
7,2,2,2,2,2,2,2,2,2,2,2,2,2,2,2,2,2,2
7,2,2,2,2,2,2,2,2,2,2,2,2,2,2,2,2,2,2
7,2,2,2,2,2,2,2,2,1,2,2,1,2,2,1,2,2,2
7,2,2,2,2,2,2,1,2,2,2,2,2,2,2,2,2,2,2
7,2,2,2,2,2,2,2,2,2,2,2,2,2,2,2,1,2,2
7,2,2,2,2,2,2,2,1,2,2,2,2,2,1,2,1,2,2
7,2,2,2,2,2,2,1,2,2,2,2,2,2,2,2,1,2,2
7,2,2,2,2,2,2,2,2,2,2,2,2,2,2,2,1,2,2
7,2,2,2,2,2,2,2,2,2,2,2,2,2,2,2,2,2,2
7,2,2,2,2,2,1,2,1,1,2,2,2,2,1,2,1,2,2
7,2,2,2,1,2,2,2,2,2,2,NA,2,2,1,2,1,2,1
7,2,2,2,2,2,2,1,2,2,2,2,2,2,2,2,2,2,2
7,2,2,2,2,2,1,2,1,2,2,2,2,2,2,NA,2,2,2
7,2,2,2,2,2,2,2,2,2,2,2,2,2,2,1,1,2,2
7,2,2,2,2,2,2,2,1,2,2,2,2,2,2,2,2,2,2
7,2,2,2,2,2,2,2,1,2,2,2,2,2,2,1,1,1,1
7,2,2,2,2,2,2,2,2,2,2,2,2,2,2,2,1,2,2
7,2,2,2,2,2,1,1,1,2,2,2,1,2,1,2,2,2,2
7,2,2,2,1,2,1,1,1,2,2,2,1,2,2,2,2,2,2
7,2,2,2,2,2,2,1,2,2,2,2,2,2,2,2,1,2,2
7,2,2,2,2,2,2,1,2,2,2,2,1,2,2,2,NA,2,2
7,2,2,1,NA,2,2,2,2,2,2,2,2,2,2,NA,1,2,2
7,2,2,2,2,2,2,2,1,1,2,NA,NA,2,2,2,1,2,2
7,2,2,2,2,2,1,2,2,2,2,2,2,2,2,2,2,2,2
7,2,2,2,2,2,2,1,1,2,2,1,2,2,2,2,1,2,2
7,1,1,1,2,1,2,1,2,2,2,2,2,2,2,2,1,1,2
7,2,2,2,2,2,2,2,2,2,2,2,2,2,1,2,2,1,2
7,2,2,2,2,2,2,2,2,2,2,2,2,2,1,2,2,2,2
7,2,2,2,2,2,2,2,2,2,2,2,2,2,2,2,1,2,2
7,2,2,2,2,2,2,1,2,2,2,2,2,2,2,2,1,2,2
7,2,2,2,2,2,2,2,2,2,2,2,1,2,2,2,1,2,2
7,2,2,2,2,2,2,2,2,2,2,2,2,2,2,2,1,1,1
7,2,2,2,2,2,2,2,2,2,2,2,2,2,2,2,1,2,2
7,2,2,2,2,2,2,1,2,2,2,2,2,2,2,2,1,1,2
7,2,2,2,2,2,2,2,2,2,2,2,2,2,2,2,1,2,2
7,2,2,2,2,2,2,2,2,2,2,2,2,2,2,2,1,2,2
7,2,2,2,2,2,2,1,1,NA,NA,2,2,2,2,NA,2,NA,2
7,2,2,2,2,2,2,2,2,2,2,2,2,2,2,2,1,2,2
7,2,2,2,2,2,2,2,2,2,2,2,2,2,2,2,1,1,2
7,2,2,2,2,2,2,2,2,2,2,2,2,2,1,2,2,2,2
7,2,2,2,2,2,2,2,2,2,2,2,2,2,2,2,1,2,2
7,2,2,2,2,2,2,2,2,2,2,2,2,2,2,2,1,1,1
7,2,2,2,2,2,2,2,2,2,2,2,2,2,2,2,1,1,2
7,2,2,2,2,2,2,1,2,2,2,2,2,2,2,2,2,2,2
7,2,2,2,2,2,2,2,2,2,2,2,2,2,2,2,1,2,1
7,2,2,2,2,2,2,2,2,2,2,2,2,2,2,2,2,2,2
7,2,2,2,2,2,2,2,2,2,2,2,2,2,2,2,2,2,2
7,2,1,2,2,2,2,1,2,2,2,2,2,2,2,2,1,2,2
7,2,2,2,2,2,2,2,1,2,2,2,2,2,2,2,1,2,2
7,2,2,2,2,2,2,2,2,2,2,2,2,2,2,2,1,1,2
7,2,2,2,1,2,2,1,2,2,2,2,2,2,2,2,1,1,1
7,2,2,2,2,2,2,2,2,2,2,2,2,2,2,2,2,2,2
7,2,2,2,2,2,2,2,2,2,2,2,2,2,2,2,1,2,2
7,2,2,2,2,2,1,1,2,2,2,2,2,2,2,2,1,2,2
7,2,2,2,2,2,2,2,2,2,2,2,2,2,2,2,1,2,2
7,2,2,2,2,2,2,2,1,2,2,2,2,2,2,2,1,2,2
7,1,1,1,2,1,1,1,2,2,2,2,2,2,2,2,1,2,2
7,2,2,2,2,2,2,2,2,2,2,2,2,2,2,2,2,2,2
7,2,2,2,2,1,2,1,2,2,2,NA,2,2,2,2,NA,NA,2
7,2,2,2,2,2,2,2,2,2,2,2,2,1,1,2,1,2,2
7,2,2,2,2,2,1,2,2,2,2,2,2,2,2,2,1,2,2
7,2,2,2,2,2,2,2,1,2,1,1,2,2,1,2,1,1,2
7,2,2,2,2,2,2,1,2,2,2,2,2,2,2,2,1,2,2
7,1,1,1,2,2,2,1,1,2,2,2,2,2,2,2,2,2,2
7,2,2,2,2,2,1,2,2,2,2,2,2,2,2,2,1,2,2
7,2,2,2,2,2,2,1,2,2,2,2,2,2,2,2,1,2,2
7,2,2,2,2,2,2,2,2,2,2,2,2,2,2,2,2,2,2
7,2,2,2,2,2,2,2,2,2,2,2,2,2,2,2,1,2,2
7,2,2,2,2,2,1,1,2,2,2,2,2,2,2,1,1,2,2
7,2,2,2,2,2,2,2,2,2,2,2,2,2,2,2,1,2,2
7,2,2,2,2,2,2,1,2,2,2,2,2,2,2,2,NA,NA,2
7,2,2,2,2,2,1,1,2,1,2,2,2,2,2,1,1,2,2
7,2,2,2,2,2,2,2,2,2,2,2,2,2,2,2,1,2,2
7,2,2,2,2,2,2,2,2,2,2,2,2,2,2,2,2,2,2
7,2,2,2,2,2,1,1,1,1,2,2,2,2,2,1,1,2,2
7,2,2,2,2,2,1,1,2,1,2,2,2,2,2,2,1,1,2
7,2,2,2,2,2,2,2,2,2,2,2,2,2,2,2,2,2,2
7,2,2,2,2,2,2,2,2,2,2,2,2,2,2,2,2,2,2
7,2,2,2,1,2,2,2,2,2,2,2,2,2,2,2,2,2,2
7,2,2,2,2,2,2,2,2,2,2,2,2,2,2,2,1,2,2
7,2,2,2,2,2,2,2,1,2,2,2,2,2,2,2,1,2,2
7,2,2,2,2,2,2,2,2,2,2,2,2,2,2,2,NA,NA,2
7,2,2,2,2,2,2,1,2,2,2,2,2,2,2,2,2,2,2
7,2,2,2,2,2,2,1,2,2,2,2,2,2,2,2,1,2,2
7,2,2,2,2,2,1,2,2,NA,2,2,1,2,2,2,1,1,2
7,2,2,2,2,2,2,1,1,2,2,2,2,2,2,2,1,2,2
7,2,2,2,2,2,2,2,1,2,2,2,2,2,2,2,2,2,2
7,2,2,2,2,2,2,2,2,2,2,2,2,2,2,2,2,2,2
7,2,2,1,2,2,2,2,2,2,2,2,2,2,2,2,2,2,2
7,2,2,2,2,2,2,1,2,2,2,2,2,2,2,2,1,1,2
7,2,2,2,2,2,2,2,2,2,1,1,1,2,2,2,1,2,2
7,2,2,2,2,2,2,2,2,2,2,2,2,2,1,2,1,2,2
7,2,2,2,2,2,2,2,2,2,2,2,2,2,2,2,1,2,2
7,2,2,2,2,2,2,1,2,2,2,2,2,2,2,2,2,2,2
7,2,1,1,2,2,1,1,2,2,2,2,2,2,2,1,1,1,1
7,2,2,2,2,2,1,2,2,2,2,2,2,2,2,2,2,2,2
7,2,2,2,2,2,2,1,2,2,2,2,2,2,2,2,2,2,2
7,2,2,2,2,2,2,2,2,2,2,2,2,2,2,2,2,2,2
7,2,2,2,2,2,2,2,2,2,2,2,2,2,2,2,1,2,2
7,2,2,2,2,2,2,2,1,2,2,2,2,2,2,2,1,2,2
7,2,2,2,2,2,2,2,2,2,2,2,2,2,2,2,NA,2,NA
7,2,2,2,2,2,2,2,2,2,2,2,2,2,2,2,1,2,2
7,2,2,1,2,2,2,2,2,2,2,2,2,2,2,2,1,2,2
7,2,1,2,2,2,2,2,1,NA,NA,2,NA,2,2,2,1,2,2
7,2,2,2,2,2,2,2,2,2,2,2,2,2,2,2,1,2,2
7,2,2,2,2,2,2,2,2,2,2,2,2,2,2,2,2,2,2
7,2,2,2,2,2,2,2,2,2,2,2,NA,2,2,2,2,2,2
7,2,2,2,2,2,1,1,2,2,2,2,2,2,2,2,2,2,2
7,2,2,2,2,2,2,2,2,2,2,2,2,2,2,2,1,1,2
7,2,2,2,2,2,2,2,2,2,2,2,1,2,2,1,NA,2,2
7,2,2,2,2,2,2,2,2,2,2,2,2,2,2,2,1,2,2
7,2,2,2,2,2,2,2,2,2,2,2,2,2,2,2,2,2,2
7,2,2,2,2,2,1,1,1,2,2,2,2,2,2,2,1,2,2
7,2,2,2,2,2,2,2,2,2,2,2,2,2,2,2,1,2,2
7,2,2,2,2,2,2,2,2,2,2,2,2,2,2,2,1,2,2
7,2,2,2,2,2,2,2,2,2,2,2,2,2,2,2,2,2,2
7,2,2,2,2,2,2,2,2,2,2,2,2,2,2,2,1,2,2
7,2,2,2,2,2,2,2,2,2,2,2,2,2,2,2,1,2,2
7,2,2,2,2,2,1,1,2,2,2,2,2,2,2,1,1,2,2
7,2,2,2,2,2,2,1,2,2,2,2,2,2,2,2,2,2,2
7,2,2,2,2,2,2,2,2,2,2,2,2,2,2,2,1,2,2
7,2,2,2,2,2,2,2,2,2,2,2,2,2,2,2,NA,2,2
7,2,2,2,2,2,2,2,2,2,2,2,2,2,2,2,1,2,2
7,2,2,2,2,2,2,2,2,2,2,2,1,2,2,2,2,2,2
7,2,2,2,2,2,2,2,2,2,2,2,1,2,2,2,2,2,2
7,2,2,2,2,2,2,2,2,2,2,2,2,2,2,2,1,2,1
7,2,2,2,2,2,1,2,2,2,2,2,2,2,2,2,1,2,2
7,2,2,2,2,2,2,2,2,2,2,2,2,2,2,2,1,2,2
7,1,1,2,2,1,2,1,1,2,2,1,2,2,2,2,1,1,2
7,2,2,2,2,2,2,1,2,1,1,2,2,2,1,2,1,1,2
7,2,2,2,2,2,2,2,2,2,2,2,2,2,2,2,2,2,2
7,2,2,2,2,2,1,1,1,2,2,2,2,2,2,2,1,1,2
7,2,1,2,2,2,2,2,2,2,2,2,2,2,2,2,NA,2,2
7,2,2,2,2,2,2,2,2,2,2,2,2,2,2,2,1,2,2
7,2,2,2,2,2,1,2,2,2,2,2,2,1,2,2,2,2,2
7,2,2,2,2,2,2,2,2,2,2,2,2,2,2,2,1,2,2
7,2,2,2,2,2,2,2,2,2,2,2,2,2,2,2,2,2,2
7,2,2,2,2,2,2,2,2,2,2,2,2,2,2,2,2,2,2
7,2,2,2,2,2,2,2,2,2,2,2,2,2,2,2,2,2,2
7,2,2,2,2,2,2,2,1,2,2,2,2,2,2,1,1,2,2
7,2,2,2,2,2,2,2,2,2,2,2,2,2,2,2,1,2,2
7,2,2,2,2,2,2,1,1,2,2,2,2,2,2,2,1,2,2
7,2,2,1,2,2,1,1,2,2,2,2,2,2,2,2,1,2,2
7,2,2,2,2,2,2,1,2,2,2,2,2,2,2,2,1,1,2
7,2,2,2,2,2,2,2,2,2,2,2,2,2,2,2,NA,2,2
7,2,2,2,2,2,2,2,2,2,2,2,2,2,1,2,2,2,2
7,2,2,2,2,2,1,1,NA,2,2,2,NA,2,2,2,1,1,2
7,2,2,2,2,2,2,2,2,2,2,2,2,2,2,2,1,1,2
7,2,2,2,2,2,2,2,2,2,2,2,2,2,2,2,1,2,2
7,2,2,2,2,2,1,2,1,1,2,2,2,2,1,1,1,2,2
7,2,2,2,2,2,2,2,2,2,2,2,2,2,2,2,1,2,2
7,2,2,2,2,2,2,2,2,2,2,2,2,2,2,2,1,2,2
7,2,2,2,2,2,2,2,2,2,2,2,1,2,2,2,1,2,2
7,2,2,2,2,2,2,2,2,2,2,2,2,2,2,2,1,2,2
7,2,2,2,NA,2,2,2,2,2,2,2,2,2,2,2,1,2,2
7,2,2,2,2,2,2,2,2,2,2,2,2,2,2,2,1,2,2
7,2,2,2,2,2,1,1,NA,1,NA,2,2,2,2,2,1,2,2
7,2,2,2,2,2,2,1,2,2,2,2,2,2,2,2,2,2,2
7,2,2,2,2,2,2,2,2,2,2,2,1,2,2,2,1,2,2
7,2,2,2,2,2,2,2,2,2,2,2,2,2,2,2,1,2,2
7,2,2,2,2,2,1,1,1,2,2,2,2,2,2,2,2,2,2
7,2,2,2,2,2,1,1,1,2,2,2,2,2,2,2,1,2,2
7,2,2,2,2,2,2,1,2,2,2,2,2,2,2,1,2,2,2
7,2,2,2,2,2,2,2,2,2,2,2,2,2,2,2,1,2,2
7,2,2,2,2,2,2,2,2,2,2,2,2,2,2,2,1,2,2
7,2,2,2,2,2,2,2,2,2,2,2,2,2,2,2,2,2,2
7,2,2,2,2,2,2,2,2,2,2,2,1,2,2,2,1,2,2
7,2,2,2,2,2,2,2,2,2,2,2,2,2,2,2,1,2,2
7,2,2,2,2,2,2,2,2,2,2,2,1,2,2,2,1,1,2
7,2,2,2,2,2,2,1,2,2,2,2,2,2,2,2,1,2,2
7,2,2,2,2,2,2,2,2,2,2,2,2,2,2,NA,1,2,2
7,2,2,2,2,2,2,2,2,2,2,2,2,2,2,2,NA,2,2
7,2,2,2,2,2,2,2,2,2,2,2,2,2,2,2,1,2,2
7,2,2,1,2,2,2,1,2,2,2,2,2,2,2,1,1,2,1
7,2,2,2,2,2,2,2,2,2,2,2,2,2,2,2,1,2,2
7,2,2,2,2,2,2,2,2,2,2,2,2,2,2,2,1,2,2
7,2,2,2,2,2,2,1,2,2,2,2,1,2,1,2,1,2,2
7,2,2,2,2,2,2,2,2,2,2,2,2,2,2,2,1,2,2
7,2,2,2,2,2,2,2,2,2,NA,2,2,2,2,2,1,2,2
7,2,2,2,2,2,2,2,2,2,2,2,2,2,2,2,2,2,2
7,2,2,2,2,2,2,2,2,2,2,2,1,2,2,2,1,2,2
7,2,2,2,2,2,2,2,2,2,2,2,2,2,2,2,2,2,2
7,2,1,2,2,2,2,2,2,2,2,2,2,2,2,1,1,2,2
7,2,2,2,2,2,2,2,2,2,2,2,2,2,2,2,1,2,2
7,2,2,2,2,2,2,2,2,2,2,2,2,2,2,2,2,2,2
7,2,1,2,2,2,2,1,2,2,2,2,2,2,2,1,NA,NA,NA
7,2,2,2,2,2,2,2,2,2,2,2,1,2,2,2,1,2,2
7,2,2,2,2,2,1,1,1,2,2,2,2,1,2,2,1,2,2
7,2,2,2,2,2,2,2,2,2,2,2,2,2,2,2,1,2,2
7,2,2,2,2,2,2,2,2,2,2,2,2,2,2,2,1,2,2
7,2,1,2,2,1,2,2,2,2,2,2,2,2,2,2,1,2,2
7,1,1,2,2,2,2,2,1,2,2,2,2,2,1,2,1,2,2
7,2,2,2,2,2,2,2,2,2,2,2,2,2,2,2,1,2,2
7,1,2,2,2,2,2,2,2,1,2,1,2,2,2,2,2,1,NA
7,1,2,2,2,2,2,2,2,2,2,2,2,2,2,2,1,2,2
7,2,2,2,2,2,2,2,2,2,2,2,1,2,2,2,1,2,2
7,2,2,2,2,2,2,2,2,2,2,2,2,2,2,2,1,2,2
7,2,2,2,2,2,2,NA,2,NA,NA,NA,NA,2,2,1,2,NA,2
7,2,1,2,2,2,1,1,2,2,2,2,2,2,1,1,1,2,2
7,2,2,2,2,2,2,2,2,2,2,2,2,2,2,2,1,2,2
7,2,2,2,2,2,2,2,2,2,2,2,2,2,2,2,2,2,2
7,2,2,2,2,2,2,1,2,2,2,2,2,2,2,2,1,2,2
7,2,2,2,2,2,2,2,1,2,2,2,2,2,2,2,2,2,2
7,2,1,2,2,2,2,1,2,2,2,2,2,2,2,2,2,2,2
7,2,2,2,2,2,2,1,1,2,2,2,1,2,2,2,1,2,2
7,2,2,2,2,2,2,2,2,2,2,2,2,2,2,2,1,1,1
7,2,2,2,2,2,2,2,2,2,2,2,2,2,2,2,1,2,2
7,2,2,2,2,2,2,2,2,2,2,2,2,2,2,1,1,2,2
7,2,2,2,2,2,2,1,1,2,2,2,2,2,2,2,2,1,2
7,2,2,2,2,2,2,2,2,2,2,2,2,2,2,1,2,NA,2
7,2,2,2,2,2,2,2,2,2,2,2,2,2,2,2,1,2,2
7,2,2,2,2,2,2,2,2,2,2,2,2,2,2,2,2,2,2
7,2,2,2,1,2,2,1,2,2,2,2,2,2,2,2,1,1,2
7,2,2,2,2,2,2,2,2,2,2,2,2,2,2,2,1,2,2
7,2,2,2,2,2,2,2,2,2,2,2,2,2,2,2,1,2,2
7,2,2,2,2,2,2,2,2,2,2,2,2,2,2,2,1,1,2
7,2,2,2,2,2,2,2,2,2,2,2,1,2,1,2,1,2,2
7,2,2,2,2,2,2,2,2,2,2,2,2,2,2,2,1,1,2
7,2,2,2,2,2,2,1,2,2,2,2,2,2,1,2,2,1,2
7,2,2,2,2,2,2,2,2,2,2,2,2,2,2,2,2,2,2
7,2,2,2,2,2,2,2,2,2,2,2,2,2,2,2,1,2,2
7,2,2,2,2,2,2,1,2,2,2,2,2,2,2,2,1,2,2
7,2,2,2,2,2,2,2,2,2,2,2,2,2,2,2,1,2,2
7,2,2,2,2,2,2,2,1,2,2,2,2,2,2,2,1,1,2
7,2,2,2,2,2,2,2,2,2,2,2,2,2,2,2,1,2,2
7,2,2,2,2,2,2,1,2,2,2,2,2,2,2,2,1,2,2
7,2,2,2,2,2,2,2,1,2,2,2,2,2,2,2,1,2,2
7,2,1,1,2,1,2,2,2,1,2,2,2,2,2,2,2,2,2
7,2,2,2,2,2,2,2,2,2,2,2,2,2,2,2,1,2,2
7,2,2,2,2,2,2,1,2,2,2,2,2,2,1,2,2,2,2
7,2,2,2,2,2,2,1,2,2,NA,1,2,2,2,2,1,1,1
7,2,2,2,2,2,2,1,2,1,2,2,1,2,2,1,1,2,2
7,2,2,2,2,2,2,2,2,2,2,2,2,2,2,2,1,2,2
7,2,2,2,2,2,2,2,2,2,2,2,2,2,2,2,1,2,2
7,2,2,2,2,2,2,2,2,2,2,2,2,2,2,2,1,2,2
7,2,2,2,2,2,2,2,2,2,2,2,2,2,2,2,2,2,2
7,2,2,2,2,2,2,2,2,2,2,2,2,2,2,2,1,2,2
7,2,2,2,2,2,1,2,2,2,2,2,2,2,2,2,1,2,2
7,2,2,1,2,2,2,2,2,2,2,2,2,2,2,2,2,2,2
7,2,2,2,2,2,2,2,2,2,2,2,2,2,2,2,1,2,2
7,2,2,2,2,2,2,2,1,2,2,2,2,2,2,2,1,2,2
7,2,2,2,2,2,1,2,1,2,2,2,2,2,1,2,1,2,2
7,2,2,2,2,2,2,2,2,2,2,2,2,2,2,1,1,2,2
7,2,2,2,2,2,2,1,2,2,2,2,1,2,2,2,2,2,2
7,2,2,2,2,2,2,2,2,2,2,2,1,2,2,2,1,2,2
7,2,2,2,2,2,2,2,2,2,2,2,2,2,2,2,1,2,2
7,2,2,2,2,2,2,2,1,2,2,2,2,2,2,2,2,2,2
7,2,2,2,2,2,2,2,1,1,2,2,2,2,1,1,1,1,2
7,2,2,2,2,2,2,2,2,2,2,2,2,2,2,2,1,2,2
7,2,2,1,2,2,2,1,1,2,2,2,2,2,2,1,1,2,2
7,2,2,2,2,2,2,2,2,2,2,2,2,2,2,2,2,2,2
7,2,2,2,2,2,2,2,2,2,2,2,2,2,2,2,1,2,2
7,2,2,2,2,2,2,2,2,2,2,2,2,2,2,2,2,2,2
7,2,2,2,2,2,2,2,2,2,2,2,2,2,2,2,2,2,2
7,2,2,2,2,2,2,2,2,2,2,2,2,2,2,2,2,2,2
7,1,2,2,2,2,2,1,2,2,1,2,2,2,2,2,1,2,2
7,2,2,2,2,2,2,2,1,2,2,2,2,2,2,2,NA,NA,2
7,2,2,2,2,2,2,2,2,2,2,2,2,2,2,2,2,2,2
7,1,1,1,1,1,2,1,2,2,2,1,1,2,1,2,1,1,1
7,1,2,2,2,2,2,2,2,2,2,2,1,2,1,2,2,2,2
7,2,2,2,NA,2,2,2,2,2,2,2,2,2,2,2,1,2,2
7,2,2,2,2,2,2,2,2,2,2,2,2,NA,2,2,1,1,2
7,2,2,2,2,2,2,2,2,2,2,2,2,2,2,2,1,2,2
7,2,2,2,2,2,2,2,2,2,2,2,2,2,2,2,1,2,2
7,2,2,2,2,2,2,2,2,2,2,2,2,2,2,2,1,1,2
7,2,2,2,2,2,2,2,2,2,2,2,2,2,2,2,2,2,2
7,2,2,2,2,2,1,1,1,1,1,NA,1,2,2,2,1,1,2
7,2,2,2,2,2,2,2,2,2,2,2,2,2,2,2,1,2,2
7,1,1,1,2,2,2,1,2,2,2,2,2,2,2,2,1,2,2
7,2,2,2,2,2,2,1,2,2,2,2,2,2,2,2,1,2,2
7,2,2,2,2,2,2,2,2,2,2,2,2,2,2,2,1,2,2
7,2,2,2,2,2,2,2,2,2,2,2,2,2,2,2,1,2,2
7,2,2,2,2,2,2,2,2,2,2,2,1,2,2,2,1,2,2
7,2,2,2,2,2,2,1,2,2,2,2,2,2,2,1,2,2,2
7,2,2,2,2,2,2,2,2,2,2,2,2,2,2,2,1,2,2
7,2,2,2,2,2,2,2,2,2,2,2,2,2,1,2,2,2,2
7,2,2,2,2,2,2,1,1,2,2,2,2,2,2,2,1,2,2
7,2,2,2,1,2,2,1,2,2,2,2,2,2,2,2,1,1,1
7,2,2,2,2,2,2,2,2,2,2,2,2,2,2,2,1,2,2
7,2,2,1,2,2,2,2,2,2,2,2,2,2,2,2,1,2,2
7,NA,2,2,2,2,1,1,2,1,2,2,2,2,2,1,2,2,2
7,2,2,2,2,2,2,1,2,2,2,2,2,2,2,2,1,2,2
7,2,2,2,2,2,2,2,2,2,2,2,1,2,2,2,1,2,2
7,2,2,2,NA,2,2,2,2,2,2,2,2,2,1,2,2,2,2
7,2,2,2,2,2,2,1,2,2,2,2,2,2,NA,1,2,2,2
7,2,2,2,2,2,2,2,2,2,2,2,2,2,2,2,1,2,2
7,2,2,2,2,2,2,2,2,2,2,2,2,2,2,2,1,2,2
7,2,2,2,2,2,2,2,2,2,2,2,2,2,2,2,1,2,2
7,2,2,2,2,2,2,2,2,2,2,2,2,2,2,2,2,2,2
7,2,2,2,2,2,2,2,2,2,2,2,2,2,2,2,2,2,2
7,2,2,2,2,1,2,1,1,2,2,2,1,2,2,2,1,2,2
7,2,2,2,2,2,2,2,2,2,2,2,2,2,2,2,1,2,2
7,2,2,2,2,2,2,1,2,2,1,2,2,2,1,2,2,2,2
7,2,2,2,2,2,2,2,2,2,2,2,2,2,2,2,1,2,2
7,2,2,2,2,2,2,2,2,2,2,2,2,2,2,2,1,1,1
7,2,2,2,2,2,2,2,2,2,2,2,2,2,2,2,2,2,2
7,2,2,2,2,2,2,2,2,2,2,2,2,2,2,2,1,2,2
7,2,2,2,2,2,2,1,2,2,2,2,2,2,2,2,1,2,2
7,2,2,2,2,2,2,1,1,2,2,2,2,2,2,2,1,2,2
7,2,2,2,2,2,2,2,2,2,2,2,2,2,2,2,2,2,2
7,2,2,2,2,2,2,1,2,2,2,2,2,2,2,2,2,2,2
7,2,2,2,2,2,2,2,2,2,2,2,2,2,2,2,1,2,2
7,2,2,2,2,2,NA,2,2,2,2,2,2,2,2,2,1,2,2
7,2,2,2,2,2,2,2,2,2,2,2,2,2,2,2,2,2,2
7,1,2,2,2,2,2,2,1,2,2,2,2,2,2,2,1,2,2
7,2,2,2,2,2,2,1,1,2,2,2,2,2,2,2,1,2,2
7,2,2,2,2,2,2,2,2,2,2,2,2,2,2,2,2,2,2
7,2,2,2,2,2,2,2,2,2,2,2,2,2,2,2,1,2,2
7,2,2,2,2,2,2,2,2,2,2,2,2,2,2,2,2,2,2
7,2,2,2,2,2,2,1,1,2,2,2,1,2,1,2,1,2,2
7,2,2,2,2,2,2,2,2,2,2,2,2,2,2,2,1,2,2
7,2,2,2,2,2,2,2,2,2,2,2,2,2,2,2,1,2,2
7,2,2,2,2,2,1,1,2,2,2,2,2,2,2,2,1,2,2
7,2,2,2,2,2,2,2,2,2,2,2,2,2,2,2,2,2,2
7,2,2,2,2,2,2,2,2,2,2,2,2,2,2,2,1,1,2
7,2,2,2,2,2,2,2,2,2,2,2,2,2,2,2,1,2,2
7,2,2,2,2,2,2,2,2,2,2,2,2,2,2,2,2,2,2
7,2,2,2,2,2,NA,1,2,2,2,2,2,2,2,2,NA,2,2
7,2,2,2,2,2,2,2,2,2,2,2,2,2,2,2,1,2,2
7,2,2,2,2,2,2,2,2,2,2,2,2,2,2,2,1,2,2
7,2,2,2,2,2,1,1,2,2,2,2,2,2,2,2,2,2,2
7,2,2,2,2,2,1,2,2,1,2,2,2,2,2,1,1,2,2
7,2,2,2,2,2,2,2,2,2,2,2,2,2,2,2,1,1,2
7,2,2,2,2,2,2,2,2,2,2,2,1,2,2,2,NA,NA,2
7,2,2,2,2,2,2,NA,NA,NA,NA,NA,1,2,2,2,NA,NA,NA
7,2,2,2,2,2,2,2,2,2,2,2,2,2,2,2,1,2,2
7,2,2,2,2,2,2,2,2,2,2,2,2,2,2,2,2,2,2
7,2,2,2,2,2,2,1,2,2,2,2,2,1,2,2,2,2,2
7,1,2,2,2,2,1,2,2,2,2,2,2,1,2,2,1,1,1
7,2,2,2,2,2,2,2,2,2,2,2,1,2,2,2,1,1,2
7,2,2,2,2,2,2,2,2,2,2,2,2,2,2,2,1,2,2
7,2,2,2,2,2,1,2,2,2,2,2,2,2,2,2,1,NA,2
7,2,2,NA,2,2,2,2,1,2,2,2,2,2,1,2,2,2,2
7,2,2,2,2,2,2,2,2,2,2,2,2,2,2,2,1,2,2
7,2,2,2,2,2,2,2,2,2,2,2,2,2,2,2,1,2,2
7,2,2,2,2,2,2,1,2,2,2,2,2,2,2,2,NA,2,2
7,2,2,2,2,2,2,1,1,1,2,2,2,2,2,2,1,2,2
7,2,2,2,2,2,2,2,2,2,2,2,2,2,2,2,2,2,2
7,2,2,2,2,2,NA,2,2,2,2,2,2,2,2,1,1,2,2
7,2,2,2,2,2,2,2,2,2,2,2,2,2,1,2,1,2,2
7,2,2,1,2,2,1,2,1,1,1,2,1,2,2,2,1,1,1
7,2,2,2,2,2,2,2,1,2,2,2,1,2,2,2,1,2,2
7,2,2,1,2,1,2,2,2,2,2,2,2,2,2,2,1,1,2
7,2,2,2,2,2,2,1,1,2,2,2,2,2,2,2,1,1,2
7,2,2,2,1,2,2,1,2,2,2,2,2,2,2,2,1,1,2
7,2,2,2,2,2,2,1,2,2,2,2,2,2,2,2,1,2,1
7,2,2,2,2,2,2,2,2,2,2,2,2,2,2,2,2,2,2
7,2,1,2,2,2,2,2,2,2,2,2,1,2,2,2,1,2,2
7,2,2,2,2,2,2,1,2,2,2,2,1,2,2,2,NA,2,2
7,2,2,2,2,2,2,2,1,2,1,1,1,2,2,1,1,2,2
7,2,2,2,2,2,1,1,1,2,2,2,2,2,2,2,1,1,2
7,2,2,2,2,2,2,2,2,2,2,2,2,2,2,2,2,2,2
7,2,2,2,2,2,2,2,1,2,2,2,2,2,2,2,1,1,2
7,2,2,2,2,2,2,1,2,2,2,2,2,2,2,2,2,2,2
7,2,2,2,2,2,2,2,2,2,2,2,1,2,2,2,2,2,2
7,2,2,2,2,2,2,2,2,2,2,2,2,2,2,2,2,2,2
7,2,2,2,2,2,NA,NA,NA,2,2,NA,2,2,2,2,1,NA,2
7,2,2,2,2,2,2,2,2,2,2,2,2,2,2,2,1,2,2
7,2,2,2,2,2,2,1,2,2,2,2,2,2,2,2,1,2,2
7,2,2,2,2,2,2,2,2,2,2,2,2,2,2,2,NA,NA,2
7,2,2,2,2,2,1,1,2,2,2,2,2,2,2,2,1,2,2
7,1,1,2,2,2,2,1,2,2,2,2,1,2,1,2,2,2,2
7,2,2,2,2,2,2,2,2,2,2,1,1,2,2,2,1,2,2
7,2,2,2,2,2,2,NA,1,2,2,2,1,2,2,NA,NA,NA,2
7,2,2,2,2,2,1,1,2,2,2,2,2,2,2,1,1,2,2
7,2,2,2,2,2,2,NA,2,2,NA,NA,2,2,2,2,2,2,2
7,2,2,2,2,2,2,2,2,2,2,2,2,2,2,2,1,NA,2
7,2,2,2,2,2,2,2,2,2,2,2,2,2,2,2,1,2,2
7,2,2,2,2,2,2,1,1,2,2,2,2,2,2,2,1,2,2
7,2,2,2,2,2,2,2,1,2,2,2,2,2,2,2,1,2,2
7,2,2,2,2,2,2,1,1,2,2,2,2,2,2,2,1,2,2
7,2,2,2,2,2,2,2,2,2,1,2,2,2,2,2,1,1,2
7,2,2,2,2,2,2,2,2,2,2,2,2,2,2,2,1,2,2
7,2,2,2,2,2,2,1,2,1,2,2,2,2,2,2,1,2,2
7,2,2,2,2,2,2,1,2,2,2,2,1,2,2,2,1,2,2
7,2,2,2,2,2,2,2,2,2,1,2,2,2,1,1,1,2,1
7,2,2,2,2,2,2,2,2,2,2,2,2,2,2,2,2,2,2
7,2,2,2,2,2,2,2,1,2,2,2,2,2,2,2,1,2,2
7,2,2,2,2,2,2,1,NA,2,2,2,2,2,2,2,1,1,2
7,2,2,2,2,2,2,2,2,2,2,1,2,2,2,2,1,1,1
7,2,2,2,2,2,2,2,2,2,2,2,2,2,2,2,2,2,2
7,2,2,2,2,2,2,1,2,2,2,2,2,2,2,2,2,2,2
7,2,2,2,2,2,1,2,1,1,2,2,2,2,2,2,NA,2,2
7,2,2,2,2,2,2,NA,2,2,2,2,2,2,2,2,1,2,2
7,2,2,2,2,2,2,2,2,2,2,2,2,2,2,2,2,2,2
7,2,2,2,2,2,2,1,2,2,2,NA,2,2,2,2,NA,NA,2
7,2,2,2,2,2,2,2,2,2,2,2,2,2,2,2,2,2,2
7,2,2,2,2,2,2,2,2,2,2,2,1,2,2,2,1,2,2
7,2,2,2,2,2,2,2,1,2,2,2,2,2,2,2,1,1,2
7,1,1,1,2,1,2,1,2,2,2,2,2,2,2,2,1,2,2
7,2,2,1,2,2,2,2,2,2,2,2,2,2,2,2,1,2,2
7,2,2,2,2,2,2,1,2,2,2,2,1,2,2,2,2,1,2
7,2,2,2,2,2,2,1,2,2,2,2,2,2,2,2,2,2,2
7,2,2,2,2,2,2,2,2,2,2,2,1,2,2,2,1,1,1
7,1,1,1,2,2,2,2,2,2,2,2,1,2,2,2,1,1,2
7,2,2,2,2,2,2,1,2,2,2,2,2,1,2,2,1,2,2
7,2,2,2,2,2,2,2,2,2,2,2,1,2,1,2,2,2,2
7,2,2,2,2,2,2,2,2,2,2,2,2,2,2,2,1,2,2
7,2,2,2,2,2,2,2,1,2,2,2,1,2,2,2,1,2,2
7,2,2,2,2,2,2,2,2,2,2,2,2,2,2,2,1,2,2
7,2,2,2,2,2,2,2,2,2,2,2,2,2,2,2,1,2,2
7,2,1,2,2,2,2,2,1,2,2,2,2,2,2,2,1,2,2
7,2,2,2,2,2,2,2,2,2,2,2,2,2,2,2,2,2,2
7,2,2,2,2,2,2,2,2,2,2,2,2,2,2,2,2,1,2
7,2,2,2,2,2,2,2,2,2,2,2,2,2,2,2,1,2,2
7,2,2,2,2,2,2,1,2,2,2,2,2,2,2,2,2,1,2
7,2,2,2,2,2,2,1,2,2,2,2,2,2,2,2,1,2,2
7,2,2,2,2,2,2,2,2,2,2,2,2,2,2,2,1,2,2
7,2,2,2,2,2,1,1,2,2,2,2,2,2,2,2,1,2,2
7,2,2,2,2,2,2,1,2,1,2,2,2,2,2,2,1,2,2
7,2,2,2,2,2,2,2,2,2,2,2,2,2,2,2,1,2,2
7,2,2,2,2,2,1,1,2,2,2,2,2,2,2,1,1,1,2
7,2,2,2,2,2,2,1,2,2,2,1,2,2,1,2,2,2,2
7,2,2,2,2,2,2,2,2,2,2,2,2,2,2,2,1,2,2
7,2,2,2,2,2,2,2,2,2,2,2,2,2,2,2,2,2,2
7,2,2,2,2,2,2,2,2,2,2,2,1,2,2,2,NA,2,2
7,2,2,2,2,2,2,1,1,2,2,2,2,2,2,2,1,2,2
7,2,2,2,2,2,2,2,2,2,2,2,2,2,2,2,1,2,2
7,2,2,2,2,2,2,2,1,2,2,2,2,2,2,2,1,2,2
7,2,2,2,1,2,2,1,2,2,2,2,2,2,2,2,1,1,1
7,2,2,2,2,2,2,2,2,2,2,2,2,2,2,2,1,2,2
7,2,1,2,2,2,2,2,2,2,2,2,2,2,2,1,2,2,2
7,2,2,2,2,2,2,2,2,2,2,2,2,1,2,2,1,2,NA
7,1,1,2,2,1,2,2,2,2,2,2,2,2,2,2,1,1,2
7,2,2,2,2,2,2,2,2,2,2,2,2,2,2,2,1,2,2
7,2,2,2,2,2,2,1,2,2,2,2,2,2,2,2,1,2,2
7,2,2,2,2,2,2,2,2,2,2,2,2,2,2,2,1,2,2
7,2,2,2,2,2,2,2,2,2,2,2,2,2,2,2,1,2,2
7,2,2,2,2,2,2,1,2,2,2,2,1,2,1,2,1,2,2
7,2,2,2,2,2,1,2,2,2,2,2,2,2,2,2,1,2,2
7,2,2,2,2,2,2,1,2,2,2,2,2,2,1,2,1,2,2
7,2,2,2,2,2,2,2,2,2,2,2,2,2,2,2,1,2,2
7,2,2,2,2,2,2,1,2,2,2,2,2,2,2,2,1,2,2
7,2,2,2,2,2,2,2,2,2,2,2,2,2,2,2,1,2,2
7,2,2,2,2,2,2,1,2,2,2,2,2,2,2,2,2,1,2
7,2,2,2,2,2,2,2,2,2,2,2,2,2,2,2,NA,2,2
7,2,2,2,2,2,2,2,2,2,2,2,2,2,2,2,1,2,2
7,2,2,2,2,2,2,2,2,2,2,2,2,2,2,1,1,2,2
7,2,2,2,2,2,2,2,2,2,2,2,2,2,1,2,2,2,2
7,1,2,2,2,1,2,1,2,2,2,2,2,2,2,2,1,2,2
7,2,2,2,2,2,2,2,2,2,2,2,2,2,2,2,2,2,2
7,2,2,2,2,2,2,2,2,2,2,2,2,2,2,2,2,2,2
7,2,2,2,2,2,2,2,2,2,2,2,2,2,2,2,1,2,2
7,2,2,2,2,2,2,2,2,2,2,2,2,2,2,2,2,2,2
7,2,2,2,2,2,2,2,2,2,2,2,2,2,2,2,1,2,2
7,2,2,2,2,2,2,2,2,2,2,2,2,2,NA,2,1,2,2
7,1,2,2,2,2,2,2,2,2,2,2,1,2,1,2,1,2,2
7,2,2,2,2,2,2,1,2,2,2,2,2,2,2,2,2,2,2
7,2,2,2,2,2,1,1,2,NA,2,2,2,2,2,1,2,2,2
7,1,1,NA,2,1,2,1,2,1,2,2,2,2,2,2,2,2,2
7,2,2,2,2,2,2,2,2,2,2,2,2,2,2,2,1,2,2
7,2,2,2,2,2,2,2,1,2,NA,2,2,2,2,2,1,2,2
7,2,2,2,2,2,2,2,2,2,2,2,2,2,2,2,1,2,2
7,2,2,2,2,2,2,1,1,2,2,2,2,2,2,2,2,2,2
7,2,2,2,2,2,2,2,2,2,2,2,2,2,2,2,2,2,2
7,2,2,2,2,2,2,2,2,2,2,2,2,2,2,2,1,2,2
7,2,2,NA,NA,2,2,2,2,2,2,2,1,NA,2,2,2,2,2
7,NA,2,2,2,2,1,1,1,2,2,2,2,2,2,2,1,1,NA
7,2,2,2,2,2,2,1,1,2,2,2,2,2,2,NA,NA,2,2
7,2,2,2,2,2,2,2,2,2,2,2,2,2,2,2,1,2,2
7,2,2,2,2,2,2,2,2,2,2,2,1,2,2,2,1,2,2
7,2,1,2,2,1,2,2,2,2,2,2,2,2,2,2,2,2,2
7,2,2,2,2,2,2,2,2,2,2,2,2,2,2,2,1,2,2
7,2,2,2,2,2,2,2,2,2,2,2,2,2,2,2,NA,2,2
7,2,2,2,2,2,2,2,2,2,2,2,2,2,2,1,1,2,2
7,2,2,2,2,2,2,2,1,2,2,2,2,1,2,2,1,2,2
7,2,2,2,2,2,2,1,2,2,2,2,2,2,2,2,1,2,2
7,2,2,2,2,2,2,2,2,2,2,2,1,2,2,2,1,2,2
7,2,2,2,2,2,2,2,2,2,2,2,1,2,2,2,1,2,2
7,2,2,2,2,2,2,2,2,2,2,2,2,2,2,2,NA,2,2
7,2,2,2,2,2,2,1,2,2,2,2,2,2,2,2,1,2,2
7,2,2,2,2,2,2,1,2,2,2,2,2,2,2,2,1,2,2
7,2,1,2,2,1,2,2,2,2,2,2,2,1,2,2,1,2,2
7,2,2,2,2,2,2,2,1,2,2,2,2,2,2,2,1,1,2
7,2,2,2,2,2,2,2,2,2,2,2,2,2,2,2,2,2,2
7,2,2,2,1,1,2,2,2,2,2,2,2,2,2,2,1,2,2
7,2,2,2,2,2,2,2,2,2,2,2,2,2,2,2,1,2,2
7,2,2,2,2,2,2,1,2,2,2,2,2,2,2,2,2,2,2
7,2,2,2,2,2,2,2,2,2,2,2,2,2,2,2,2,2,2
7,2,2,2,2,2,2,2,2,2,2,1,1,2,1,2,1,2,2
7,2,2,2,2,2,2,2,2,2,2,2,2,2,2,2,2,2,2
7,2,2,2,2,2,1,1,1,2,2,2,2,2,2,2,1,1,2
7,2,2,2,2,2,2,2,2,2,2,2,2,2,2,2,1,2,2
7,2,2,2,2,2,2,2,1,2,2,2,2,2,2,2,2,2,2
7,2,2,2,2,2,1,1,2,1,1,1,1,1,1,1,1,1,1
7,2,2,2,2,2,1,2,2,2,2,2,2,2,2,2,2,2,2
7,2,2,2,2,2,2,2,2,2,2,2,2,2,2,2,1,2,2
7,2,2,2,2,2,2,2,2,2,2,2,2,2,2,2,1,2,2
7,2,2,2,2,2,2,1,2,2,2,2,2,2,1,2,1,2,2
7,2,2,2,2,2,2,1,2,2,2,2,2,2,2,2,1,1,2
7,2,2,2,2,2,2,2,2,2,2,2,2,2,2,2,1,1,2
7,2,2,2,2,2,2,2,2,2,2,2,2,2,2,2,1,1,2
7,2,2,2,2,2,1,1,1,2,2,2,2,2,2,2,1,1,1
7,2,2,2,1,2,2,1,2,2,2,2,2,2,2,2,1,1,2
7,2,2,2,2,1,2,2,2,2,2,2,2,2,2,2,1,2,2
7,2,2,2,2,2,2,1,2,2,2,2,2,2,2,2,NA,NA,2
7,2,2,2,1,1,2,1,2,2,2,2,2,2,2,2,1,2,2
7,2,2,2,2,2,2,2,2,2,2,2,2,2,2,1,1,2,2
7,2,2,2,2,2,2,2,2,2,2,2,1,2,2,2,NA,2,2
7,2,2,2,2,2,2,2,2,2,2,2,2,2,2,2,1,2,2
7,2,2,2,2,2,2,1,2,2,2,2,2,2,2,2,1,2,2
7,2,2,2,2,2,2,2,2,2,2,NA,1,2,2,2,1,2,2
7,2,2,2,2,2,2,2,2,2,2,2,2,2,2,2,2,2,2
7,2,2,2,2,2,NA,2,2,2,2,2,2,2,2,2,1,2,2
7,1,1,1,1,1,1,1,1,1,1,1,1,1,1,1,1,1,1
7,2,2,2,2,2,2,2,2,2,2,2,2,2,2,2,2,2,2
7,2,2,2,2,2,2,1,2,2,2,2,2,2,2,2,1,2,2
7,2,2,2,1,1,1,2,2,1,2,1,1,2,2,2,1,1,1
7,2,2,2,2,2,2,2,2,2,2,2,2,2,2,2,1,2,2
7,2,2,2,1,2,2,1,2,2,2,2,2,2,2,2,1,1,2
7,2,2,2,2,2,2,2,2,2,2,2,2,2,2,2,2,2,2
7,2,2,2,2,2,2,2,2,2,2,2,2,2,2,2,1,2,2
7,2,2,2,2,2,2,2,2,2,2,2,2,2,2,2,1,2,2
7,2,2,2,2,2,2,2,2,2,2,2,2,2,2,2,1,2,2
7,2,2,2,2,2,2,1,2,2,2,2,2,2,2,2,1,1,2
7,2,2,2,2,2,1,1,1,1,2,2,2,2,2,2,1,2,2
7,2,2,2,2,2,2,1,2,2,2,2,2,2,2,2,1,2,2
7,2,2,2,2,2,2,2,2,2,2,2,2,2,2,2,1,2,2
7,2,2,2,2,2,2,2,2,2,2,2,2,2,2,2,1,2,2
7,2,2,2,2,2,1,1,1,2,2,2,1,2,1,2,2,2,2
7,1,2,2,2,2,2,2,2,2,2,2,2,2,2,2,2,2,2
7,2,2,2,2,2,2,2,2,2,2,2,2,2,2,2,1,2,2
7,2,2,2,2,2,2,2,2,2,2,2,2,2,2,2,1,2,2
7,2,2,2,2,2,2,1,1,2,2,2,2,2,2,1,1,2,2
7,2,2,2,2,2,2,2,2,2,2,2,2,2,2,2,2,2,2
7,2,2,2,2,2,2,2,2,2,2,2,1,2,2,2,1,2,2
7,2,2,2,2,2,2,1,2,2,2,2,1,2,2,2,NA,NA,2
7,2,2,2,2,2,2,2,2,2,2,2,2,2,2,2,1,2,2
7,2,2,2,2,2,2,2,2,2,2,2,2,2,2,2,1,2,2
7,2,2,2,2,2,2,2,2,2,2,2,2,2,2,2,2,2,2
7,2,2,2,2,2,2,2,2,2,2,2,2,2,2,2,1,2,2
7,2,2,2,2,2,2,1,1,2,2,2,2,2,2,2,1,1,2
7,2,2,2,2,2,2,2,2,2,2,2,2,2,2,2,1,2,2
7,2,2,2,2,2,2,2,2,2,2,2,2,2,2,2,NA,2,2
7,2,2,2,2,2,2,1,2,2,2,2,2,2,2,2,1,1,2
7,2,2,2,2,2,2,2,2,2,2,2,2,2,1,2,2,2,2
7,2,2,2,2,2,NA,NA,NA,2,2,2,1,2,2,NA,NA,NA,NA
7,2,2,2,2,2,2,2,2,2,2,2,2,2,2,2,1,2,2
7,2,2,2,2,2,2,2,2,2,2,2,2,2,2,2,1,2,2
7,2,2,2,2,2,2,2,2,2,2,2,2,2,1,2,1,2,2
7,2,2,2,2,2,2,2,1,1,2,2,2,2,1,2,1,2,2
7,1,1,1,2,1,2,2,2,2,2,2,2,2,2,2,1,2,2
7,2,2,1,2,2,1,2,2,2,2,2,2,2,2,2,1,NA,NA
7,2,NA,2,2,2,2,1,1,2,2,2,2,2,1,2,2,1,2
7,2,2,2,2,2,2,1,1,2,2,2,2,1,2,2,1,NA,2
7,2,1,2,2,1,2,2,2,2,2,2,1,2,2,2,1,2,2
7,2,2,2,2,2,1,1,1,2,2,2,1,2,2,2,1,2,2
7,2,2,2,2,2,NA,2,2,2,NA,NA,NA,NA,2,2,1,2,2
7,2,2,2,2,2,2,2,2,2,2,2,2,2,2,2,2,2,2
7,2,2,2,2,1,1,1,2,1,2,2,2,2,2,1,1,2,2
7,2,2,2,2,2,2,1,1,2,2,2,2,2,2,1,1,1,2
7,2,2,2,2,2,2,2,1,1,2,2,2,2,2,2,1,2,2
7,2,2,2,2,2,2,1,1,2,2,2,2,2,2,2,2,2,2
7,2,2,2,2,2,2,2,2,2,2,2,2,2,2,2,2,2,2
7,2,2,2,2,2,2,2,2,2,2,2,2,2,2,2,1,2,2
7,2,2,2,1,2,2,1,2,1,2,1,2,2,2,2,1,2,1
7,2,2,2,2,2,2,1,2,2,2,2,2,2,2,2,1,2,2
7,2,2,2,2,2,2,2,2,2,2,2,2,2,2,2,1,2,2
7,2,2,2,2,2,2,2,2,2,2,2,2,2,2,2,1,2,2
7,2,2,2,1,2,2,1,2,2,2,2,2,2,2,2,1,1,2
7,2,2,2,2,2,2,1,1,2,2,2,2,2,2,2,1,2,2
7,1,1,1,2,1,1,1,2,2,2,2,1,2,2,1,1,2,2
7,2,2,2,2,2,2,2,2,2,2,2,2,2,2,2,1,2,2
7,2,2,2,2,2,2,2,2,2,2,2,2,2,2,2,2,2,2
7,2,2,2,2,2,2,2,2,2,2,2,2,2,2,2,1,2,2
7,NA,2,2,2,2,1,2,2,2,2,2,2,2,2,2,2,2,2
7,2,2,2,2,2,2,2,2,2,2,2,2,2,2,2,1,2,2
7,2,2,2,2,2,2,2,2,2,2,2,2,2,2,2,1,2,2
7,2,2,2,2,2,2,2,2,2,2,2,2,2,2,2,1,2,2
7,2,1,2,2,2,2,2,2,2,2,2,2,2,2,2,1,2,2
7,2,2,2,2,2,2,2,2,2,2,2,1,1,2,1,1,2,2
7,2,2,2,2,2,2,1,2,2,2,2,2,2,2,2,1,2,1
7,2,2,2,2,2,2,1,2,2,2,2,2,2,2,2,1,2,2
7,2,2,2,2,2,2,1,2,2,2,2,2,2,2,2,1,2,2
7,2,2,2,2,2,1,1,2,2,2,2,2,2,2,1,2,2,2
7,2,2,2,2,2,2,2,2,2,2,2,2,2,2,2,2,2,2
7,2,2,2,2,2,2,2,2,2,2,2,2,2,2,2,1,2,2
7,2,2,2,2,2,2,2,2,2,2,2,2,2,2,2,2,2,2
7,2,2,2,2,2,2,1,1,2,2,2,2,2,2,2,1,2,2
7,2,2,2,2,2,2,2,2,2,2,2,2,2,2,2,1,2,2
7,2,2,2,2,2,2,2,2,2,2,2,2,2,2,2,1,2,2
7,2,2,2,2,2,2,1,2,2,2,2,2,2,2,2,1,2,2
7,2,2,2,2,2,2,2,2,2,2,2,2,2,2,2,1,2,2
7,2,2,2,2,2,2,1,2,2,2,2,2,2,2,2,1,1,2
7,2,2,2,2,2,2,1,2,2,2,2,2,2,2,2,1,2,2
7,2,2,2,2,2,2,2,1,2,2,2,1,2,2,2,2,2,2
7,2,2,2,2,2,2,2,2,2,2,2,2,2,2,2,1,2,2
7,2,2,1,2,2,2,2,2,2,2,2,2,2,2,2,1,1,2
7,2,2,2,2,2,2,1,1,2,2,2,2,2,2,2,1,2,2
7,2,2,2,2,2,2,2,1,2,2,2,2,2,2,2,1,2,2
7,2,2,2,2,2,2,2,NA,NA,NA,NA,1,2,2,2,NA,NA,NA
7,2,2,2,2,2,2,1,1,2,2,2,2,2,2,2,2,2,2
7,2,2,2,2,2,2,1,2,2,1,2,2,2,2,2,1,2,2
7,2,2,2,2,2,2,2,2,2,2,2,2,2,2,NA,1,2,2
7,2,2,2,2,2,2,2,2,2,2,2,2,2,2,2,2,2,2
7,2,2,2,2,2,2,1,2,2,2,2,2,2,2,1,1,2,2
7,2,2,2,2,2,2,1,2,2,2,2,2,2,2,2,1,1,2
7,2,2,2,2,2,2,1,2,2,2,2,2,1,2,2,1,1,2
7,2,2,2,2,2,2,1,2,2,2,2,2,2,2,2,2,2,2
7,2,2,2,2,2,2,2,2,2,2,2,2,2,2,2,2,2,2
7,2,2,2,2,2,2,2,2,2,2,2,2,2,2,1,1,2,2
7,2,2,2,1,2,2,2,2,2,2,2,2,2,2,2,2,2,2
7,2,2,2,2,2,2,2,2,2,2,2,2,2,2,2,1,2,2
7,2,2,2,2,2,2,2,2,2,2,2,2,2,2,2,1,2,2
7,2,2,2,2,2,2,1,2,2,2,2,2,2,2,2,1,2,2
7,2,2,2,2,2,2,1,2,2,2,2,1,2,1,2,1,2,2
7,2,2,2,2,2,2,2,2,2,2,2,2,2,2,2,1,2,2
7,2,2,2,2,2,1,1,2,2,2,2,2,2,2,2,2,1,2
7,2,2,2,2,2,2,2,2,2,2,2,2,2,2,2,1,2,2
7,2,2,2,2,2,2,2,2,2,2,2,2,2,2,2,1,1,2
7,2,2,2,2,2,2,NA,NA,NA,NA,2,NA,2,2,2,1,2,2
7,2,2,2,2,2,2,2,2,2,2,2,2,2,2,2,1,2,2
7,2,2,2,2,2,2,1,2,2,2,2,2,2,1,1,1,2,2
7,2,2,2,2,2,2,2,2,2,2,2,2,2,2,2,1,2,2
7,2,2,2,2,2,2,1,2,2,2,2,2,2,2,2,2,1,2
7,2,2,2,2,2,2,2,2,2,2,2,2,2,2,1,1,2,2
7,2,2,2,2,2,2,2,2,2,2,2,2,2,2,1,1,2,2
7,2,2,2,2,2,2,2,2,2,2,2,2,2,2,2,2,2,2
7,2,2,2,2,2,2,1,2,2,2,2,2,1,1,NA,2,1,2
7,2,2,2,2,2,2,2,2,2,2,2,2,2,2,2,2,2,2
7,2,2,2,2,2,2,1,2,2,2,2,2,2,2,2,1,2,2
7,2,2,2,2,2,2,2,2,2,2,2,2,2,2,2,2,2,2
7,2,2,2,2,2,2,1,2,2,1,2,2,1,2,1,1,2,2
7,2,2,2,2,2,2,1,2,2,2,2,2,2,2,2,1,2,2
7,2,2,2,2,2,2,2,1,2,2,2,2,2,2,2,1,2,2
7,2,2,2,2,2,2,1,2,2,2,2,2,2,2,2,1,2,2
7,2,2,2,2,2,2,1,2,2,2,2,2,2,2,2,2,2,2
7,2,2,2,2,2,2,2,2,2,2,2,2,2,2,2,1,2,2
7,2,2,2,2,2,2,1,NA,2,2,2,2,2,2,2,NA,2,2
7,2,2,2,2,2,2,2,2,2,2,2,2,2,2,2,1,2,2
7,2,2,2,2,2,1,2,1,1,2,2,2,2,2,2,1,2,2
7,2,2,2,2,2,NA,2,2,2,2,2,2,2,NA,2,1,2,2
7,2,2,2,2,2,2,NA,2,2,2,2,2,2,2,2,NA,2,2
7,2,2,2,2,2,2,2,2,2,2,2,2,2,2,2,1,2,2
7,2,2,2,2,2,2,1,2,2,2,2,2,2,2,2,2,1,2
7,2,1,1,1,1,1,1,2,2,2,2,2,2,2,2,NA,2,2
7,2,1,2,2,2,2,2,1,2,2,2,2,2,2,2,1,2,2
7,2,2,2,2,2,2,2,2,2,2,2,2,2,2,2,2,2,2
7,2,2,2,2,2,2,2,2,2,2,2,1,2,2,2,1,1,2
7,2,2,2,2,2,2,2,2,2,2,2,2,2,2,2,1,2,2
7,2,2,2,2,2,2,1,2,2,2,2,2,2,2,2,1,1,2
7,2,2,2,2,1,2,2,2,2,2,2,2,2,2,2,1,2,2
7,2,2,2,2,2,2,2,2,2,2,2,2,2,2,2,1,2,2
7,2,2,2,2,2,2,2,2,2,2,2,1,2,2,2,2,2,2
7,1,1,2,2,1,1,1,1,1,2,2,2,2,2,1,1,1,2
7,2,2,2,2,2,2,2,2,2,2,2,2,2,2,2,1,2,2
7,2,2,2,2,2,1,1,1,2,1,2,1,2,1,2,1,2,2
7,2,2,2,2,2,2,1,1,2,2,2,2,2,2,2,1,1,2
7,2,2,2,2,2,2,2,2,2,2,2,2,2,2,2,2,2,2
7,2,2,2,2,2,2,1,1,1,2,1,2,1,2,2,1,1,1
7,2,2,2,2,2,2,2,2,2,2,2,2,2,2,2,1,1,1
7,2,2,2,2,2,2,1,2,2,2,2,2,2,2,2,2,2,2
7,2,2,2,2,2,2,2,2,2,2,2,2,2,2,2,1,2,2
7,2,2,2,2,2,2,2,2,2,2,2,2,2,2,2,2,2,2
7,2,2,2,2,2,2,2,2,2,2,2,2,2,2,2,1,2,2
7,2,2,2,2,2,2,1,2,2,2,2,2,2,2,2,2,2,2
7,1,1,1,2,1,2,2,2,2,2,2,1,2,1,2,1,2,1
7,2,2,2,2,2,2,1,1,2,2,2,2,2,2,2,1,1,2
7,2,2,2,2,2,1,1,1,2,1,2,2,2,2,1,1,2,2
7,2,2,2,2,2,2,2,2,2,2,2,2,2,2,2,1,2,2
7,2,2,2,2,2,2,2,2,2,2,2,2,2,2,2,1,2,2
7,2,1,2,1,2,2,1,2,2,2,2,2,2,2,2,1,1,2
7,2,2,2,2,2,2,1,1,2,2,2,2,2,2,2,2,2,2
7,2,2,2,2,2,2,2,2,2,2,2,2,2,2,2,1,2,2
7,2,2,2,2,2,2,2,2,2,2,2,2,2,2,NA,2,2,2
7,2,2,2,2,2,2,2,2,2,2,2,2,2,2,2,1,2,2
7,2,2,2,1,1,2,1,2,2,2,2,2,2,2,2,1,1,1
7,2,2,2,2,2,2,2,2,2,2,2,2,1,2,2,1,2,2
7,2,2,2,2,2,2,2,2,2,2,2,2,2,2,2,2,1,2
7,2,2,2,2,2,2,2,2,2,2,2,2,2,2,2,NA,2,2
7,2,2,2,2,2,2,2,2,2,2,2,2,2,2,2,1,2,2
7,2,2,2,2,2,2,1,2,2,2,2,2,2,2,2,NA,NA,2
7,2,2,2,2,2,2,2,2,2,2,2,2,2,2,2,1,2,2
7,2,2,2,2,2,2,1,2,2,2,2,2,2,2,2,1,2,NA
7,2,2,2,2,2,2,1,2,2,2,2,1,2,1,2,1,1,2
7,2,2,2,2,2,2,1,1,2,2,2,2,2,2,2,2,2,2
7,2,2,2,2,2,1,2,1,1,2,2,2,2,1,2,1,2,2
7,2,2,2,2,2,1,1,2,1,2,2,2,1,1,2,1,1,2
7,2,2,2,2,2,2,2,2,2,2,2,2,2,2,2,1,2,2
7,2,2,2,1,1,2,1,2,2,2,2,2,2,2,2,1,1,2
7,2,2,2,2,2,2,NA,2,2,2,1,2,2,2,2,NA,2,2
7,2,2,2,2,2,2,2,2,2,2,2,1,2,2,2,NA,2,2
7,2,2,2,2,2,2,1,1,2,2,2,2,2,2,2,1,2,2
7,2,2,2,2,2,2,1,1,2,2,2,2,2,2,2,1,1,2
7,2,2,2,2,2,2,2,2,2,2,2,2,2,2,2,2,2,2
7,2,2,2,2,2,2,2,2,2,2,2,2,2,2,2,1,2,2
7,2,2,2,2,2,2,2,2,2,2,2,2,2,2,2,2,2,2
7,2,2,2,2,2,2,2,2,2,2,2,2,2,2,2,1,2,2
7,2,2,2,2,2,2,2,2,2,2,2,2,2,2,2,1,2,2
7,2,2,2,2,2,2,2,2,2,2,2,2,2,2,2,1,2,2
7,2,2,2,2,2,2,2,2,2,2,2,2,2,1,2,1,2,2
7,2,2,2,2,2,2,2,1,2,2,2,2,2,2,2,1,2,2
7,2,2,2,2,2,2,2,1,2,2,2,1,2,2,2,1,1,2
7,2,2,2,2,2,2,2,2,2,2,2,2,2,2,2,1,2,1
7,1,1,2,2,2,1,1,2,2,2,2,2,2,2,2,1,NA,2
7,2,2,2,2,2,2,1,2,2,2,2,2,2,2,2,1,2,2
7,2,1,1,2,1,2,1,1,2,2,2,1,2,2,2,1,2,2
7,2,2,2,2,2,2,2,2,2,2,2,2,2,2,2,1,2,2
7,2,2,1,2,2,2,1,1,2,2,2,2,NA,2,2,1,2,2
7,2,2,2,2,2,2,2,2,2,2,2,2,2,2,2,1,2,2
7,2,2,2,2,2,2,1,1,2,2,2,2,2,2,2,2,1,2
7,2,2,2,2,2,2,2,2,2,2,2,2,2,2,2,1,1,2
7,2,2,2,2,2,2,1,2,2,2,2,2,2,2,2,1,1,1
7,2,2,2,2,2,2,2,2,2,2,2,2,1,2,2,1,1,2
7,2,2,2,2,2,2,1,2,2,2,2,2,2,2,2,1,1,2
7,2,2,2,2,2,2,2,2,2,2,2,2,2,2,2,1,2,2
7,2,2,2,2,2,2,1,2,2,2,2,2,2,2,2,1,2,2
7,2,2,2,2,2,2,2,2,2,2,2,2,2,2,2,1,2,2
7,2,2,2,2,2,2,2,2,2,2,2,1,2,2,2,2,2,2
7,2,2,2,1,2,2,1,2,2,2,2,2,2,2,2,1,1,2
7,2,2,2,2,2,2,2,2,2,2,2,2,2,2,2,1,2,2
7,2,2,2,2,2,2,2,2,2,2,2,2,2,2,2,1,2,2
7,2,2,2,2,2,2,2,2,2,2,2,2,2,2,2,1,2,2
7,2,2,2,2,2,2,1,2,2,2,2,2,2,2,2,1,1,2
7,2,2,2,2,2,2,2,2,2,2,2,2,2,2,2,1,2,2
7,2,2,2,2,2,2,2,2,2,2,2,2,2,2,2,1,2,2
7,2,2,2,2,2,2,2,2,2,2,2,2,2,2,2,2,2,2
7,2,2,2,2,NA,2,2,2,2,2,2,2,2,2,2,2,2,2
7,2,2,2,1,2,2,1,2,1,2,1,NA,2,2,2,1,1,2
7,1,2,2,2,2,2,1,2,2,2,2,2,2,2,2,NA,2,2
7,2,2,2,2,2,2,2,2,2,2,2,2,2,2,2,1,2,2
7,2,2,2,2,2,2,1,2,2,2,2,2,2,2,2,1,2,2
7,2,2,2,2,2,2,2,2,2,2,2,2,2,2,2,2,2,2
7,2,2,2,2,2,1,2,2,2,2,2,2,2,1,2,2,2,2
7,2,2,2,2,2,2,1,2,2,2,2,2,2,2,1,1,2,2
7,2,2,2,2,2,2,2,2,2,2,2,2,2,2,2,2,2,2
7,2,2,2,2,2,2,2,2,2,2,2,2,2,NA,2,1,2,2
7,2,2,2,2,2,2,2,2,2,2,2,2,2,2,2,1,2,2
7,2,2,2,2,2,1,2,2,2,2,2,1,2,1,2,1,2,2
7,2,2,2,2,2,2,2,2,2,2,2,2,2,2,2,1,2,2
7,2,2,2,2,2,2,2,2,2,2,2,2,2,2,2,1,1,2
7,2,2,2,2,2,2,1,2,2,2,2,1,2,2,2,1,1,2
7,2,2,2,2,2,1,2,2,2,2,2,2,2,2,2,1,2,2
7,2,2,2,2,2,2,2,2,2,2,2,1,2,2,2,1,2,2
7,2,2,2,2,2,2,2,2,2,2,2,2,2,2,2,1,2,2
7,2,2,2,2,2,2,2,2,2,2,2,2,2,2,2,2,2,2
7,2,2,2,2,2,2,1,2,2,1,1,1,1,2,1,1,2,2
7,2,2,2,2,2,2,2,2,2,2,2,2,2,2,2,1,2,2
7,2,2,2,2,2,2,2,2,2,2,2,2,2,2,2,2,2,2
7,2,2,2,2,2,2,2,2,2,2,2,2,2,2,2,1,1,2
7,2,2,2,2,2,2,2,2,2,2,2,2,2,2,2,2,2,2
7,2,2,2,2,2,2,2,2,2,2,2,2,2,2,1,1,2,2
7,2,2,2,2,1,2,1,2,2,2,2,2,2,2,1,1,1,2
7,2,2,2,2,2,2,2,2,2,2,2,2,2,2,2,1,2,2
7,2,2,2,2,2,2,1,2,2,2,2,2,2,2,2,1,1,2
7,2,2,2,2,2,2,2,2,2,2,2,1,2,2,2,2,2,2
7,2,2,2,2,2,2,2,2,2,2,2,2,2,2,2,2,2,2
7,2,2,2,2,2,2,1,2,2,2,2,2,2,2,2,2,2,2
7,2,2,2,2,2,1,2,2,1,2,2,2,1,1,2,1,2,2
7,2,2,2,2,2,2,2,2,2,2,2,2,2,2,2,2,2,2
7,2,2,2,2,2,2,2,2,2,2,2,2,2,2,2,2,2,2
7,2,2,2,2,2,2,2,2,2,2,2,2,2,2,2,2,2,2
7,2,2,2,2,2,1,1,1,2,2,2,2,2,2,2,2,2,2
7,2,2,2,2,2,2,2,2,2,2,2,1,2,2,2,2,2,2
7,2,2,2,2,2,2,NA,2,2,2,2,2,2,2,2,NA,2,2
7,1,2,2,2,2,2,1,2,2,2,2,2,2,2,2,2,2,2
7,2,2,2,2,2,2,2,2,2,2,2,2,2,2,2,1,2,2
7,1,2,1,2,2,1,1,2,1,2,2,2,2,1,2,1,1,2
7,1,2,2,2,1,2,2,2,2,2,2,2,2,2,2,1,2,2
7,2,2,2,2,2,2,2,2,2,2,2,2,2,1,2,2,2,2
7,2,2,2,2,2,1,2,1,2,2,2,2,NA,2,2,1,1,2
7,2,2,2,2,2,1,1,2,2,2,2,2,2,2,2,1,2,2
7,1,1,1,2,1,2,2,2,2,2,2,2,2,2,2,1,2,2
7,2,2,2,2,2,2,2,2,2,2,2,1,2,2,2,2,2,2
7,1,1,2,2,2,2,2,1,2,2,2,2,2,2,2,1,2,2
7,2,2,2,2,2,2,2,2,2,2,2,2,2,2,2,2,2,2
7,2,1,1,2,2,2,2,2,2,2,2,2,2,2,2,1,2,2
7,2,2,2,2,2,2,2,2,2,2,2,2,2,2,2,2,2,2
7,2,2,2,2,2,1,1,2,1,2,2,2,2,2,1,1,2,2
7,2,2,2,2,2,2,2,2,2,2,2,2,2,2,2,1,2,2
7,2,2,2,2,2,2,1,2,2,2,2,2,2,2,2,2,2,2
7,2,2,2,2,2,2,1,2,2,2,2,2,2,2,2,2,2,2
7,2,2,2,2,2,2,2,2,2,2,2,1,2,2,2,1,1,1
7,2,2,2,2,2,2,NA,NA,NA,NA,1,1,NA,2,2,1,NA,2
7,2,2,2,2,2,2,2,2,2,2,2,2,2,2,2,1,2,2
7,2,2,2,2,2,1,2,2,2,2,2,2,2,2,2,1,2,2
7,2,2,2,2,2,2,2,2,2,2,2,2,2,2,2,1,2,1
7,2,2,2,2,2,2,2,2,2,2,2,2,2,2,2,1,2,2
7,2,2,2,2,2,2,2,2,2,2,2,2,2,2,2,1,2,2
7,2,2,2,2,2,2,2,2,2,2,2,2,2,2,2,1,2,2
7,2,2,2,2,2,2,2,2,2,2,2,2,2,2,2,1,2,2
7,2,2,2,2,2,2,2,1,2,2,2,2,2,1,2,1,2,2
7,2,2,2,2,2,NA,2,2,2,2,2,2,2,NA,1,1,2,2
7,2,2,2,2,2,2,2,2,2,2,2,2,2,2,2,2,2,2
7,2,2,2,2,2,2,2,2,2,2,2,2,2,2,2,1,2,2
7,2,2,2,1,2,2,1,1,2,2,2,2,2,2,2,NA,2,2
7,2,2,2,2,2,2,1,2,2,NA,2,2,2,2,1,1,2,2
7,1,2,2,1,1,1,2,2,1,2,2,2,2,2,1,1,2,2
7,2,2,2,1,2,2,1,2,NA,2,2,2,2,2,2,1,2,2
7,2,2,2,2,2,2,2,2,2,2,2,2,2,1,2,1,2,2
7,1,2,2,2,2,2,2,2,2,2,2,1,2,2,2,2,1,2
7,2,2,2,2,2,2,2,2,2,2,2,2,2,2,2,2,2,2
7,2,2,2,2,2,2,2,2,2,2,2,2,2,2,2,1,2,2
7,2,2,2,2,2,2,2,2,2,2,2,2,2,2,2,1,2,2
7,2,2,2,2,2,2,2,2,2,2,2,2,2,2,2,1,2,2
7,2,2,2,2,2,2,2,2,2,2,2,2,2,2,2,1,2,2
7,2,2,2,2,2,2,2,2,2,2,2,2,2,2,2,1,2,2
7,2,2,2,2,2,2,1,2,2,2,2,1,2,2,2,2,2,2
7,2,2,1,2,1,2,2,1,2,2,2,1,2,2,2,1,1,2
7,2,2,2,2,2,2,2,2,2,2,2,2,2,2,2,2,2,2
7,1,1,2,2,2,2,2,2,2,2,2,2,2,2,2,1,2,1
7,2,2,2,2,2,2,2,2,2,2,2,2,2,2,2,2,2,2
7,2,2,2,2,2,2,1,2,2,2,2,2,2,2,2,1,1,2
7,2,2,2,2,2,2,1,1,2,2,2,2,2,1,2,1,2,2
7,2,2,2,2,2,2,2,2,2,2,2,2,2,2,2,1,2,2
7,2,2,2,2,2,2,2,2,2,2,2,2,2,2,2,1,2,2
7,2,2,2,2,2,2,2,2,2,2,1,2,2,2,2,1,2,2
7,2,2,2,2,2,2,1,1,2,2,2,2,2,2,2,1,1,2
7,2,2,2,2,2,2,1,2,2,2,2,2,2,2,2,2,2,2
7,2,2,2,2,2,1,1,1,2,2,2,2,2,2,2,2,1,2
7,2,2,2,2,2,2,1,2,2,2,2,2,2,2,2,1,1,1
7,2,2,2,2,2,2,2,2,2,2,2,2,2,2,2,1,2,2
7,2,2,2,2,2,2,2,2,2,2,2,2,2,2,2,1,2,2
7,2,2,2,2,2,2,2,2,2,2,2,2,2,2,2,1,2,2
7,2,2,2,2,2,2,1,2,2,2,2,2,2,2,2,2,1,2
7,2,2,2,2,2,NA,2,2,2,2,2,2,2,2,2,1,2,2
7,2,2,2,2,2,2,2,1,2,2,2,1,2,2,2,1,2,1
7,2,2,2,2,2,2,2,2,2,2,2,2,2,2,2,1,2,2
7,2,2,2,2,2,2,1,2,2,2,NA,NA,2,2,2,1,NA,NA
7,2,2,2,2,2,2,2,2,2,2,2,2,2,2,2,1,2,2
7,2,2,2,2,2,2,2,2,2,2,2,2,2,2,2,2,2,2
7,2,2,2,2,2,2,1,2,2,2,2,2,2,2,2,1,2,2
7,2,2,2,2,2,2,2,2,2,2,2,2,2,2,2,1,2,2
7,2,2,2,2,2,2,1,2,2,2,2,2,2,2,2,1,1,2
7,1,1,1,1,1,2,1,2,2,1,1,2,2,2,2,1,1,1
7,1,2,2,2,2,2,1,2,2,2,2,1,2,1,1,1,2,2
7,2,2,2,2,2,2,2,2,2,2,2,2,2,2,2,1,2,2
7,2,2,2,2,2,2,2,2,2,2,2,2,2,2,2,1,2,2
7,2,2,2,2,2,2,2,2,2,2,2,2,1,2,2,2,2,2
7,2,2,1,2,2,2,2,2,2,2,2,2,2,1,2,2,2,2
7,2,2,2,2,2,2,2,2,2,2,2,2,2,1,2,2,2,2
7,2,2,2,2,2,2,2,2,2,2,2,1,2,2,2,2,2,2
7,2,2,2,2,2,2,1,2,2,2,2,1,2,1,2,2,1,2
7,2,2,2,2,2,2,1,2,2,2,2,2,2,2,2,2,1,2
7,2,2,2,2,2,2,2,2,2,2,2,2,2,2,2,2,2,2
7,2,2,2,2,2,2,2,2,2,2,2,2,2,2,2,NA,NA,2
7,2,2,2,2,2,2,2,2,2,2,2,2,2,2,2,1,2,2
7,2,2,2,2,2,2,2,2,2,2,2,2,2,2,2,2,2,2
7,2,2,2,2,2,1,1,1,2,2,2,2,2,2,2,1,2,2
7,2,2,2,2,2,2,2,2,2,2,2,2,2,2,2,2,2,2
7,2,2,2,2,2,2,2,2,2,2,2,2,2,2,2,2,2,2
7,2,2,2,2,2,2,2,2,2,2,2,2,2,2,2,2,2,2
7,2,2,2,2,2,2,NA,NA,2,2,NA,NA,2,2,2,NA,NA,NA
7,2,2,2,2,2,2,1,2,2,2,2,1,2,2,2,2,2,2
7,2,2,2,2,1,1,2,2,1,2,2,1,2,2,1,2,1,2
7,2,2,2,2,2,2,2,2,2,2,2,2,2,2,2,1,2,2
7,2,2,2,2,2,1,1,2,2,1,2,2,2,2,2,1,2,2
7,2,2,2,2,2,2,1,2,2,2,2,1,2,1,2,2,2,2
7,2,2,2,2,2,2,2,2,2,2,1,2,2,2,2,NA,NA,NA
7,1,1,2,2,2,2,2,2,2,2,2,2,2,2,2,1,2,2
7,2,2,2,2,2,1,2,2,2,2,2,2,2,2,2,2,2,2
7,2,2,2,2,2,2,2,1,2,2,2,2,2,2,2,1,2,2
7,2,2,2,2,2,2,2,2,2,2,2,2,2,2,2,2,2,2
7,2,2,2,1,2,2,2,2,2,2,2,2,1,2,2,1,2,1
7,2,2,2,2,2,2,2,2,2,2,2,2,2,2,2,1,2,2
7,2,2,2,2,2,2,2,2,2,2,2,2,2,2,2,2,2,2
7,1,1,1,2,1,2,1,1,2,2,2,2,2,2,2,1,1,2
7,2,2,2,2,2,2,2,2,2,2,2,1,2,2,2,1,2,2
7,2,2,2,2,2,2,1,2,2,2,2,2,2,2,2,1,2,2
7,2,2,2,2,2,2,1,1,2,2,2,2,2,2,2,1,2,2
7,2,2,2,2,2,2,2,2,2,2,2,2,2,2,2,1,2,2
7,2,2,2,2,2,2,2,2,2,2,2,2,2,2,2,1,2,2
7,2,2,2,2,2,2,1,2,2,2,2,2,2,2,2,1,2,2
7,2,2,2,2,2,2,2,2,2,2,NA,1,2,2,2,NA,NA,2
7,2,2,2,2,2,2,2,2,2,2,2,2,2,2,2,1,2,2
7,2,2,2,2,2,2,2,2,2,2,2,2,2,2,2,1,1,2
7,2,2,2,2,2,2,2,2,2,2,2,1,2,2,2,2,2,2
7,2,2,2,2,2,2,1,2,2,2,2,1,2,1,2,1,2,2
7,2,2,2,2,2,2,2,2,2,2,2,2,2,2,2,1,2,2
7,2,2,2,2,2,NA,2,2,2,2,2,2,2,2,2,2,2,2
7,2,2,2,2,2,2,2,2,2,2,2,2,2,2,2,1,2,2
7,2,2,2,2,2,2,2,2,2,2,2,2,2,2,2,1,2,2
7,2,2,2,1,2,2,1,2,2,2,2,2,2,2,2,1,1,2
7,2,2,2,2,2,2,1,2,2,2,2,2,2,2,2,2,2,2
7,2,2,2,2,2,2,2,2,2,2,2,2,2,2,2,1,2,2
7,2,2,2,2,2,2,2,2,2,2,2,1,2,2,2,2,2,2
7,2,2,2,2,2,2,1,2,2,2,2,2,2,2,2,1,2,2
7,2,2,2,2,2,2,2,2,2,2,2,2,2,2,2,2,2,2
7,2,2,1,2,2,2,2,2,NA,2,2,2,2,2,2,1,2,1
7,2,2,2,2,2,2,2,2,2,2,2,2,2,2,2,1,2,2
7,2,2,2,2,2,2,1,2,2,2,2,2,2,2,2,1,1,NA
7,2,2,2,2,2,1,2,2,1,2,2,2,2,2,2,2,2,2
7,2,2,2,NA,2,2,1,2,2,2,2,2,2,2,2,1,1,2
7,2,2,2,2,2,2,2,2,2,2,2,2,2,2,2,2,2,2
7,1,2,2,2,2,2,2,2,2,2,2,2,2,2,2,1,1,2
7,2,2,2,2,2,2,2,2,2,2,2,2,2,2,2,1,2,2
7,2,2,2,1,2,2,1,2,2,2,2,2,2,2,2,2,1,2
7,2,2,2,2,2,2,1,2,2,2,2,1,2,2,2,1,1,2
7,2,2,2,2,2,2,2,2,2,2,2,2,2,2,2,2,2,2
7,2,2,2,2,2,2,1,2,2,1,2,1,1,2,2,1,2,2
7,2,2,2,2,2,2,2,2,2,2,2,2,2,2,2,2,2,2
7,1,1,1,2,2,2,2,2,2,2,2,2,2,2,2,1,2,2
7,2,2,2,2,2,2,2,2,2,2,2,2,2,2,2,1,2,2
7,2,2,2,2,2,2,2,2,2,2,2,2,2,2,2,2,2,2
7,2,2,2,2,2,2,1,2,2,2,2,2,2,2,2,2,2,2
7,2,2,2,2,2,1,2,2,2,2,2,1,2,2,2,2,2,2
7,2,1,2,1,2,1,1,2,2,2,2,2,2,2,1,1,1,2
7,2,2,2,2,2,2,1,2,2,2,2,2,2,2,2,2,2,2
7,2,2,2,2,2,2,2,2,2,2,2,2,2,2,2,1,2,2
7,2,2,2,2,2,2,2,2,2,2,1,2,2,2,2,1,2,2
7,2,2,2,2,2,1,1,2,2,2,1,2,1,2,2,1,1,2
7,1,1,1,1,1,1,2,1,1,1,1,1,1,1,1,1,2,1
7,2,1,2,2,1,2,2,1,2,2,2,2,1,1,2,1,2,2
7,2,2,2,2,2,2,2,2,2,2,2,2,2,2,2,1,2,2
7,2,2,2,2,2,2,2,2,2,2,2,2,2,2,2,1,2,2
7,2,2,2,2,2,2,2,2,2,2,2,2,2,2,2,1,2,2
7,2,1,2,1,2,2,2,1,2,2,2,1,2,2,2,1,1,1
7,2,2,2,2,2,2,2,2,2,2,2,2,2,2,2,2,2,2
7,2,2,2,2,2,2,1,2,2,2,2,2,2,2,2,1,1,2
7,2,2,2,2,2,2,2,2,2,2,2,2,2,2,2,1,2,2
7,2,2,2,2,2,1,2,2,2,2,2,1,2,1,2,1,2,2
7,2,2,2,2,2,2,2,2,2,2,2,2,2,2,2,2,2,2
7,2,2,2,2,2,2,1,2,2,1,2,1,2,2,2,NA,NA,2
7,2,2,2,2,2,2,1,2,2,2,NA,2,2,2,2,NA,NA,2
7,2,2,2,2,2,2,2,2,2,2,2,1,2,2,2,NA,2,2
7,2,2,2,2,2,2,2,2,2,2,2,2,2,NA,2,1,2,2
7,2,2,2,2,2,2,2,2,2,2,2,1,2,2,2,2,2,2
7,2,2,2,2,2,2,1,2,2,2,2,1,2,2,2,2,2,2
7,2,2,2,2,2,2,1,2,2,2,2,2,2,2,2,1,2,2
7,2,2,2,1,2,2,1,1,2,2,2,1,2,1,1,1,1,2
7,2,2,2,2,2,1,1,1,1,1,1,1,2,2,2,2,2,2
7,2,2,2,2,2,2,2,2,2,2,2,2,2,2,2,2,2,2
7,2,2,2,2,2,2,2,2,2,2,2,2,2,2,2,2,2,2
7,2,2,2,2,2,2,2,2,2,2,2,2,2,2,2,1,2,2
7,2,2,2,2,2,2,2,2,2,2,2,1,2,2,2,2,2,2
7,2,2,2,1,2,2,1,2,2,2,2,2,2,2,2,1,1,2
7,2,2,2,2,2,2,2,2,2,2,2,1,2,1,2,2,1,2
7,2,2,2,2,2,NA,1,2,2,2,2,2,2,2,1,1,2,2
7,2,2,2,2,2,2,2,1,2,2,2,2,2,2,2,1,2,2
7,2,2,2,2,2,2,2,2,2,2,2,2,2,2,2,1,2,2
7,2,2,2,2,2,2,1,2,2,NA,NA,2,2,2,2,NA,2,2
7,2,1,1,2,1,2,1,2,2,2,2,2,2,2,1,1,2,2
7,2,2,2,2,2,2,2,2,2,2,2,1,2,2,2,2,2,2
7,2,2,2,2,2,2,1,NA,NA,2,2,2,2,2,2,1,2,2
7,2,1,2,2,2,2,2,2,2,2,2,2,2,2,2,2,2,2
7,2,2,2,1,2,2,1,2,2,2,2,2,2,2,2,1,1,2
7,2,2,2,2,2,2,2,2,2,2,2,2,2,2,2,1,2,2
7,2,2,2,2,2,2,1,2,2,2,2,2,2,2,2,1,2,2
7,2,2,2,1,2,2,1,2,2,2,2,2,2,2,2,1,1,1
7,2,2,2,2,2,2,2,2,2,2,2,2,2,2,2,1,2,2
7,2,2,1,1,1,2,2,2,2,2,2,2,2,2,2,2,2,2
7,2,2,2,2,2,1,1,1,2,2,2,2,2,2,NA,2,2,2
7,2,2,2,1,2,2,2,2,2,2,2,1,2,2,2,1,1,1
7,2,2,1,2,1,2,2,1,2,2,2,2,2,2,2,2,2,2
7,2,1,NA,2,2,2,1,1,2,2,2,2,2,2,2,1,1,2
7,2,2,2,2,2,2,2,2,2,2,2,2,2,2,2,1,2,2
7,2,2,2,2,2,2,2,2,2,2,2,2,2,2,2,1,2,2
7,2,2,2,2,2,2,1,2,2,2,2,2,2,2,2,2,1,2
7,2,2,1,2,2,2,2,2,2,2,2,2,2,2,2,1,1,2
7,2,2,2,2,2,1,1,2,2,2,2,2,2,2,2,1,2,2
7,2,2,2,2,2,2,2,2,2,2,2,1,2,2,2,1,2,2
7,NA,2,2,2,2,2,NA,2,2,2,2,2,2,2,2,NA,2,2
7,2,2,2,2,2,2,1,2,2,2,2,1,2,2,2,1,1,2
7,2,2,2,2,2,2,2,2,2,2,2,2,2,2,2,2,2,2
7,2,2,2,2,2,2,1,1,2,2,2,1,2,2,2,2,2,2
7,2,2,2,2,2,1,2,2,2,2,2,2,2,2,2,2,2,2
7,2,1,2,1,2,2,1,2,2,2,2,2,2,2,2,1,1,2
7,2,2,2,2,2,2,2,2,2,2,2,2,2,2,2,1,2,2
7,2,2,2,2,2,2,1,2,2,2,2,2,2,2,2,1,2,2
7,2,2,2,2,2,2,1,1,2,2,2,2,2,2,2,2,2,2
7,2,2,2,2,2,2,2,2,2,2,2,2,2,2,2,1,2,2
7,2,2,2,2,2,2,2,2,2,2,2,2,2,2,2,1,2,2
7,2,2,2,2,2,2,2,2,2,2,2,1,2,2,2,2,2,2
7,1,1,1,2,1,2,2,1,2,2,2,2,2,2,2,1,2,2
7,2,2,2,2,2,2,1,1,2,2,2,1,2,1,2,1,1,2
7,2,2,2,2,2,2,2,2,2,2,2,2,2,2,2,2,2,2
7,2,2,2,2,2,2,2,2,2,2,2,2,2,2,2,1,2,2
7,2,2,2,2,2,2,2,2,2,2,2,2,2,2,2,1,2,2
7,2,2,2,2,2,1,2,2,2,2,1,1,2,2,2,1,2,2
7,2,2,2,2,2,2,2,2,2,2,2,2,2,2,2,1,2,2
7,2,2,2,2,2,2,NA,2,2,2,2,2,2,2,2,2,2,2
7,2,2,2,2,2,2,2,2,2,2,2,1,1,2,2,1,2,2
7,2,2,2,2,2,2,2,2,2,2,2,2,2,2,2,2,2,2
7,1,1,1,2,2,1,2,2,2,2,2,2,2,2,2,1,2,2
7,2,2,2,2,2,2,2,2,2,2,2,2,2,2,2,1,2,2
7,1,2,2,2,2,2,2,1,1,2,2,2,2,2,2,1,2,NA
7,2,2,2,2,2,1,1,2,2,2,2,2,2,2,2,1,1,1
7,2,1,2,2,1,2,2,2,2,2,2,2,2,NA,2,1,2,2
7,2,2,2,2,2,2,2,2,2,2,2,2,2,2,2,NA,2,2
7,2,2,2,2,2,2,2,2,2,2,2,1,2,2,2,1,2,2
7,1,1,1,2,1,2,1,2,1,1,2,1,2,2,1,1,2,2
7,2,2,2,2,2,2,1,2,2,2,2,2,2,2,2,1,2,2
7,2,2,2,2,2,2,2,2,2,2,2,2,2,1,1,1,2,2
7,2,2,2,2,1,1,1,1,2,2,2,2,2,2,2,2,2,2
7,2,1,1,1,1,2,2,2,2,2,2,2,2,2,2,2,2,2
7,2,2,2,2,2,2,2,2,2,2,2,2,2,2,2,2,2,2
7,2,2,2,2,2,2,2,1,2,2,2,2,2,2,2,1,2,2
7,2,2,1,2,2,2,1,2,2,2,2,2,2,2,2,1,2,2
7,2,2,2,2,2,2,2,2,2,2,2,2,2,2,2,2,2,2
7,2,2,2,2,2,1,1,2,1,2,2,2,2,2,1,2,2,2
7,2,2,2,2,2,2,2,2,2,2,2,2,2,2,2,2,2,2
7,2,2,2,2,2,2,2,2,2,2,2,2,2,2,2,1,2,2
7,2,2,2,2,2,2,2,2,2,2,2,2,2,2,2,2,2,2
7,2,2,2,2,2,2,1,2,2,2,2,2,2,2,2,1,2,2
7,2,2,2,2,2,2,1,2,2,2,2,2,2,2,NA,1,1,2
7,2,2,2,2,2,2,2,1,2,2,2,2,2,2,2,NA,2,2
7,2,2,2,2,2,2,2,2,2,2,2,2,2,2,2,1,2,2
7,2,2,2,2,2,2,1,1,2,2,2,2,2,2,2,1,2,2
7,2,2,2,2,2,2,1,2,2,2,2,2,2,1,2,NA,2,2
7,2,2,2,2,2,2,2,2,2,2,2,2,2,2,2,1,1,1
7,1,1,1,1,1,2,1,NA,2,2,2,2,2,2,2,1,1,2
7,2,2,2,2,2,2,2,1,2,2,2,2,2,2,2,1,2,2
7,2,2,2,2,2,2,2,2,2,2,2,2,2,2,2,1,2,2
7,2,2,2,2,2,2,2,1,2,2,2,2,2,2,2,2,2,2
7,2,1,1,1,2,2,2,2,2,2,2,2,2,2,2,2,2,2
7,2,2,2,2,2,2,2,2,2,2,2,1,2,2,2,2,2,2
7,2,2,2,2,2,2,2,1,2,2,2,2,2,2,2,1,2,2
7,1,2,2,2,2,2,2,2,2,2,2,2,2,2,2,1,2,1
7,2,2,2,2,2,2,1,2,2,2,2,2,2,2,2,1,2,2
7,2,2,2,2,2,2,1,2,2,2,2,2,2,2,2,1,2,2
7,1,1,1,2,2,2,2,2,2,2,2,2,1,2,2,1,2,2
7,2,2,2,2,2,2,2,2,2,2,2,2,2,2,2,2,2,2
7,2,1,2,1,2,2,1,2,2,2,2,2,2,2,2,1,1,2
7,2,2,2,2,2,2,1,2,2,2,2,2,2,1,2,1,1,2
7,2,2,2,2,2,2,2,2,2,2,2,2,1,2,2,2,2,2
7,1,2,2,2,1,2,2,2,2,2,2,2,2,2,1,1,2,2
7,2,2,2,2,2,2,2,2,2,2,2,2,2,2,2,2,2,2
