<?xml version="1.0" encoding="UTF-8"?>
<svg xmlns="http://www.w3.org/2000/svg" xmlns:xlink="http://www.w3.org/1999/xlink" width="486pt" height="222pt" viewBox="0 0 486 222" version="1.1">
<defs>
<g>
<symbol overflow="visible" id="glyph0-0">
<path style="stroke:none;" d=""/>
</symbol>
<symbol overflow="visible" id="glyph0-1">
<path style="stroke:none;" d="M 1.625 -2.71875 L 3.640625 -2.71875 C 4.140625 -2.71875 4.53125 -2.875 4.875 -3.171875 C 5.265625 -3.53125 5.421875 -3.9375 5.421875 -4.53125 C 5.421875 -5.734375 4.71875 -6.40625 3.453125 -6.40625 L 0.796875 -6.40625 L 0.796875 0 L 1.625 0 Z M 1.625 -3.4375 L 1.625 -5.6875 L 3.328125 -5.6875 C 4.109375 -5.6875 4.578125 -5.265625 4.578125 -4.5625 C 4.578125 -3.859375 4.109375 -3.4375 3.328125 -3.4375 Z M 1.625 -3.4375 "/>
</symbol>
<symbol overflow="visible" id="glyph0-2">
<path style="stroke:none;" d="M 4.703125 -0.4375 C 4.625 -0.40625 4.59375 -0.40625 4.546875 -0.40625 C 4.296875 -0.40625 4.15625 -0.546875 4.15625 -0.78125 L 4.15625 -3.484375 C 4.15625 -4.296875 3.546875 -4.734375 2.421875 -4.734375 C 1.734375 -4.734375 1.203125 -4.546875 0.890625 -4.203125 C 0.671875 -3.96875 0.59375 -3.703125 0.578125 -3.25 L 1.3125 -3.25 C 1.375 -3.8125 1.703125 -4.0625 2.390625 -4.0625 C 3.0625 -4.0625 3.421875 -3.8125 3.421875 -3.375 L 3.421875 -3.1875 C 3.40625 -2.875 3.25 -2.75 2.65625 -2.671875 C 1.625 -2.546875 1.453125 -2.5 1.171875 -2.390625 C 0.640625 -2.15625 0.375 -1.765625 0.375 -1.15625 C 0.375 -0.328125 0.953125 0.203125 1.875 0.203125 C 2.46875 0.203125 2.921875 0 3.453125 -0.46875 C 3.5 0 3.734375 0.203125 4.203125 0.203125 C 4.359375 0.203125 4.453125 0.1875 4.703125 0.125 Z M 3.421875 -1.453125 C 3.421875 -1.203125 3.359375 -1.0625 3.125 -0.859375 C 2.828125 -0.578125 2.46875 -0.4375 2.046875 -0.4375 C 1.46875 -0.4375 1.140625 -0.71875 1.140625 -1.171875 C 1.140625 -1.65625 1.453125 -1.90625 2.25 -2.015625 C 3.03125 -2.125 3.171875 -2.15625 3.421875 -2.28125 Z M 3.421875 -1.453125 "/>
</symbol>
<symbol overflow="visible" id="glyph0-3">
<path style="stroke:none;" d="M 0.609375 -4.609375 L 0.609375 0 L 1.34375 0 L 1.34375 -2.390625 C 1.359375 -3.5 1.8125 -4 2.828125 -3.96875 L 2.828125 -4.71875 C 2.703125 -4.734375 2.625 -4.734375 2.546875 -4.734375 C 2.0625 -4.734375 1.703125 -4.453125 1.28125 -3.78125 L 1.28125 -4.609375 Z M 0.609375 -4.609375 "/>
</symbol>
<symbol overflow="visible" id="glyph0-4">
<path style="stroke:none;" d="M 2.234375 -4.609375 L 1.484375 -4.609375 L 1.484375 -5.875 L 0.75 -5.875 L 0.75 -4.609375 L 0.125 -4.609375 L 0.125 -4.015625 L 0.75 -4.015625 L 0.75 -0.53125 C 0.75 -0.046875 1.0625 0.203125 1.640625 0.203125 C 1.828125 0.203125 1.984375 0.1875 2.234375 0.140625 L 2.234375 -0.46875 C 2.125 -0.453125 2.03125 -0.4375 1.875 -0.4375 C 1.5625 -0.4375 1.484375 -0.53125 1.484375 -0.859375 L 1.484375 -4.015625 L 2.234375 -4.015625 Z M 2.234375 -4.609375 "/>
</symbol>
<symbol overflow="visible" id="glyph0-5">
<path style="stroke:none;" d="M 1.3125 -4.609375 L 0.59375 -4.609375 L 0.59375 0 L 1.3125 0 Z M 1.3125 -6.40625 L 0.578125 -6.40625 L 0.578125 -5.484375 L 1.3125 -5.484375 Z M 1.3125 -6.40625 "/>
</symbol>
<symbol overflow="visible" id="glyph0-6">
<path style="stroke:none;" d="M 4.359375 -6.40625 L 3.625 -6.40625 L 3.625 -4.03125 C 3.3125 -4.5 2.828125 -4.734375 2.203125 -4.734375 C 1.015625 -4.734375 0.234375 -3.78125 0.234375 -2.3125 C 0.234375 -0.75 0.984375 0.203125 2.234375 0.203125 C 2.875 0.203125 3.3125 -0.03125 3.703125 -0.609375 L 3.703125 0 L 4.359375 0 Z M 2.328125 -4.0625 C 3.125 -4.0625 3.625 -3.359375 3.625 -2.25 C 3.625 -1.1875 3.109375 -0.484375 2.34375 -0.484375 C 1.53125 -0.484375 1 -1.203125 1 -2.265625 C 1 -3.34375 1.53125 -4.0625 2.328125 -4.0625 Z M 2.328125 -4.0625 "/>
</symbol>
<symbol overflow="visible" id="glyph0-7">
<path style="stroke:none;" d="M 3.859375 -3.328125 C 3.84375 -4.234375 3.25 -4.734375 2.1875 -4.734375 C 1.109375 -4.734375 0.40625 -4.1875 0.40625 -3.328125 C 0.40625 -2.609375 0.78125 -2.265625 1.875 -2 L 2.5625 -1.84375 C 3.0625 -1.71875 3.265625 -1.53125 3.265625 -1.203125 C 3.265625 -0.765625 2.84375 -0.46875 2.203125 -0.46875 C 1.796875 -0.46875 1.46875 -0.59375 1.28125 -0.78125 C 1.171875 -0.921875 1.125 -1.046875 1.078125 -1.375 L 0.296875 -1.375 C 0.328125 -0.3125 0.9375 0.203125 2.140625 0.203125 C 3.296875 0.203125 4.03125 -0.375 4.03125 -1.265625 C 4.03125 -1.9375 3.65625 -2.328125 2.734375 -2.546875 L 2.03125 -2.703125 C 1.4375 -2.84375 1.171875 -3.046875 1.171875 -3.375 C 1.171875 -3.796875 1.5625 -4.0625 2.15625 -4.0625 C 2.75 -4.0625 3.0625 -3.8125 3.078125 -3.328125 Z M 3.859375 -3.328125 "/>
</symbol>
<symbol overflow="visible" id="glyph0-8">
<path style="stroke:none;" d="M 2.390625 -4.734375 C 1.09375 -4.734375 0.3125 -3.8125 0.3125 -2.265625 C 0.3125 -0.71875 1.09375 0.203125 2.40625 0.203125 C 3.703125 0.203125 4.484375 -0.71875 4.484375 -2.234375 C 4.484375 -3.828125 3.734375 -4.734375 2.390625 -4.734375 Z M 2.40625 -4.0625 C 3.234375 -4.0625 3.71875 -3.390625 3.71875 -2.25 C 3.71875 -1.15625 3.203125 -0.46875 2.40625 -0.46875 C 1.578125 -0.46875 1.078125 -1.15625 1.078125 -2.265625 C 1.078125 -3.390625 1.578125 -4.0625 2.40625 -4.0625 Z M 2.40625 -4.0625 "/>
</symbol>
<symbol overflow="visible" id="glyph0-9">
<path style="stroke:none;" d="M 4.515625 -2.0625 C 4.515625 -2.765625 4.453125 -3.1875 4.328125 -3.53125 C 4.03125 -4.28125 3.328125 -4.734375 2.46875 -4.734375 C 1.171875 -4.734375 0.359375 -3.765625 0.359375 -2.25 C 0.359375 -0.71875 1.140625 0.203125 2.453125 0.203125 C 3.5 0.203125 4.234375 -0.390625 4.421875 -1.40625 L 3.671875 -1.40625 C 3.46875 -0.796875 3.0625 -0.46875 2.46875 -0.46875 C 2 -0.46875 1.609375 -0.6875 1.359375 -1.078125 C 1.1875 -1.34375 1.125 -1.59375 1.125 -2.0625 Z M 1.140625 -2.65625 C 1.203125 -3.515625 1.71875 -4.0625 2.453125 -4.0625 C 3.203125 -4.0625 3.71875 -3.484375 3.71875 -2.65625 Z M 1.140625 -2.65625 "/>
</symbol>
<symbol overflow="visible" id="glyph0-10">
<path style="stroke:none;" d="M 3.453125 0 L 5.671875 -6.40625 L 4.796875 -6.40625 L 3.03125 -0.984375 L 1.140625 -6.40625 L 0.265625 -6.40625 L 2.5625 0 Z M 3.453125 0 "/>
</symbol>
<symbol overflow="visible" id="glyph0-11">
<path style="stroke:none;" d="M 3.890625 -4.609375 L 0.453125 -4.609375 L 0.453125 -3.96875 L 3.03125 -3.96875 L 0.265625 -0.65625 L 0.265625 0 L 4.015625 0 L 4.015625 -0.640625 L 1.15625 -0.640625 L 3.890625 -3.953125 Z M 3.890625 -4.609375 "/>
</symbol>
<symbol overflow="visible" id="glyph0-12">
<path style="stroke:none;" d="M 5.828125 -4.421875 C 5.5625 -5.828125 4.765625 -6.515625 3.359375 -6.515625 C 2.484375 -6.515625 1.796875 -6.25 1.3125 -5.71875 C 0.734375 -5.078125 0.421875 -4.171875 0.421875 -3.125 C 0.421875 -2.078125 0.75 -1.171875 1.34375 -0.546875 C 1.84375 -0.03125 2.484375 0.203125 3.3125 0.203125 C 4.875 0.203125 5.765625 -0.640625 5.953125 -2.34375 L 5.109375 -2.34375 C 5.046875 -1.90625 4.953125 -1.59375 4.828125 -1.34375 C 4.5625 -0.8125 4.015625 -0.515625 3.328125 -0.515625 C 2.046875 -0.515625 1.234375 -1.546875 1.234375 -3.140625 C 1.234375 -4.78125 2 -5.796875 3.25 -5.796875 C 3.78125 -5.796875 4.25 -5.640625 4.515625 -5.390625 C 4.765625 -5.171875 4.890625 -4.90625 4.984375 -4.421875 Z M 5.828125 -4.421875 "/>
</symbol>
<symbol overflow="visible" id="glyph0-13">
<path style="stroke:none;" d="M 0.609375 -4.609375 L 0.609375 0 L 1.359375 0 L 1.359375 -2.890625 C 1.359375 -3.5625 1.84375 -4.09375 2.4375 -4.09375 C 2.984375 -4.09375 3.296875 -3.765625 3.296875 -3.171875 L 3.296875 0 L 4.03125 0 L 4.03125 -2.890625 C 4.03125 -3.5625 4.515625 -4.09375 5.109375 -4.09375 C 5.640625 -4.09375 5.96875 -3.75 5.96875 -3.171875 L 5.96875 0 L 6.703125 0 L 6.703125 -3.453125 C 6.703125 -4.28125 6.234375 -4.734375 5.359375 -4.734375 C 4.75 -4.734375 4.375 -4.5625 3.953125 -4.03125 C 3.671875 -4.53125 3.3125 -4.734375 2.703125 -4.734375 C 2.09375 -4.734375 1.6875 -4.515625 1.296875 -3.953125 L 1.296875 -4.609375 Z M 0.609375 -4.609375 "/>
</symbol>
<symbol overflow="visible" id="glyph0-14">
<path style="stroke:none;" d="M 4.234375 0 L 4.234375 -4.609375 L 3.515625 -4.609375 L 3.515625 -2 C 3.515625 -1.0625 3.015625 -0.4375 2.25 -0.4375 C 1.671875 -0.4375 1.296875 -0.796875 1.296875 -1.34375 L 1.296875 -4.609375 L 0.578125 -4.609375 L 0.578125 -1.0625 C 0.578125 -0.296875 1.140625 0.203125 2.046875 0.203125 C 2.71875 0.203125 3.15625 -0.03125 3.578125 -0.640625 L 3.578125 0 Z M 4.234375 0 "/>
</symbol>
<symbol overflow="visible" id="glyph0-15">
<path style="stroke:none;" d="M 0.609375 -4.609375 L 0.609375 0 L 1.359375 0 L 1.359375 -2.546875 C 1.359375 -3.484375 1.84375 -4.09375 2.609375 -4.09375 C 3.1875 -4.09375 3.546875 -3.75 3.546875 -3.1875 L 3.546875 0 L 4.28125 0 L 4.28125 -3.484375 C 4.28125 -4.25 3.71875 -4.734375 2.828125 -4.734375 C 2.140625 -4.734375 1.703125 -4.484375 1.296875 -3.828125 L 1.296875 -4.609375 Z M 0.609375 -4.609375 "/>
</symbol>
<symbol overflow="visible" id="glyph0-16">
<path style="stroke:none;" d="M 2.421875 -6.359375 C 1.84375 -6.359375 1.3125 -6.09375 0.984375 -5.671875 C 0.578125 -5.109375 0.375 -4.25 0.375 -3.078125 C 0.375 -0.9375 1.078125 0.203125 2.421875 0.203125 C 3.734375 0.203125 4.453125 -0.9375 4.453125 -3.03125 C 4.453125 -4.25 4.265625 -5.078125 3.859375 -5.671875 C 3.53125 -6.109375 3.015625 -6.359375 2.421875 -6.359375 Z M 2.421875 -5.671875 C 3.25 -5.671875 3.671875 -4.828125 3.671875 -3.09375 C 3.671875 -1.28125 3.265625 -0.4375 2.40625 -0.4375 C 1.578125 -0.4375 1.171875 -1.3125 1.171875 -3.0625 C 1.171875 -4.828125 1.578125 -5.671875 2.421875 -5.671875 Z M 2.421875 -5.671875 "/>
</symbol>
<symbol overflow="visible" id="glyph0-17">
<path style="stroke:none;" d="M 4.453125 -0.765625 L 1.171875 -0.765625 C 1.25 -1.296875 1.53125 -1.625 2.296875 -2.09375 L 3.171875 -2.59375 C 4.046875 -3.0625 4.5 -3.71875 4.5 -4.5 C 4.5 -5.03125 4.28125 -5.53125 3.921875 -5.875 C 3.546875 -6.203125 3.09375 -6.359375 2.5 -6.359375 C 1.703125 -6.359375 1.125 -6.078125 0.78125 -5.53125 C 0.546875 -5.203125 0.453125 -4.796875 0.4375 -4.15625 L 1.21875 -4.15625 C 1.234375 -4.59375 1.296875 -4.84375 1.40625 -5.0625 C 1.59375 -5.4375 2 -5.6875 2.46875 -5.6875 C 3.171875 -5.6875 3.703125 -5.171875 3.703125 -4.484375 C 3.703125 -3.96875 3.40625 -3.53125 2.859375 -3.21875 L 2.046875 -2.75 C 0.75 -2 0.375 -1.40625 0.296875 -0.015625 L 4.453125 -0.015625 Z M 4.453125 -0.765625 "/>
</symbol>
<symbol overflow="visible" id="glyph0-18">
<path style="stroke:none;" d="M 2.875 -1.546875 L 2.875 0 L 3.65625 0 L 3.65625 -1.546875 L 4.578125 -1.546875 L 4.578125 -2.234375 L 3.65625 -2.234375 L 3.65625 -6.359375 L 3.078125 -6.359375 L 0.25 -2.359375 L 0.25 -1.546875 Z M 2.875 -2.234375 L 0.921875 -2.234375 L 2.875 -5.046875 Z M 2.875 -2.234375 "/>
</symbol>
<symbol overflow="visible" id="glyph1-0">
<path style="stroke:none;" d=""/>
</symbol>
<symbol overflow="visible" id="glyph1-1">
<path style="stroke:none;" d="M 2.03125 -3.40625 L 4.546875 -3.40625 C 5.171875 -3.40625 5.671875 -3.59375 6.09375 -3.96875 C 6.578125 -4.40625 6.78125 -4.921875 6.78125 -5.671875 C 6.78125 -7.171875 5.890625 -8.015625 4.3125 -8.015625 L 1 -8.015625 L 1 0 L 2.03125 0 Z M 2.03125 -4.296875 L 2.03125 -7.109375 L 4.15625 -7.109375 C 5.140625 -7.109375 5.71875 -6.59375 5.71875 -5.703125 C 5.71875 -4.828125 5.140625 -4.296875 4.15625 -4.296875 Z M 2.03125 -4.296875 "/>
</symbol>
<symbol overflow="visible" id="glyph1-2">
<path style="stroke:none;" d="M 5.296875 0 L 5.296875 -5.765625 L 4.390625 -5.765625 L 4.390625 -2.5 C 4.390625 -1.3125 3.765625 -0.546875 2.8125 -0.546875 C 2.09375 -0.546875 1.625 -0.984375 1.625 -1.6875 L 1.625 -5.765625 L 0.71875 -5.765625 L 0.71875 -1.3125 C 0.71875 -0.359375 1.4375 0.25 2.546875 0.25 C 3.40625 0.25 3.9375 -0.046875 4.484375 -0.796875 L 4.484375 0 Z M 5.296875 0 "/>
</symbol>
<symbol overflow="visible" id="glyph1-3">
<path style="stroke:none;" d="M 0.765625 -5.765625 L 0.765625 0 L 1.6875 0 L 1.6875 -3.171875 C 1.6875 -4.359375 2.3125 -5.125 3.25 -5.125 C 3.984375 -5.125 4.4375 -4.6875 4.4375 -4 L 4.4375 0 L 5.359375 0 L 5.359375 -4.359375 C 5.359375 -5.3125 4.640625 -5.921875 3.53125 -5.921875 C 2.671875 -5.921875 2.125 -5.59375 1.609375 -4.796875 L 1.609375 -5.765625 Z M 0.765625 -5.765625 "/>
</symbol>
<symbol overflow="visible" id="glyph1-4">
<path style="stroke:none;" d="M 2.796875 -5.765625 L 1.84375 -5.765625 L 1.84375 -7.34375 L 0.9375 -7.34375 L 0.9375 -5.765625 L 0.15625 -5.765625 L 0.15625 -5.015625 L 0.9375 -5.015625 L 0.9375 -0.65625 C 0.9375 -0.0625 1.328125 0.25 2.046875 0.25 C 2.28125 0.25 2.484375 0.234375 2.796875 0.171875 L 2.796875 -0.59375 C 2.65625 -0.5625 2.546875 -0.546875 2.359375 -0.546875 C 1.953125 -0.546875 1.84375 -0.65625 1.84375 -1.0625 L 1.84375 -5.015625 L 2.796875 -5.015625 Z M 2.796875 -5.765625 "/>
</symbol>
<symbol overflow="visible" id="glyph1-5">
<path style="stroke:none;" d="M 5.890625 -0.53125 C 5.78125 -0.515625 5.734375 -0.515625 5.6875 -0.515625 C 5.375 -0.515625 5.1875 -0.6875 5.1875 -0.96875 L 5.1875 -4.359375 C 5.1875 -5.375 4.4375 -5.921875 3.03125 -5.921875 C 2.171875 -5.921875 1.5 -5.6875 1.109375 -5.265625 C 0.84375 -4.96875 0.734375 -4.625 0.71875 -4.0625 L 1.640625 -4.0625 C 1.71875 -4.765625 2.140625 -5.078125 2.984375 -5.078125 C 3.828125 -5.078125 4.28125 -4.78125 4.28125 -4.21875 L 4.28125 -3.984375 C 4.265625 -3.59375 4.0625 -3.4375 3.328125 -3.34375 C 2.03125 -3.171875 1.828125 -3.140625 1.46875 -2.984375 C 0.796875 -2.703125 0.46875 -2.203125 0.46875 -1.453125 C 0.46875 -0.40625 1.1875 0.25 2.359375 0.25 C 3.078125 0.25 3.65625 0 4.3125 -0.59375 C 4.375 0 4.65625 0.25 5.265625 0.25 C 5.453125 0.25 5.578125 0.234375 5.890625 0.15625 Z M 4.28125 -1.8125 C 4.28125 -1.5 4.1875 -1.3125 3.921875 -1.0625 C 3.546875 -0.71875 3.09375 -0.546875 2.546875 -0.546875 C 1.84375 -0.546875 1.421875 -0.890625 1.421875 -1.46875 C 1.421875 -2.078125 1.8125 -2.390625 2.8125 -2.53125 C 3.78125 -2.65625 3.96875 -2.703125 4.28125 -2.84375 Z M 4.28125 -1.8125 "/>
</symbol>
<symbol overflow="visible" id="glyph1-6">
<path style="stroke:none;" d="M 0.765625 -5.765625 L 0.765625 0.84375 C 0.765625 1.40625 0.59375 1.59375 0.015625 1.59375 C -0.046875 1.59375 -0.078125 1.59375 -0.203125 1.578125 L -0.203125 2.359375 C -0.09375 2.390625 -0.03125 2.390625 0.109375 2.390625 C 1.140625 2.390625 1.6875 1.984375 1.6875 1.203125 L 1.6875 -5.765625 Z M 1.6875 -8.015625 L 0.765625 -8.015625 L 0.765625 -6.859375 L 1.6875 -6.859375 Z M 1.6875 -8.015625 "/>
</symbol>
<symbol overflow="visible" id="glyph1-7">
<path style="stroke:none;" d="M 5.640625 -2.578125 C 5.640625 -3.453125 5.578125 -3.984375 5.40625 -4.40625 C 5.03125 -5.359375 4.15625 -5.921875 3.078125 -5.921875 C 1.46875 -5.921875 0.4375 -4.703125 0.4375 -2.8125 C 0.4375 -0.90625 1.4375 0.25 3.0625 0.25 C 4.375 0.25 5.296875 -0.5 5.515625 -1.75 L 4.59375 -1.75 C 4.34375 -0.984375 3.828125 -0.59375 3.09375 -0.59375 C 2.515625 -0.59375 2.015625 -0.859375 1.703125 -1.34375 C 1.484375 -1.671875 1.40625 -2 1.390625 -2.578125 Z M 1.421875 -3.328125 C 1.5 -4.390625 2.140625 -5.078125 3.0625 -5.078125 C 4 -5.078125 4.65625 -4.359375 4.65625 -3.328125 Z M 1.421875 -3.328125 "/>
</symbol>
<symbol overflow="visible" id="glyph1-8">
<path style="stroke:none;" d=""/>
</symbol>
<symbol overflow="visible" id="glyph1-9">
<path style="stroke:none;" d="M 5.4375 -8.015625 L 4.53125 -8.015625 L 4.53125 -5.03125 C 4.140625 -5.625 3.53125 -5.921875 2.765625 -5.921875 C 1.265625 -5.921875 0.28125 -4.734375 0.28125 -2.890625 C 0.28125 -0.953125 1.234375 0.25 2.796875 0.25 C 3.59375 0.25 4.140625 -0.046875 4.625 -0.765625 L 4.625 0 L 5.4375 0 Z M 2.921875 -5.078125 C 3.90625 -5.078125 4.53125 -4.203125 4.53125 -2.8125 C 4.53125 -1.484375 3.890625 -0.609375 2.921875 -0.609375 C 1.90625 -0.609375 1.25 -1.5 1.25 -2.84375 C 1.25 -4.1875 1.90625 -5.078125 2.921875 -5.078125 Z M 2.921875 -5.078125 "/>
</symbol>
<symbol overflow="visible" id="glyph1-10">
<path style="stroke:none;" d="M 5.1875 -3.828125 C 5.140625 -4.390625 5.015625 -4.75 4.796875 -5.078125 C 4.40625 -5.609375 3.703125 -5.921875 2.90625 -5.921875 C 1.34375 -5.921875 0.34375 -4.703125 0.34375 -2.78125 C 0.34375 -0.921875 1.328125 0.25 2.890625 0.25 C 4.265625 0.25 5.140625 -0.578125 5.25 -1.984375 L 4.328125 -1.984375 C 4.171875 -1.0625 3.703125 -0.59375 2.921875 -0.59375 C 1.90625 -0.59375 1.296875 -1.421875 1.296875 -2.78125 C 1.296875 -4.21875 1.890625 -5.078125 2.890625 -5.078125 C 3.65625 -5.078125 4.140625 -4.625 4.25 -3.828125 Z M 5.1875 -3.828125 "/>
</symbol>
<symbol overflow="visible" id="glyph1-11">
<path style="stroke:none;" d="M 1.65625 -5.765625 L 0.734375 -5.765625 L 0.734375 0 L 1.65625 0 Z M 1.65625 -8.015625 L 0.71875 -8.015625 L 0.71875 -6.859375 L 1.65625 -6.859375 Z M 1.65625 -8.015625 "/>
</symbol>
<symbol overflow="visible" id="glyph1-12">
<path style="stroke:none;" d="M 3.140625 0 L 5.34375 -5.765625 L 4.3125 -5.765625 L 2.6875 -1.09375 L 1.140625 -5.765625 L 0.109375 -5.765625 L 2.140625 0 Z M 3.140625 0 "/>
</symbol>
<symbol overflow="visible" id="glyph1-13">
<path style="stroke:none;" d="M 2.984375 -5.921875 C 1.359375 -5.921875 0.390625 -4.78125 0.390625 -2.84375 C 0.390625 -0.890625 1.359375 0.25 3 0.25 C 4.625 0.25 5.609375 -0.90625 5.609375 -2.796875 C 5.609375 -4.796875 4.65625 -5.921875 2.984375 -5.921875 Z M 3 -5.078125 C 4.03125 -5.078125 4.65625 -4.234375 4.65625 -2.8125 C 4.65625 -1.4375 4.015625 -0.59375 3 -0.59375 C 1.984375 -0.59375 1.359375 -1.4375 1.359375 -2.84375 C 1.359375 -4.234375 1.984375 -5.078125 3 -5.078125 Z M 3 -5.078125 "/>
</symbol>
<symbol overflow="visible" id="glyph2-0">
<path style="stroke:none;" d=""/>
</symbol>
<symbol overflow="visible" id="glyph2-1">
<path style="stroke:none;" d="M -3.65625 -2.015625 L -3.65625 -5.84375 L -4.546875 -5.84375 L -4.546875 -2.015625 L -7.109375 -2.015625 L -7.109375 -6.375 L -8.015625 -6.375 L -8.015625 -0.984375 L 0 -0.984375 L 0 -2.015625 Z M -3.65625 -2.015625 "/>
</symbol>
<symbol overflow="visible" id="glyph2-2">
<path style="stroke:none;" d="M -5.765625 -0.765625 L 0 -0.765625 L 0 -1.6875 L -2.984375 -1.6875 C -4.375 -1.6875 -5 -2.265625 -4.96875 -3.53125 L -5.890625 -3.53125 C -5.921875 -3.375 -5.921875 -3.28125 -5.921875 -3.171875 C -5.921875 -2.578125 -5.578125 -2.140625 -4.71875 -1.609375 L -5.765625 -1.609375 Z M -5.765625 -0.765625 "/>
</symbol>
<symbol overflow="visible" id="glyph2-3">
<path style="stroke:none;" d="M -2.578125 -5.640625 C -3.453125 -5.640625 -3.984375 -5.578125 -4.40625 -5.40625 C -5.359375 -5.03125 -5.921875 -4.15625 -5.921875 -3.078125 C -5.921875 -1.46875 -4.703125 -0.4375 -2.8125 -0.4375 C -0.90625 -0.4375 0.25 -1.4375 0.25 -3.0625 C 0.25 -4.375 -0.5 -5.296875 -1.75 -5.515625 L -1.75 -4.59375 C -0.984375 -4.34375 -0.59375 -3.828125 -0.59375 -3.09375 C -0.59375 -2.515625 -0.859375 -2.015625 -1.34375 -1.703125 C -1.671875 -1.484375 -2 -1.40625 -2.578125 -1.390625 Z M -3.328125 -1.421875 C -4.390625 -1.5 -5.078125 -2.140625 -5.078125 -3.0625 C -5.078125 -4 -4.359375 -4.65625 -3.328125 -4.65625 Z M -3.328125 -1.421875 "/>
</symbol>
<symbol overflow="visible" id="glyph2-4">
<path style="stroke:none;" d="M -3.828125 -5.1875 C -4.390625 -5.140625 -4.75 -5.015625 -5.078125 -4.796875 C -5.609375 -4.40625 -5.921875 -3.703125 -5.921875 -2.90625 C -5.921875 -1.34375 -4.703125 -0.34375 -2.78125 -0.34375 C -0.921875 -0.34375 0.25 -1.328125 0.25 -2.890625 C 0.25 -4.265625 -0.578125 -5.140625 -1.984375 -5.25 L -1.984375 -4.328125 C -1.0625 -4.171875 -0.59375 -3.703125 -0.59375 -2.921875 C -0.59375 -1.90625 -1.421875 -1.296875 -2.78125 -1.296875 C -4.21875 -1.296875 -5.078125 -1.890625 -5.078125 -2.890625 C -5.078125 -3.65625 -4.625 -4.140625 -3.828125 -4.25 Z M -3.828125 -5.1875 "/>
</symbol>
<symbol overflow="visible" id="glyph2-5">
<path style="stroke:none;" d="M 0 -5.296875 L -5.765625 -5.296875 L -5.765625 -4.390625 L -2.5 -4.390625 C -1.3125 -4.390625 -0.546875 -3.765625 -0.546875 -2.8125 C -0.546875 -2.09375 -0.984375 -1.625 -1.6875 -1.625 L -5.765625 -1.625 L -5.765625 -0.71875 L -1.3125 -0.71875 C -0.359375 -0.71875 0.25 -1.4375 0.25 -2.546875 C 0.25 -3.40625 -0.046875 -3.9375 -0.796875 -4.484375 L 0 -4.484375 Z M 0 -5.296875 "/>
</symbol>
<symbol overflow="visible" id="glyph2-6">
<path style="stroke:none;" d="M -5.765625 -0.765625 L 0 -0.765625 L 0 -1.6875 L -3.171875 -1.6875 C -4.359375 -1.6875 -5.125 -2.3125 -5.125 -3.25 C -5.125 -3.984375 -4.6875 -4.4375 -4 -4.4375 L 0 -4.4375 L 0 -5.359375 L -4.359375 -5.359375 C -5.3125 -5.359375 -5.921875 -4.640625 -5.921875 -3.53125 C -5.921875 -2.671875 -5.59375 -2.125 -4.796875 -1.609375 L -5.765625 -1.609375 Z M -5.765625 -0.765625 "/>
</symbol>
<symbol overflow="visible" id="glyph2-7">
<path style="stroke:none;" d="M -5.765625 -1.65625 L -5.765625 -0.734375 L 0 -0.734375 L 0 -1.65625 Z M -8.015625 -1.65625 L -8.015625 -0.71875 L -6.859375 -0.71875 L -6.859375 -1.65625 Z M -8.015625 -1.65625 "/>
</symbol>
<symbol overflow="visible" id="glyph2-8">
<path style="stroke:none;" d="M -0.53125 -5.890625 C -0.515625 -5.78125 -0.515625 -5.734375 -0.515625 -5.6875 C -0.515625 -5.375 -0.6875 -5.1875 -0.96875 -5.1875 L -4.359375 -5.1875 C -5.375 -5.1875 -5.921875 -4.4375 -5.921875 -3.03125 C -5.921875 -2.171875 -5.6875 -1.5 -5.265625 -1.109375 C -4.96875 -0.84375 -4.625 -0.734375 -4.0625 -0.71875 L -4.0625 -1.640625 C -4.765625 -1.71875 -5.078125 -2.140625 -5.078125 -2.984375 C -5.078125 -3.828125 -4.78125 -4.28125 -4.21875 -4.28125 L -3.984375 -4.28125 C -3.59375 -4.265625 -3.4375 -4.0625 -3.34375 -3.328125 C -3.171875 -2.03125 -3.140625 -1.828125 -2.984375 -1.46875 C -2.703125 -0.796875 -2.203125 -0.46875 -1.453125 -0.46875 C -0.40625 -0.46875 0.25 -1.1875 0.25 -2.359375 C 0.25 -3.078125 0 -3.65625 -0.59375 -4.3125 C 0 -4.375 0.25 -4.65625 0.25 -5.265625 C 0.25 -5.453125 0.234375 -5.578125 0.15625 -5.890625 Z M -1.8125 -4.28125 C -1.5 -4.28125 -1.3125 -4.1875 -1.0625 -3.921875 C -0.71875 -3.546875 -0.546875 -3.09375 -0.546875 -2.546875 C -0.546875 -1.84375 -0.890625 -1.421875 -1.46875 -1.421875 C -2.078125 -1.421875 -2.390625 -1.8125 -2.53125 -2.8125 C -2.65625 -3.78125 -2.703125 -3.96875 -2.84375 -4.28125 Z M -1.8125 -4.28125 "/>
</symbol>
<symbol overflow="visible" id="glyph2-9">
<path style="stroke:none;" d=""/>
</symbol>
<symbol overflow="visible" id="glyph2-10">
<path style="stroke:none;" d="M -8.015625 -5.4375 L -8.015625 -4.53125 L -5.03125 -4.53125 C -5.625 -4.140625 -5.921875 -3.53125 -5.921875 -2.765625 C -5.921875 -1.265625 -4.734375 -0.28125 -2.890625 -0.28125 C -0.953125 -0.28125 0.25 -1.234375 0.25 -2.796875 C 0.25 -3.59375 -0.046875 -4.140625 -0.765625 -4.625 L 0 -4.625 L 0 -5.4375 Z M -5.078125 -2.921875 C -5.078125 -3.90625 -4.203125 -4.53125 -2.8125 -4.53125 C -1.484375 -4.53125 -0.609375 -3.890625 -0.609375 -2.921875 C -0.609375 -1.90625 -1.5 -1.25 -2.84375 -1.25 C -4.1875 -1.25 -5.078125 -1.90625 -5.078125 -2.921875 Z M -5.078125 -2.921875 "/>
</symbol>
<symbol overflow="visible" id="glyph2-11">
<path style="stroke:none;" d="M -8.015625 -1.671875 L -8.015625 -0.75 L 0 -0.75 L 0 -1.671875 Z M -8.015625 -1.671875 "/>
</symbol>
<symbol overflow="visible" id="glyph2-12">
<path style="stroke:none;" d="M -5.921875 -2.984375 C -5.921875 -1.359375 -4.78125 -0.390625 -2.84375 -0.390625 C -0.890625 -0.390625 0.25 -1.359375 0.25 -3 C 0.25 -4.625 -0.90625 -5.609375 -2.796875 -5.609375 C -4.796875 -5.609375 -5.921875 -4.65625 -5.921875 -2.984375 Z M -5.078125 -3 C -5.078125 -4.03125 -4.234375 -4.65625 -2.8125 -4.65625 C -1.4375 -4.65625 -0.59375 -4.015625 -0.59375 -3 C -0.59375 -1.984375 -1.4375 -1.359375 -2.84375 -1.359375 C -4.234375 -1.359375 -5.078125 -1.984375 -5.078125 -3 Z M -5.078125 -3 "/>
</symbol>
<symbol overflow="visible" id="glyph2-13">
<path style="stroke:none;" d="M -4.15625 -4.8125 C -5.296875 -4.8125 -5.921875 -4.0625 -5.921875 -2.734375 C -5.921875 -1.390625 -5.234375 -0.515625 -4.171875 -0.515625 C -3.265625 -0.515625 -2.84375 -0.984375 -2.515625 -2.34375 L -2.296875 -3.203125 C -2.140625 -3.84375 -1.90625 -4.09375 -1.5 -4.09375 C -0.953125 -4.09375 -0.59375 -3.546875 -0.59375 -2.75 C -0.59375 -2.25 -0.734375 -1.84375 -0.984375 -1.609375 C -1.140625 -1.46875 -1.3125 -1.390625 -1.71875 -1.34375 L -1.71875 -0.375 C -0.390625 -0.421875 0.25 -1.171875 0.25 -2.671875 C 0.25 -4.125 -0.46875 -5.046875 -1.578125 -5.046875 C -2.4375 -5.046875 -2.90625 -4.5625 -3.171875 -3.421875 L -3.390625 -2.546875 C -3.5625 -1.796875 -3.8125 -1.46875 -4.21875 -1.46875 C -4.75 -1.46875 -5.078125 -1.953125 -5.078125 -2.6875 C -5.078125 -3.4375 -4.765625 -3.828125 -4.15625 -3.84375 Z M -4.15625 -4.8125 "/>
</symbol>
<symbol overflow="visible" id="glyph2-14">
<path style="stroke:none;" d="M 2.390625 -0.59375 L 2.390625 -1.515625 L -0.609375 -1.515625 C -0.015625 -2 0.25 -2.546875 0.25 -3.28125 C 0.25 -4.78125 -0.953125 -5.75 -2.78125 -5.75 C -4.71875 -5.75 -5.921875 -4.8125 -5.921875 -3.28125 C -5.921875 -2.5 -5.578125 -1.875 -4.890625 -1.4375 L -5.765625 -1.4375 L -5.765625 -0.59375 Z M -5.078125 -3.125 C -5.078125 -4.140625 -4.1875 -4.796875 -2.8125 -4.796875 C -1.5 -4.796875 -0.609375 -4.125 -0.609375 -3.125 C -0.609375 -2.140625 -1.484375 -1.515625 -2.84375 -1.515625 C -4.1875 -1.515625 -5.078125 -2.140625 -5.078125 -3.125 Z M -5.078125 -3.125 "/>
</symbol>
<symbol overflow="visible" id="glyph2-15">
<path style="stroke:none;" d="M -5.765625 -2.796875 L -5.765625 -1.84375 L -7.34375 -1.84375 L -7.34375 -0.9375 L -5.765625 -0.9375 L -5.765625 -0.15625 L -5.015625 -0.15625 L -5.015625 -0.9375 L -0.65625 -0.9375 C -0.0625 -0.9375 0.25 -1.328125 0.25 -2.046875 C 0.25 -2.28125 0.234375 -2.484375 0.171875 -2.796875 L -0.59375 -2.796875 C -0.5625 -2.65625 -0.546875 -2.546875 -0.546875 -2.359375 C -0.546875 -1.953125 -0.65625 -1.84375 -1.0625 -1.84375 L -5.015625 -1.84375 L -5.015625 -2.796875 Z M -5.765625 -2.796875 "/>
</symbol>
<symbol overflow="visible" id="glyph2-16">
<path style="stroke:none;" d="M -5.765625 -0.765625 L 0.84375 -0.765625 C 1.40625 -0.765625 1.59375 -0.59375 1.59375 -0.015625 C 1.59375 0.046875 1.59375 0.078125 1.578125 0.203125 L 2.359375 0.203125 C 2.390625 0.09375 2.390625 0.03125 2.390625 -0.109375 C 2.390625 -1.140625 1.984375 -1.6875 1.203125 -1.6875 L -5.765625 -1.6875 Z M -8.015625 -1.6875 L -8.015625 -0.765625 L -6.859375 -0.765625 L -6.859375 -1.6875 Z M -8.015625 -1.6875 "/>
</symbol>
</g>
<clipPath id="clip1">
  <path d="M 92 23.246094 L 95 23.246094 L 95 93.925781 L 92 93.925781 Z M 92 23.246094 "/>
</clipPath>
<clipPath id="clip2">
  <path d="M 92 117.171875 L 95 117.171875 L 95 187.851562 L 92 187.851562 Z M 92 117.171875 "/>
</clipPath>
<clipPath id="clip3">
  <path d="M 320 23.246094 L 322 23.246094 L 322 93.925781 L 320 93.925781 Z M 320 23.246094 "/>
</clipPath>
<clipPath id="clip4">
  <path d="M 320 117.171875 L 322 117.171875 L 322 187.851562 L 320 187.851562 Z M 320 117.171875 "/>
</clipPath>
</defs>
<g id="surface547">
<rect x="0" y="0" width="486" height="222" style="fill:rgb(100%,100%,100%);fill-opacity:1;stroke:none;"/>
<rect x="0" y="0" width="486" height="222" style="fill:rgb(100%,100%,100%);fill-opacity:1;stroke:none;"/>
<path style="fill:none;stroke-width:1.066978;stroke-linecap:round;stroke-linejoin:round;stroke:rgb(100%,100%,100%);stroke-opacity:1;stroke-miterlimit:10;" d="M 0 222 L 486 222 L 486 0 L 0 0 Z M 0 222 "/>
<path style="fill:none;stroke-width:1.066978;stroke-linecap:butt;stroke-linejoin:round;stroke:rgb(0%,0%,0%);stroke-opacity:1;stroke-miterlimit:10;" d="M 40.507812 90.710938 L 68.585938 90.710938 L 68.984375 90.707031 L 69.378906 90.703125 L 69.773438 90.695312 L 70.171875 90.683594 L 70.566406 90.664062 L 70.960938 90.636719 L 71.355469 90.597656 L 71.753906 90.542969 L 72.148438 90.46875 L 72.542969 90.367188 L 72.9375 90.226562 L 73.335938 90.03125 L 73.730469 89.773438 L 74.125 89.429688 L 74.519531 88.980469 L 74.917969 88.382812 L 75.3125 87.601562 L 75.707031 86.570312 L 76.101562 85.214844 L 76.5 83.457031 L 76.894531 81.179688 L 77.289062 78.265625 L 77.683594 74.578125 L 78.082031 70.007812 L 78.476562 64.476562 L 78.871094 58.007812 L 79.265625 50.761719 L 79.664062 43.121094 L 80.058594 35.785156 L 80.453125 29.804688 L 80.847656 26.460938 L 81.246094 26.949219 L 81.640625 31.855469 L 82.035156 40.40625 L 82.429688 51.085938 L 82.828125 62.042969 L 83.222656 71.707031 L 83.617188 79.183594 L 84.011719 84.320312 L 84.410156 87.46875 L 84.804688 89.199219 L 85.199219 90.050781 L 85.59375 90.417969 L 85.992188 90.550781 L 86.386719 90.578125 L 86.78125 90.5625 L 87.175781 90.523438 L 87.574219 90.472656 L 87.96875 90.40625 L 88.363281 90.328125 L 88.757812 90.238281 L 89.15625 90.132812 L 89.550781 90.011719 L 89.945312 89.875 L 90.339844 89.714844 L 90.738281 89.53125 L 91.132812 89.324219 L 91.527344 89.09375 L 91.921875 88.847656 L 92.320312 88.597656 L 92.714844 88.359375 L 93.109375 88.152344 L 93.503906 87.996094 L 93.902344 87.914062 L 94.296875 87.921875 L 94.691406 88.039062 L 95.085938 88.273438 L 95.484375 88.605469 L 95.878906 89.011719 L 96.273438 89.433594 L 96.667969 89.824219 L 97.066406 90.144531 L 97.460938 90.378906 L 97.855469 90.53125 L 98.25 90.621094 L 98.648438 90.664062 L 99.042969 90.679688 L 99.4375 90.679688 L 99.832031 90.667969 L 100.230469 90.648438 L 100.625 90.621094 L 101.019531 90.585938 L 101.414062 90.535156 L 101.8125 90.46875 L 102.207031 90.382812 L 102.601562 90.269531 L 102.996094 90.136719 L 103.394531 89.976562 L 103.789062 89.792969 L 104.183594 89.582031 L 104.578125 89.347656 L 104.976562 89.085938 L 105.371094 88.789062 L 105.765625 88.46875 L 106.160156 88.125 L 106.558594 87.785156 L 106.953125 87.472656 L 107.347656 87.234375 L 107.742188 87.09375 L 108.140625 87.074219 L 108.535156 87.148438 L 108.929688 87.28125 L 109.324219 87.417969 L 109.722656 87.511719 L 110.117188 87.542969 L 110.511719 87.53125 L 110.910156 87.515625 L 111.304688 87.554688 L 111.699219 87.683594 L 112.09375 87.917969 L 112.492188 88.230469 L 112.886719 88.566406 L 113.28125 88.863281 L 113.675781 89.066406 L 114.074219 89.160156 L 114.46875 89.140625 L 114.863281 89.035156 L 115.257812 88.878906 L 115.65625 88.707031 L 116.050781 88.5625 L 116.445312 88.484375 L 116.839844 88.5 L 117.238281 88.601562 L 117.632812 88.773438 L 118.027344 88.96875 L 118.421875 89.148438 L 118.820312 89.277344 L 119.214844 89.34375 L 119.609375 89.347656 L 120.003906 89.308594 L 120.402344 89.242188 L 120.796875 89.167969 L 121.191406 89.101562 L 121.585938 89.050781 L 121.984375 89.023438 L 122.378906 89.019531 L 122.773438 89.046875 L 123.167969 89.105469 L 123.566406 89.199219 L 123.960938 89.335938 L 124.355469 89.503906 L 124.75 89.695312 L 125.148438 89.882812 L 125.542969 90.054688 L 125.9375 90.203125 L 126.332031 90.324219 L 126.730469 90.414062 L 127.125 90.472656 L 127.519531 90.511719 L 127.914062 90.527344 L 128.3125 90.527344 L 128.707031 90.523438 L 129.101562 90.511719 L 129.496094 90.503906 L 129.894531 90.492188 L 130.683594 90.46875 L 131.078125 90.453125 L 131.476562 90.4375 L 131.871094 90.410156 L 132.265625 90.378906 L 132.660156 90.335938 L 133.058594 90.28125 L 133.453125 90.210938 L 133.847656 90.125 L 134.242188 90.019531 L 134.640625 89.894531 L 135.035156 89.753906 L 135.429688 89.59375 L 135.824219 89.421875 L 136.222656 89.25 L 136.617188 89.089844 L 137.011719 88.949219 L 137.40625 88.855469 L 137.804688 88.824219 L 138.199219 88.875 L 138.59375 89.015625 L 138.988281 89.230469 L 139.386719 89.480469 L 139.78125 89.730469 L 140.175781 89.933594 L 140.570312 90.074219 L 140.96875 90.148438 L 141.363281 90.160156 L 141.757812 90.128906 L 142.152344 90.078125 L 142.550781 90.019531 L 142.945312 89.964844 L 143.339844 89.921875 L 143.734375 89.898438 L 144.132812 89.882812 L 144.527344 89.878906 L 145.316406 89.863281 L 145.714844 89.847656 L 146.503906 89.808594 L 146.898438 89.792969 L 147.296875 89.785156 L 147.691406 89.785156 L 148.085938 89.789062 L 148.480469 89.785156 L 148.878906 89.773438 L 149.273438 89.75 L 149.667969 89.722656 L 150.0625 89.699219 L 150.460938 89.6875 L 150.855469 89.691406 L 151.25 89.71875 L 151.644531 89.757812 L 152.042969 89.808594 L 152.832031 89.917969 L 153.230469 89.972656 L 154.414062 90.148438 L 154.8125 90.210938 L 155.207031 90.273438 L 155.601562 90.320312 L 155.996094 90.351562 L 156.394531 90.367188 L 156.789062 90.367188 L 157.183594 90.355469 L 157.578125 90.335938 L 157.976562 90.316406 L 158.371094 90.304688 L 158.765625 90.304688 L 159.160156 90.316406 L 159.558594 90.339844 L 159.953125 90.375 L 160.742188 90.453125 L 161.140625 90.488281 L 161.535156 90.519531 L 161.929688 90.546875 L 162.324219 90.566406 L 162.722656 90.582031 L 163.511719 90.597656 L 163.90625 90.597656 L 164.304688 90.59375 L 164.699219 90.589844 L 165.09375 90.582031 L 165.488281 90.570312 L 165.886719 90.558594 L 167.070312 90.523438 L 167.46875 90.507812 L 168.652344 90.472656 L 169.050781 90.460938 L 169.445312 90.445312 L 169.839844 90.425781 L 170.234375 90.398438 L 170.632812 90.363281 L 171.027344 90.324219 L 171.816406 90.238281 L 172.214844 90.199219 L 172.609375 90.171875 L 173.003906 90.15625 L 173.398438 90.164062 L 173.796875 90.191406 L 174.191406 90.238281 L 174.585938 90.296875 L 174.980469 90.359375 L 175.378906 90.417969 L 175.773438 90.460938 L 176.167969 90.488281 L 176.5625 90.5 L 176.960938 90.5 L 177.355469 90.496094 L 178.144531 90.472656 L 178.542969 90.453125 L 178.9375 90.4375 L 179.332031 90.417969 L 179.726562 90.402344 L 180.125 90.390625 L 180.519531 90.382812 L 180.914062 90.386719 L 181.308594 90.394531 L 181.707031 90.402344 L 182.101562 90.410156 L 182.496094 90.414062 L 182.890625 90.40625 L 183.289062 90.394531 L 183.683594 90.371094 L 184.078125 90.34375 L 184.472656 90.308594 L 184.871094 90.273438 L 185.265625 90.234375 L 186.054688 90.164062 L 186.453125 90.136719 L 186.847656 90.117188 L 187.242188 90.109375 L 187.636719 90.109375 L 188.035156 90.117188 L 188.429688 90.132812 L 188.824219 90.15625 L 189.21875 90.1875 L 189.617188 90.226562 L 190.011719 90.273438 L 190.800781 90.382812 L 191.199219 90.429688 L 191.59375 90.464844 L 191.988281 90.492188 L 192.382812 90.511719 L 192.78125 90.523438 L 193.175781 90.539062 L 193.570312 90.558594 L 193.96875 90.578125 L 194.757812 90.617188 L 195.152344 90.632812 L 195.550781 90.648438 L 196.734375 90.671875 L 197.132812 90.679688 L 197.527344 90.679688 L 197.921875 90.683594 L 198.316406 90.683594 L 198.714844 90.679688 L 199.109375 90.679688 L 199.503906 90.671875 L 199.898438 90.667969 L 200.296875 90.664062 L 201.480469 90.652344 L 201.878906 90.652344 L 203.0625 90.664062 L 203.460938 90.671875 L 204.644531 90.695312 L 205.042969 90.699219 L 205.832031 90.699219 L 206.226562 90.695312 L 206.625 90.691406 L 207.019531 90.6875 L 207.414062 90.6875 L 207.808594 90.683594 L 208.207031 90.683594 L 208.996094 90.675781 L 209.390625 90.667969 L 209.789062 90.65625 L 210.972656 90.609375 L 211.371094 90.59375 L 212.554688 90.535156 L 212.953125 90.515625 L 213.742188 90.484375 L 214.136719 90.472656 L 214.535156 90.457031 L 214.929688 90.445312 L 215.324219 90.4375 L 215.71875 90.4375 L 216.117188 90.445312 L 216.511719 90.464844 L 216.90625 90.5 L 217.300781 90.539062 L 217.699219 90.582031 L 218.09375 90.621094 L 218.488281 90.644531 L 218.882812 90.660156 L 219.28125 90.664062 L 219.675781 90.660156 L 220.070312 90.652344 L 220.464844 90.640625 L 220.863281 90.628906 L 221.652344 90.605469 L 222.046875 90.589844 L 222.445312 90.574219 L 222.839844 90.558594 L 223.234375 90.546875 L 223.628906 90.53125 L 224.027344 90.519531 L 224.816406 90.503906 L 225.210938 90.5 L 225.609375 90.496094 L 227.585938 90.496094 L 227.980469 90.5 L 228.375 90.507812 L 228.773438 90.519531 L 229.167969 90.535156 L 229.957031 90.574219 L 230.355469 90.597656 L 230.75 90.625 L 231.144531 90.648438 L 231.539062 90.667969 L 231.9375 90.683594 L 232.332031 90.695312 L 232.726562 90.703125 L 233.121094 90.707031 L 233.519531 90.710938 L 242.617188 90.710938 "/>
<g clip-path="url(#clip1)" clip-rule="nonzero">
<path style="fill:none;stroke-width:1.066978;stroke-linecap:butt;stroke-linejoin:round;stroke:rgb(0%,0%,0%);stroke-opacity:1;stroke-dasharray:1.066978,3.200935;stroke-miterlimit:10;" d="M 93.492188 93.925781 L 93.492188 23.246094 "/>
</g>
<path style="fill:none;stroke-width:1.066978;stroke-linecap:butt;stroke-linejoin:round;stroke:rgb(0%,0%,0%);stroke-opacity:1;stroke-miterlimit:10;" d="M 40.507812 184.636719 L 54.746094 184.636719 L 55.535156 184.628906 L 55.929688 184.621094 L 56.328125 184.609375 L 57.511719 184.574219 L 57.910156 184.566406 L 58.304688 184.5625 L 58.699219 184.554688 L 59.09375 184.550781 L 59.492188 184.542969 L 59.886719 184.53125 L 60.675781 184.5 L 61.074219 184.480469 L 61.46875 184.460938 L 61.863281 184.433594 L 62.257812 184.398438 L 62.65625 184.351562 L 63.050781 184.300781 L 63.445312 184.253906 L 63.839844 184.203125 L 64.238281 184.144531 L 64.632812 184.070312 L 65.027344 183.980469 L 65.421875 183.886719 L 65.820312 183.792969 L 66.214844 183.691406 L 66.609375 183.574219 L 67.003906 183.429688 L 67.402344 183.253906 L 67.796875 183.058594 L 68.191406 182.84375 L 68.585938 182.601562 L 68.984375 182.304688 L 69.378906 181.933594 L 69.773438 181.460938 L 70.171875 180.855469 L 70.566406 180.117188 L 70.960938 179.332031 L 71.355469 178.683594 L 71.753906 178.324219 L 72.148438 178.265625 L 72.542969 178.339844 L 72.9375 178.273438 L 73.335938 177.773438 L 73.730469 176.652344 L 74.125 175.128906 L 74.519531 173.867188 L 74.917969 173.539062 L 75.3125 174.269531 L 75.707031 175.585938 L 76.101562 176.886719 L 76.5 177.792969 L 76.894531 178.121094 L 77.289062 177.789062 L 77.683594 176.699219 L 78.082031 174.613281 L 78.476562 171.339844 L 78.871094 167.191406 L 79.265625 163.269531 L 79.664062 160.957031 L 80.058594 160.875 L 80.453125 162.242188 L 80.847656 162.980469 L 81.246094 160.199219 L 81.640625 151.582031 L 82.035156 138.0625 L 82.429688 125.308594 L 82.828125 120.777344 L 83.222656 127.757812 L 83.617188 142.652344 L 84.011719 158.496094 L 84.410156 170.351562 L 84.804688 177.269531 L 85.199219 180.628906 L 85.59375 182.070312 L 85.992188 182.644531 L 86.386719 182.859375 L 86.78125 182.929688 L 87.175781 182.933594 L 87.574219 182.890625 L 87.96875 182.78125 L 88.363281 182.621094 L 88.757812 182.488281 L 89.15625 182.449219 L 89.550781 182.5 L 89.945312 182.605469 L 90.339844 182.746094 L 90.738281 182.925781 L 91.132812 183.101562 L 91.527344 183.179688 L 91.921875 183.082031 L 92.320312 182.847656 L 92.714844 182.65625 L 93.109375 182.695312 L 93.503906 182.984375 L 93.902344 183.402344 L 94.296875 183.800781 L 94.691406 184.101562 L 95.085938 184.296875 L 95.484375 184.40625 L 95.878906 184.460938 L 96.273438 184.480469 L 96.667969 184.484375 L 97.066406 184.488281 L 97.460938 184.5 L 98.25 184.539062 L 98.648438 184.554688 L 99.042969 184.5625 L 99.4375 184.574219 L 99.832031 184.582031 L 100.230469 184.589844 L 100.625 184.597656 L 101.019531 184.609375 L 101.414062 184.613281 L 101.8125 184.617188 L 102.601562 184.609375 L 102.996094 184.601562 L 103.394531 184.597656 L 103.789062 184.59375 L 104.183594 184.59375 L 104.578125 184.589844 L 104.976562 184.578125 L 105.765625 184.554688 L 106.160156 184.539062 L 106.558594 184.527344 L 107.347656 184.503906 L 107.742188 184.484375 L 108.140625 184.453125 L 108.535156 184.417969 L 108.929688 184.378906 L 109.324219 184.347656 L 109.722656 184.316406 L 110.117188 184.285156 L 110.511719 184.246094 L 110.910156 184.207031 L 111.304688 184.164062 L 111.699219 184.117188 L 112.09375 184.066406 L 112.492188 184 L 112.886719 183.90625 L 113.28125 183.777344 L 113.675781 183.632812 L 114.074219 183.5 L 114.46875 183.402344 L 114.863281 183.34375 L 115.257812 183.308594 L 115.65625 183.285156 L 116.050781 183.242188 L 116.445312 183.152344 L 116.839844 183.011719 L 117.238281 182.851562 L 117.632812 182.722656 L 118.027344 182.671875 L 118.421875 182.695312 L 118.820312 182.777344 L 119.214844 182.878906 L 119.609375 182.960938 L 120.003906 182.980469 L 120.402344 182.90625 L 120.796875 182.703125 L 121.191406 182.359375 L 121.585938 181.886719 L 121.984375 181.375 L 122.378906 180.957031 L 122.773438 180.742188 L 123.167969 180.730469 L 123.566406 180.800781 L 123.960938 180.695312 L 124.355469 180.128906 L 124.75 179.015625 L 125.148438 177.710938 L 125.542969 176.929688 L 125.9375 177.195312 L 126.332031 178.410156 L 126.730469 179.988281 L 127.125 181.378906 L 127.519531 182.355469 L 127.914062 182.96875 L 128.3125 183.335938 L 128.707031 183.535156 L 129.101562 183.621094 L 129.496094 183.621094 L 129.894531 183.570312 L 130.289062 183.484375 L 130.683594 183.359375 L 131.078125 183.207031 L 131.476562 183.074219 L 131.871094 183.011719 L 132.265625 183.046875 L 132.660156 183.152344 L 133.058594 183.253906 L 133.453125 183.273438 L 133.847656 183.132812 L 134.242188 182.820312 L 134.640625 182.433594 L 135.035156 182.183594 L 135.429688 182.226562 L 135.824219 182.566406 L 136.222656 183.050781 L 136.617188 183.511719 L 137.011719 183.867188 L 137.40625 184.105469 L 137.804688 184.253906 L 138.199219 184.347656 L 138.59375 184.402344 L 138.988281 184.421875 L 139.386719 184.425781 L 140.175781 184.417969 L 140.570312 184.417969 L 140.96875 184.421875 L 141.363281 184.429688 L 142.152344 184.4375 L 142.550781 184.445312 L 142.945312 184.457031 L 143.339844 184.472656 L 143.734375 184.484375 L 144.132812 184.492188 L 144.527344 184.496094 L 144.921875 184.492188 L 145.316406 184.496094 L 145.714844 184.511719 L 146.898438 184.570312 L 147.296875 184.585938 L 147.691406 184.59375 L 148.085938 184.589844 L 148.480469 184.582031 L 148.878906 184.574219 L 149.273438 184.570312 L 150.0625 184.585938 L 150.460938 184.59375 L 150.855469 184.597656 L 152.042969 184.597656 L 152.4375 184.601562 L 153.230469 184.601562 L 153.625 184.597656 L 154.019531 184.585938 L 154.414062 184.570312 L 154.8125 184.558594 L 155.207031 184.546875 L 155.601562 184.546875 L 155.996094 184.558594 L 156.394531 184.574219 L 156.789062 184.585938 L 157.183594 184.589844 L 157.578125 184.582031 L 157.976562 184.566406 L 159.160156 184.496094 L 159.558594 184.476562 L 159.953125 184.457031 L 160.347656 184.445312 L 160.742188 184.429688 L 161.140625 184.417969 L 161.535156 184.40625 L 162.324219 184.375 L 162.722656 184.355469 L 163.117188 184.335938 L 163.90625 184.304688 L 164.304688 184.289062 L 164.699219 184.265625 L 165.09375 184.230469 L 165.488281 184.191406 L 165.886719 184.140625 L 166.28125 184.085938 L 166.675781 184.039062 L 167.070312 184.015625 L 167.46875 184.015625 L 167.863281 184.027344 L 168.257812 184.023438 L 168.652344 183.984375 L 169.050781 183.925781 L 169.445312 183.882812 L 169.839844 183.875 L 170.234375 183.910156 L 170.632812 183.964844 L 171.027344 184.019531 L 171.421875 184.058594 L 171.816406 184.078125 L 172.214844 184.082031 L 172.609375 184.074219 L 173.003906 184.054688 L 173.398438 184.015625 L 173.796875 183.964844 L 174.191406 183.902344 L 174.585938 183.835938 L 174.980469 183.773438 L 175.378906 183.71875 L 175.773438 183.683594 L 176.167969 183.644531 L 176.5625 183.574219 L 176.960938 183.441406 L 177.355469 183.277344 L 177.75 183.164062 L 178.144531 183.199219 L 178.542969 183.390625 L 178.9375 183.671875 L 179.332031 183.941406 L 179.726562 184.144531 L 180.125 184.269531 L 180.519531 184.339844 L 180.914062 184.363281 L 181.308594 184.363281 L 181.707031 184.351562 L 182.101562 184.347656 L 182.496094 184.359375 L 182.890625 184.382812 L 183.289062 184.414062 L 183.683594 184.445312 L 184.078125 184.472656 L 184.472656 184.480469 L 184.871094 184.476562 L 185.265625 184.460938 L 185.660156 184.441406 L 186.054688 184.429688 L 186.453125 184.425781 L 186.847656 184.421875 L 187.242188 184.414062 L 187.636719 184.410156 L 188.035156 184.417969 L 188.429688 184.441406 L 189.21875 184.527344 L 189.617188 184.5625 L 190.011719 184.582031 L 190.40625 184.597656 L 190.800781 184.605469 L 191.199219 184.609375 L 191.59375 184.613281 L 191.988281 184.613281 L 192.382812 184.617188 L 192.78125 184.617188 L 193.570312 184.625 L 193.96875 184.628906 L 194.363281 184.632812 L 194.757812 184.632812 L 195.152344 184.636719 L 195.945312 184.636719 L 196.339844 184.632812 L 196.734375 184.632812 L 197.132812 184.628906 L 200.296875 184.628906 L 200.691406 184.625 L 201.480469 184.609375 L 201.878906 184.601562 L 203.0625 184.578125 L 203.460938 184.566406 L 204.25 184.558594 L 204.644531 184.566406 L 205.042969 184.578125 L 205.4375 184.589844 L 205.832031 184.59375 L 206.226562 184.589844 L 206.625 184.582031 L 207.414062 184.566406 L 207.808594 184.5625 L 208.207031 184.566406 L 208.601562 184.574219 L 208.996094 184.578125 L 209.390625 184.574219 L 209.789062 184.558594 L 210.183594 184.535156 L 210.972656 184.464844 L 211.371094 184.4375 L 211.765625 184.421875 L 212.554688 184.421875 L 212.953125 184.425781 L 213.347656 184.421875 L 213.742188 184.421875 L 214.136719 184.425781 L 214.535156 184.425781 L 214.929688 184.421875 L 215.324219 184.421875 L 215.71875 184.417969 L 216.117188 184.410156 L 216.511719 184.394531 L 216.90625 184.367188 L 217.300781 184.332031 L 217.699219 184.296875 L 218.09375 184.277344 L 218.488281 184.277344 L 218.882812 184.289062 L 219.28125 184.3125 L 219.675781 184.339844 L 220.070312 184.359375 L 220.464844 184.367188 L 220.863281 184.34375 L 221.652344 184.257812 L 222.046875 184.234375 L 222.445312 184.246094 L 222.839844 184.289062 L 223.234375 184.351562 L 223.628906 184.417969 L 224.027344 184.472656 L 224.421875 184.507812 L 224.816406 184.523438 L 225.210938 184.519531 L 225.609375 184.515625 L 226.003906 184.511719 L 226.398438 184.515625 L 226.792969 184.523438 L 227.191406 184.53125 L 227.585938 184.542969 L 228.375 184.550781 L 228.773438 184.550781 L 229.167969 184.542969 L 229.957031 184.535156 L 232.332031 184.535156 L 232.726562 184.539062 L 233.121094 184.546875 L 233.519531 184.558594 L 234.308594 184.597656 L 234.707031 184.609375 L 235.101562 184.621094 L 235.496094 184.625 L 237.078125 184.625 L 237.472656 184.628906 L 237.871094 184.632812 L 238.265625 184.632812 L 238.660156 184.636719 L 242.617188 184.636719 "/>
<g clip-path="url(#clip2)" clip-rule="nonzero">
<path style="fill:none;stroke-width:1.066978;stroke-linecap:butt;stroke-linejoin:round;stroke:rgb(0%,0%,0%);stroke-opacity:1;stroke-dasharray:1.066978,3.200935;stroke-miterlimit:10;" d="M 93.492188 187.847656 L 93.492188 117.171875 "/>
</g>
<path style="fill:none;stroke-width:1.066978;stroke-linecap:butt;stroke-linejoin:round;stroke:rgb(0%,0%,0%);stroke-opacity:1;stroke-miterlimit:10;" d="M 268.304688 90.707031 L 269.886719 90.707031 L 270.285156 90.703125 L 270.679688 90.703125 L 271.074219 90.699219 L 271.46875 90.699219 L 271.867188 90.695312 L 272.261719 90.691406 L 272.65625 90.683594 L 273.050781 90.679688 L 273.449219 90.671875 L 274.632812 90.648438 L 275.03125 90.640625 L 275.425781 90.636719 L 276.214844 90.621094 L 276.613281 90.617188 L 277.007812 90.609375 L 277.402344 90.605469 L 277.796875 90.597656 L 278.195312 90.589844 L 278.984375 90.574219 L 279.378906 90.558594 L 279.777344 90.542969 L 280.171875 90.523438 L 280.960938 90.46875 L 281.359375 90.433594 L 281.753906 90.394531 L 282.148438 90.351562 L 282.542969 90.304688 L 282.941406 90.257812 L 283.335938 90.210938 L 283.730469 90.160156 L 284.125 90.113281 L 284.523438 90.066406 L 284.917969 90.023438 L 285.707031 89.929688 L 286.105469 89.882812 L 286.5 89.824219 L 286.894531 89.757812 L 287.289062 89.675781 L 287.6875 89.574219 L 288.082031 89.453125 L 288.476562 89.304688 L 288.871094 89.128906 L 289.269531 88.925781 L 289.664062 88.699219 L 290.058594 88.449219 L 290.453125 88.1875 L 290.851562 87.914062 L 291.246094 87.640625 L 291.640625 87.371094 L 292.035156 87.117188 L 292.433594 86.882812 L 292.828125 86.679688 L 293.222656 86.507812 L 293.617188 86.371094 L 294.015625 86.269531 L 294.410156 86.191406 L 294.804688 86.128906 L 295.199219 86.074219 L 295.597656 85.996094 L 295.992188 85.878906 L 296.386719 85.695312 L 296.78125 85.40625 L 297.179688 84.964844 L 297.574219 84.359375 L 297.96875 83.566406 L 298.363281 82.574219 L 298.761719 81.386719 L 299.15625 80.027344 L 299.550781 78.53125 L 299.945312 76.957031 L 300.34375 75.375 L 300.738281 73.867188 L 301.132812 72.53125 L 301.527344 71.472656 L 301.925781 70.75 L 302.320312 70.414062 L 302.714844 70.484375 L 303.109375 70.953125 L 303.507812 71.800781 L 303.902344 72.964844 L 304.296875 74.378906 L 304.695312 75.960938 L 305.484375 79.304688 L 305.878906 80.894531 L 306.277344 82.359375 L 306.671875 83.660156 L 307.066406 84.785156 L 307.460938 85.726562 L 307.859375 86.492188 L 308.253906 87.09375 L 308.648438 87.550781 L 309.042969 87.882812 L 309.441406 88.113281 L 309.835938 88.25 L 310.230469 88.324219 L 310.625 88.347656 L 311.023438 88.332031 L 311.417969 88.289062 L 311.8125 88.222656 L 312.207031 88.144531 L 312.605469 88.058594 L 313 87.972656 L 313.394531 87.882812 L 313.789062 87.800781 L 314.1875 87.71875 L 314.976562 87.570312 L 315.371094 87.492188 L 315.769531 87.414062 L 316.164062 87.320312 L 316.558594 87.214844 L 316.953125 87.085938 L 317.351562 86.933594 L 317.746094 86.75 L 318.140625 86.53125 L 318.535156 86.273438 L 318.933594 85.980469 L 319.328125 85.652344 L 319.722656 85.292969 L 320.117188 84.910156 L 320.515625 84.511719 L 320.910156 84.109375 L 321.304688 83.714844 L 321.699219 83.34375 L 322.097656 83.007812 L 322.492188 82.730469 L 322.886719 82.527344 L 323.28125 82.40625 L 323.679688 82.378906 L 324.074219 82.445312 L 324.46875 82.609375 L 324.863281 82.863281 L 325.261719 83.203125 L 325.65625 83.605469 L 326.050781 84.0625 L 326.445312 84.550781 L 326.84375 85.054688 L 327.238281 85.550781 L 327.632812 86.023438 L 328.027344 86.460938 L 328.425781 86.851562 L 328.820312 87.195312 L 329.214844 87.488281 L 329.609375 87.726562 L 330.007812 87.914062 L 330.402344 88.058594 L 330.796875 88.167969 L 331.191406 88.238281 L 331.589844 88.289062 L 331.984375 88.320312 L 332.378906 88.34375 L 332.773438 88.363281 L 333.171875 88.382812 L 333.566406 88.40625 L 333.960938 88.4375 L 334.355469 88.476562 L 334.753906 88.523438 L 335.148438 88.574219 L 335.542969 88.632812 L 335.9375 88.695312 L 336.335938 88.753906 L 336.730469 88.804688 L 337.125 88.851562 L 337.519531 88.890625 L 337.917969 88.914062 L 338.3125 88.921875 L 338.707031 88.917969 L 339.101562 88.898438 L 339.5 88.867188 L 339.894531 88.820312 L 340.289062 88.769531 L 340.683594 88.714844 L 341.082031 88.660156 L 341.476562 88.605469 L 341.871094 88.558594 L 342.265625 88.523438 L 342.664062 88.496094 L 343.058594 88.480469 L 343.453125 88.476562 L 343.847656 88.484375 L 344.246094 88.5 L 344.640625 88.519531 L 345.035156 88.546875 L 345.433594 88.578125 L 345.828125 88.609375 L 346.617188 88.679688 L 347.015625 88.710938 L 347.410156 88.746094 L 348.199219 88.808594 L 348.597656 88.839844 L 349.386719 88.894531 L 349.78125 88.914062 L 350.179688 88.929688 L 350.574219 88.9375 L 350.96875 88.941406 L 351.363281 88.941406 L 351.761719 88.933594 L 352.15625 88.917969 L 352.550781 88.90625 L 352.945312 88.890625 L 353.34375 88.875 L 353.738281 88.863281 L 354.132812 88.859375 L 354.527344 88.863281 L 354.925781 88.875 L 355.320312 88.898438 L 355.714844 88.933594 L 356.109375 88.976562 L 356.507812 89.027344 L 356.902344 89.089844 L 357.691406 89.230469 L 358.089844 89.304688 L 358.878906 89.453125 L 359.273438 89.519531 L 359.671875 89.582031 L 360.066406 89.636719 L 360.460938 89.683594 L 360.855469 89.722656 L 361.253906 89.75 L 361.648438 89.773438 L 362.042969 89.789062 L 362.4375 89.796875 L 362.835938 89.796875 L 363.625 89.789062 L 364.019531 89.777344 L 364.417969 89.765625 L 364.8125 89.757812 L 365.207031 89.746094 L 365.601562 89.738281 L 366 89.734375 L 366.394531 89.730469 L 366.789062 89.734375 L 367.183594 89.734375 L 367.582031 89.742188 L 368.765625 89.753906 L 369.164062 89.757812 L 369.558594 89.757812 L 369.953125 89.75 L 370.347656 89.746094 L 370.746094 89.734375 L 371.929688 89.6875 L 372.328125 89.667969 L 373.511719 89.621094 L 373.910156 89.609375 L 374.304688 89.597656 L 374.699219 89.589844 L 375.09375 89.585938 L 375.886719 89.585938 L 376.675781 89.601562 L 377.074219 89.609375 L 377.863281 89.640625 L 378.257812 89.660156 L 378.65625 89.679688 L 379.050781 89.703125 L 379.839844 89.757812 L 380.238281 89.785156 L 380.632812 89.8125 L 381.421875 89.875 L 381.820312 89.902344 L 382.214844 89.933594 L 382.609375 89.960938 L 383.003906 89.984375 L 383.402344 90.011719 L 383.796875 90.035156 L 384.585938 90.074219 L 384.984375 90.089844 L 385.378906 90.105469 L 385.773438 90.117188 L 386.171875 90.128906 L 386.960938 90.144531 L 387.355469 90.148438 L 387.753906 90.15625 L 388.9375 90.167969 L 389.335938 90.175781 L 390.519531 90.1875 L 390.917969 90.195312 L 391.3125 90.195312 L 391.707031 90.199219 L 392.5 90.199219 L 393.683594 90.1875 L 394.082031 90.183594 L 394.871094 90.167969 L 395.265625 90.164062 L 395.664062 90.15625 L 396.847656 90.15625 L 397.246094 90.164062 L 398.035156 90.179688 L 398.429688 90.191406 L 398.828125 90.203125 L 399.222656 90.214844 L 399.617188 90.230469 L 400.011719 90.242188 L 400.410156 90.253906 L 401.59375 90.289062 L 401.992188 90.300781 L 402.386719 90.308594 L 402.78125 90.320312 L 403.175781 90.328125 L 403.574219 90.335938 L 403.96875 90.347656 L 404.757812 90.363281 L 405.15625 90.375 L 405.550781 90.382812 L 405.945312 90.394531 L 406.339844 90.402344 L 406.738281 90.414062 L 407.132812 90.425781 L 407.527344 90.433594 L 407.921875 90.445312 L 408.320312 90.453125 L 408.714844 90.464844 L 409.503906 90.480469 L 409.902344 90.484375 L 410.296875 90.492188 L 410.691406 90.496094 L 411.085938 90.503906 L 411.484375 90.507812 L 411.878906 90.511719 L 412.273438 90.519531 L 412.667969 90.523438 L 413.066406 90.527344 L 414.25 90.539062 L 414.648438 90.542969 L 415.042969 90.542969 L 415.832031 90.550781 L 418.996094 90.550781 L 419.394531 90.546875 L 421.371094 90.546875 L 421.765625 90.550781 L 422.160156 90.550781 L 422.558594 90.554688 L 423.742188 90.566406 L 424.140625 90.570312 L 425.324219 90.582031 L 425.722656 90.585938 L 426.90625 90.597656 L 427.304688 90.601562 L 428.09375 90.609375 L 428.492188 90.609375 L 429.675781 90.621094 L 430.074219 90.621094 L 431.257812 90.632812 L 431.65625 90.636719 L 432.445312 90.644531 L 432.839844 90.644531 L 433.238281 90.648438 L 434.027344 90.65625 L 434.421875 90.65625 L 434.820312 90.660156 L 435.214844 90.660156 L 435.609375 90.664062 L 436.402344 90.664062 L 436.796875 90.667969 L 437.585938 90.667969 L 437.984375 90.671875 L 438.773438 90.671875 L 439.167969 90.675781 L 439.566406 90.675781 L 439.960938 90.679688 L 440.355469 90.679688 L 440.75 90.683594 L 441.148438 90.6875 L 441.542969 90.6875 L 441.9375 90.691406 L 442.332031 90.691406 L 442.730469 90.695312 L 443.519531 90.695312 L 443.914062 90.699219 L 445.496094 90.699219 L 445.894531 90.695312 L 447.078125 90.695312 L 447.476562 90.691406 L 449.453125 90.691406 L 449.847656 90.6875 L 450.242188 90.6875 L 450.640625 90.691406 L 452.222656 90.691406 L 452.617188 90.695312 L 453.011719 90.695312 L 453.40625 90.699219 L 454.199219 90.699219 L 454.59375 90.703125 L 455.386719 90.703125 L 455.78125 90.707031 L 456.96875 90.707031 L 457.363281 90.710938 L 470.414062 90.710938 "/>
<g clip-path="url(#clip3)" clip-rule="nonzero">
<path style="fill:none;stroke-width:1.066978;stroke-linecap:butt;stroke-linejoin:round;stroke:rgb(0%,0%,0%);stroke-opacity:1;stroke-dasharray:1.066978,3.200935;stroke-miterlimit:10;" d="M 321.292969 93.925781 L 321.292969 23.246094 "/>
</g>
<path style="fill:none;stroke-width:1.066978;stroke-linecap:butt;stroke-linejoin:round;stroke:rgb(0%,0%,0%);stroke-opacity:1;stroke-miterlimit:10;" d="M 268.304688 184.636719 L 269.097656 184.636719 L 269.492188 184.632812 L 269.886719 184.632812 L 270.285156 184.628906 L 270.679688 184.628906 L 271.46875 184.621094 L 271.867188 184.617188 L 272.261719 184.609375 L 273.050781 184.601562 L 273.449219 184.597656 L 273.84375 184.59375 L 274.238281 184.59375 L 274.632812 184.589844 L 275.03125 184.582031 L 275.425781 184.578125 L 276.214844 184.5625 L 276.613281 184.550781 L 277.402344 184.527344 L 277.796875 184.511719 L 278.195312 184.496094 L 278.589844 184.476562 L 278.984375 184.453125 L 279.378906 184.425781 L 279.777344 184.398438 L 280.171875 184.363281 L 280.566406 184.332031 L 280.960938 184.296875 L 281.359375 184.265625 L 281.753906 184.238281 L 282.148438 184.21875 L 282.542969 184.207031 L 282.941406 184.199219 L 283.335938 184.195312 L 283.730469 184.1875 L 284.125 184.167969 L 284.523438 184.132812 L 284.917969 184.074219 L 285.3125 183.980469 L 285.707031 183.855469 L 286.105469 183.6875 L 286.5 183.480469 L 286.894531 183.234375 L 287.289062 182.96875 L 287.6875 182.695312 L 288.082031 182.445312 L 288.476562 182.242188 L 288.871094 182.105469 L 289.269531 182.050781 L 289.664062 182.074219 L 290.058594 182.164062 L 290.453125 182.292969 L 290.851562 182.433594 L 291.246094 182.550781 L 291.640625 182.613281 L 292.035156 182.589844 L 292.433594 182.449219 L 292.828125 182.152344 L 293.222656 181.660156 L 293.617188 180.9375 L 294.015625 179.96875 L 294.410156 178.761719 L 294.804688 177.417969 L 295.199219 176.097656 L 295.597656 174.992188 L 295.992188 174.292969 L 296.386719 174.125 L 296.78125 174.507812 L 297.179688 175.34375 L 297.574219 176.464844 L 297.96875 177.6875 L 298.363281 178.851562 L 298.761719 179.855469 L 299.15625 180.660156 L 299.550781 181.269531 L 299.945312 181.707031 L 300.34375 182.003906 L 300.738281 182.175781 L 301.132812 182.234375 L 301.527344 182.183594 L 301.925781 182.015625 L 302.320312 181.75 L 302.714844 181.386719 L 303.109375 180.945312 L 303.507812 180.453125 L 303.902344 179.933594 L 304.296875 179.425781 L 304.695312 178.980469 L 305.089844 178.632812 L 305.484375 178.414062 L 305.878906 178.328125 L 306.277344 178.363281 L 306.671875 178.472656 L 307.066406 178.585938 L 307.460938 178.613281 L 307.859375 178.4375 L 308.253906 177.929688 L 308.648438 176.9375 L 309.042969 175.289062 L 309.441406 172.753906 L 309.835938 169.246094 L 310.230469 164.808594 L 310.625 159.71875 L 311.023438 154.519531 L 311.417969 149.984375 L 311.8125 146.914062 L 312.207031 145.921875 L 312.605469 147.230469 L 313 150.589844 L 313.394531 155.359375 L 313.789062 160.734375 L 314.1875 165.953125 L 314.582031 170.488281 L 314.976562 174.097656 L 315.371094 176.785156 L 315.769531 178.695312 L 316.164062 180.015625 L 316.558594 180.917969 L 316.953125 181.527344 L 317.351562 181.945312 L 317.746094 182.230469 L 318.140625 182.40625 L 318.535156 182.496094 L 318.933594 182.492188 L 319.328125 182.382812 L 319.722656 182.152344 L 320.117188 181.789062 L 320.515625 181.308594 L 320.910156 180.742188 L 321.304688 180.160156 L 321.699219 179.65625 L 322.097656 179.3125 L 322.492188 179.199219 L 322.886719 179.324219 L 323.28125 179.652344 L 323.679688 180.113281 L 324.074219 180.625 L 324.46875 181.117188 L 324.863281 181.5625 L 325.261719 181.960938 L 325.65625 182.316406 L 326.050781 182.644531 L 326.445312 182.945312 L 326.84375 183.207031 L 327.238281 183.433594 L 327.632812 183.613281 L 328.027344 183.75 L 328.425781 183.84375 L 328.820312 183.898438 L 329.214844 183.917969 L 329.609375 183.90625 L 330.007812 183.871094 L 330.402344 183.820312 L 330.796875 183.765625 L 331.191406 183.714844 L 331.589844 183.683594 L 331.984375 183.679688 L 332.378906 183.703125 L 332.773438 183.742188 L 333.171875 183.789062 L 333.566406 183.84375 L 334.355469 183.945312 L 334.753906 184 L 335.148438 184.050781 L 335.542969 184.105469 L 335.9375 184.164062 L 336.335938 184.214844 L 336.730469 184.261719 L 337.125 184.304688 L 337.519531 184.332031 L 337.917969 184.355469 L 338.3125 184.371094 L 338.707031 184.375 L 339.101562 184.375 L 339.5 184.367188 L 339.894531 184.355469 L 340.289062 184.339844 L 340.683594 184.328125 L 341.082031 184.3125 L 341.871094 184.296875 L 342.265625 184.296875 L 342.664062 184.300781 L 343.453125 184.300781 L 343.847656 184.296875 L 344.246094 184.289062 L 344.640625 184.285156 L 345.035156 184.277344 L 345.828125 184.277344 L 346.617188 184.292969 L 347.015625 184.304688 L 347.804688 184.328125 L 348.199219 184.335938 L 348.597656 184.34375 L 348.992188 184.347656 L 349.386719 184.34375 L 349.78125 184.328125 L 350.179688 184.304688 L 350.574219 184.265625 L 350.96875 184.214844 L 351.363281 184.152344 L 351.761719 184.078125 L 352.550781 183.921875 L 352.945312 183.859375 L 353.34375 183.8125 L 353.738281 183.789062 L 354.132812 183.792969 L 354.527344 183.816406 L 354.925781 183.855469 L 355.320312 183.898438 L 355.714844 183.945312 L 356.109375 183.988281 L 356.507812 184.019531 L 356.902344 184.042969 L 357.296875 184.050781 L 357.691406 184.039062 L 358.089844 184.007812 L 358.484375 183.957031 L 358.878906 183.878906 L 359.273438 183.785156 L 359.671875 183.671875 L 360.066406 183.550781 L 360.460938 183.4375 L 360.855469 183.34375 L 361.253906 183.28125 L 361.648438 183.253906 L 362.042969 183.269531 L 362.4375 183.320312 L 362.835938 183.386719 L 363.625 183.542969 L 364.019531 183.613281 L 364.417969 183.671875 L 364.8125 183.714844 L 365.207031 183.738281 L 365.601562 183.738281 L 366 183.707031 L 366.394531 183.652344 L 366.789062 183.5625 L 367.183594 183.445312 L 367.582031 183.304688 L 367.976562 183.144531 L 368.371094 182.980469 L 368.765625 182.835938 L 369.164062 182.734375 L 369.558594 182.6875 L 369.953125 182.707031 L 370.347656 182.777344 L 370.746094 182.886719 L 371.140625 183.015625 L 371.535156 183.136719 L 371.929688 183.238281 L 372.328125 183.308594 L 372.722656 183.339844 L 373.117188 183.332031 L 373.511719 183.273438 L 373.910156 183.160156 L 374.304688 182.980469 L 374.699219 182.734375 L 375.09375 182.417969 L 375.492188 182.046875 L 375.886719 181.652344 L 376.28125 181.28125 L 376.675781 181.003906 L 377.074219 180.875 L 377.46875 180.925781 L 377.863281 181.136719 L 378.257812 181.46875 L 378.65625 181.863281 L 379.050781 182.261719 L 379.445312 182.628906 L 379.839844 182.945312 L 380.238281 183.207031 L 380.632812 183.417969 L 381.027344 183.585938 L 381.421875 183.722656 L 381.820312 183.828125 L 382.214844 183.910156 L 382.609375 183.972656 L 383.003906 184.019531 L 383.402344 184.050781 L 383.796875 184.070312 L 384.191406 184.074219 L 384.585938 184.0625 L 384.984375 184.03125 L 385.378906 183.984375 L 385.773438 183.925781 L 386.171875 183.867188 L 386.566406 183.8125 L 386.960938 183.773438 L 387.355469 183.75 L 387.753906 183.75 L 388.148438 183.769531 L 388.542969 183.808594 L 388.9375 183.855469 L 389.335938 183.910156 L 389.730469 183.960938 L 390.125 184.015625 L 390.519531 184.066406 L 390.917969 184.113281 L 391.3125 184.160156 L 392.101562 184.238281 L 392.5 184.269531 L 393.289062 184.324219 L 393.683594 184.34375 L 394.082031 184.359375 L 394.476562 184.367188 L 394.871094 184.371094 L 395.265625 184.371094 L 395.664062 184.367188 L 396.453125 184.367188 L 396.847656 184.371094 L 397.246094 184.382812 L 397.640625 184.394531 L 398.035156 184.414062 L 398.429688 184.429688 L 398.828125 184.445312 L 400.011719 184.480469 L 400.410156 184.492188 L 400.804688 184.5 L 401.59375 184.523438 L 401.992188 184.53125 L 402.386719 184.539062 L 402.78125 184.550781 L 403.175781 184.558594 L 403.574219 184.5625 L 403.96875 184.570312 L 404.757812 184.578125 L 405.550781 184.578125 L 405.945312 184.574219 L 406.339844 184.574219 L 406.738281 184.570312 L 407.132812 184.570312 L 407.527344 184.574219 L 408.320312 184.574219 L 408.714844 184.578125 L 409.109375 184.578125 L 409.503906 184.582031 L 411.085938 184.582031 L 411.484375 184.578125 L 412.667969 184.578125 L 413.066406 184.582031 L 413.460938 184.582031 L 413.855469 184.589844 L 414.25 184.59375 L 415.042969 184.59375 L 415.832031 184.585938 L 416.230469 184.574219 L 416.625 184.5625 L 417.019531 184.546875 L 417.414062 184.535156 L 417.8125 184.519531 L 418.207031 184.511719 L 418.601562 184.507812 L 418.996094 184.507812 L 419.394531 184.515625 L 420.578125 184.539062 L 420.976562 184.542969 L 421.371094 184.546875 L 422.160156 184.546875 L 422.558594 184.542969 L 422.953125 184.539062 L 423.347656 184.539062 L 423.742188 184.535156 L 424.140625 184.535156 L 425.324219 184.523438 L 425.722656 184.515625 L 426.117188 184.511719 L 426.90625 184.496094 L 427.304688 184.492188 L 427.699219 184.480469 L 428.09375 184.472656 L 428.492188 184.460938 L 428.886719 184.449219 L 429.28125 184.441406 L 429.675781 184.429688 L 430.074219 184.417969 L 430.863281 184.378906 L 431.257812 184.347656 L 431.65625 184.308594 L 432.050781 184.261719 L 432.839844 184.152344 L 433.238281 184.101562 L 433.632812 184.066406 L 434.027344 184.042969 L 434.421875 184.042969 L 434.820312 184.066406 L 435.214844 184.105469 L 435.609375 184.152344 L 436.003906 184.203125 L 436.402344 184.25 L 436.796875 184.292969 L 437.191406 184.328125 L 437.585938 184.355469 L 437.984375 184.378906 L 438.378906 184.398438 L 439.167969 184.429688 L 439.566406 184.441406 L 439.960938 184.453125 L 440.75 184.46875 L 441.148438 184.476562 L 441.9375 184.484375 L 442.332031 184.484375 L 442.730469 184.480469 L 443.519531 184.472656 L 443.914062 184.464844 L 444.3125 184.464844 L 444.707031 184.46875 L 445.101562 184.480469 L 445.496094 184.488281 L 445.894531 184.503906 L 446.289062 184.511719 L 446.683594 184.523438 L 447.078125 184.53125 L 447.476562 184.535156 L 447.871094 184.542969 L 448.265625 184.546875 L 448.660156 184.554688 L 449.058594 184.5625 L 449.453125 184.566406 L 449.847656 184.574219 L 450.242188 184.578125 L 450.640625 184.582031 L 451.035156 184.585938 L 452.617188 184.585938 L 453.40625 184.578125 L 453.804688 184.574219 L 454.199219 184.574219 L 454.59375 184.570312 L 456.175781 184.570312 L 456.570312 184.574219 L 456.96875 184.574219 L 458.152344 184.585938 L 458.550781 184.589844 L 459.734375 184.601562 L 460.132812 184.605469 L 460.527344 184.609375 L 461.714844 184.609375 L 462.109375 184.605469 L 462.503906 184.605469 L 462.898438 184.601562 L 465.667969 184.601562 L 466.0625 184.605469 L 466.855469 184.605469 L 467.644531 184.613281 L 468.042969 184.617188 L 468.832031 184.625 L 469.230469 184.625 L 469.625 184.628906 L 470.019531 184.628906 L 470.414062 184.632812 "/>
<g clip-path="url(#clip4)" clip-rule="nonzero">
<path style="fill:none;stroke-width:1.066978;stroke-linecap:butt;stroke-linejoin:round;stroke:rgb(0%,0%,0%);stroke-opacity:1;stroke-dasharray:1.066978,3.200935;stroke-miterlimit:10;" d="M 321.292969 187.847656 L 321.292969 117.171875 "/>
</g>
<g style="fill:rgb(10.196078%,10.196078%,10.196078%);fill-opacity:1;">
  <use xlink:href="#glyph0-1" x="123.5625" y="111.204102"/>
  <use xlink:href="#glyph0-2" x="129.5625" y="111.204102"/>
  <use xlink:href="#glyph0-3" x="134.5625" y="111.204102"/>
  <use xlink:href="#glyph0-4" x="137.5625" y="111.204102"/>
  <use xlink:href="#glyph0-5" x="139.5625" y="111.204102"/>
  <use xlink:href="#glyph0-6" x="141.5625" y="111.204102"/>
  <use xlink:href="#glyph0-5" x="146.5625" y="111.204102"/>
  <use xlink:href="#glyph0-7" x="148.5625" y="111.204102"/>
  <use xlink:href="#glyph0-4" x="152.5625" y="111.204102"/>
  <use xlink:href="#glyph0-2" x="154.5625" y="111.204102"/>
</g>
<g style="fill:rgb(10.196078%,10.196078%,10.196078%);fill-opacity:1;">
  <use xlink:href="#glyph0-1" x="353.359375" y="111.204102"/>
  <use xlink:href="#glyph0-3" x="359.359375" y="111.204102"/>
  <use xlink:href="#glyph0-8" x="362.359375" y="111.204102"/>
  <use xlink:href="#glyph0-4" x="367.359375" y="111.204102"/>
  <use xlink:href="#glyph0-9" x="369.359375" y="111.204102"/>
  <use xlink:href="#glyph0-7" x="374.359375" y="111.204102"/>
  <use xlink:href="#glyph0-4" x="378.359375" y="111.204102"/>
  <use xlink:href="#glyph0-2" x="380.359375" y="111.204102"/>
</g>
<g style="fill:rgb(10.196078%,10.196078%,10.196078%);fill-opacity:1;">
  <use xlink:href="#glyph0-10" x="134.5625" y="17.27832"/>
  <use xlink:href="#glyph0-8" x="139.5625" y="17.27832"/>
  <use xlink:href="#glyph0-11" x="144.5625" y="17.27832"/>
</g>
<g style="fill:rgb(10.196078%,10.196078%,10.196078%);fill-opacity:1;">
  <use xlink:href="#glyph0-12" x="345.859375" y="17.27832"/>
  <use xlink:href="#glyph0-8" x="351.859375" y="17.27832"/>
  <use xlink:href="#glyph0-13" x="356.859375" y="17.27832"/>
  <use xlink:href="#glyph0-14" x="363.859375" y="17.27832"/>
  <use xlink:href="#glyph0-15" x="368.859375" y="17.27832"/>
  <use xlink:href="#glyph0-5" x="373.859375" y="17.27832"/>
  <use xlink:href="#glyph0-4" x="375.859375" y="17.27832"/>
  <use xlink:href="#glyph0-2" x="377.859375" y="17.27832"/>
  <use xlink:href="#glyph0-3" x="382.859375" y="17.27832"/>
  <use xlink:href="#glyph0-5" x="385.859375" y="17.27832"/>
  <use xlink:href="#glyph0-2" x="387.859375" y="17.27832"/>
</g>
<path style="fill:none;stroke-width:1.066978;stroke-linecap:butt;stroke-linejoin:round;stroke:rgb(20%,20%,20%);stroke-opacity:1;stroke-miterlimit:10;" d="M 93.492188 190.589844 L 93.492188 187.847656 "/>
<path style="fill:none;stroke-width:1.066978;stroke-linecap:butt;stroke-linejoin:round;stroke:rgb(20%,20%,20%);stroke-opacity:1;stroke-miterlimit:10;" d="M 158.742188 190.589844 L 158.742188 187.847656 "/>
<path style="fill:none;stroke-width:1.066978;stroke-linecap:butt;stroke-linejoin:round;stroke:rgb(20%,20%,20%);stroke-opacity:1;stroke-miterlimit:10;" d="M 223.988281 190.589844 L 223.988281 187.847656 "/>
<g style="fill:rgb(30.196078%,30.196078%,30.196078%);fill-opacity:1;">
  <use xlink:href="#glyph0-16" x="90.992188" y="199.196289"/>
</g>
<g style="fill:rgb(30.196078%,30.196078%,30.196078%);fill-opacity:1;">
  <use xlink:href="#glyph0-17" x="156.242188" y="199.196289"/>
</g>
<g style="fill:rgb(30.196078%,30.196078%,30.196078%);fill-opacity:1;">
  <use xlink:href="#glyph0-18" x="221.488281" y="199.196289"/>
</g>
<path style="fill:none;stroke-width:1.066978;stroke-linecap:butt;stroke-linejoin:round;stroke:rgb(20%,20%,20%);stroke-opacity:1;stroke-miterlimit:10;" d="M 321.292969 190.589844 L 321.292969 187.847656 "/>
<path style="fill:none;stroke-width:1.066978;stroke-linecap:butt;stroke-linejoin:round;stroke:rgb(20%,20%,20%);stroke-opacity:1;stroke-miterlimit:10;" d="M 386.539062 190.589844 L 386.539062 187.847656 "/>
<path style="fill:none;stroke-width:1.066978;stroke-linecap:butt;stroke-linejoin:round;stroke:rgb(20%,20%,20%);stroke-opacity:1;stroke-miterlimit:10;" d="M 451.789062 190.589844 L 451.789062 187.847656 "/>
<g style="fill:rgb(30.196078%,30.196078%,30.196078%);fill-opacity:1;">
  <use xlink:href="#glyph0-16" x="318.792969" y="199.196289"/>
</g>
<g style="fill:rgb(30.196078%,30.196078%,30.196078%);fill-opacity:1;">
  <use xlink:href="#glyph0-17" x="384.039062" y="199.196289"/>
</g>
<g style="fill:rgb(30.196078%,30.196078%,30.196078%);fill-opacity:1;">
  <use xlink:href="#glyph0-18" x="449.289062" y="199.196289"/>
</g>
<g style="fill:rgb(30.196078%,30.196078%,30.196078%);fill-opacity:1;">
  <use xlink:href="#glyph0-16" x="20.46875" y="93.625977"/>
</g>
<g style="fill:rgb(30.196078%,30.196078%,30.196078%);fill-opacity:1;">
  <use xlink:href="#glyph0-17" x="20.46875" y="70.485352"/>
</g>
<g style="fill:rgb(30.196078%,30.196078%,30.196078%);fill-opacity:1;">
  <use xlink:href="#glyph0-18" x="20.46875" y="47.344727"/>
</g>
<path style="fill:none;stroke-width:1.066978;stroke-linecap:butt;stroke-linejoin:round;stroke:rgb(20%,20%,20%);stroke-opacity:1;stroke-miterlimit:10;" d="M 27.660156 90.710938 L 30.402344 90.710938 "/>
<path style="fill:none;stroke-width:1.066978;stroke-linecap:butt;stroke-linejoin:round;stroke:rgb(20%,20%,20%);stroke-opacity:1;stroke-miterlimit:10;" d="M 27.660156 67.570312 L 30.402344 67.570312 "/>
<path style="fill:none;stroke-width:1.066978;stroke-linecap:butt;stroke-linejoin:round;stroke:rgb(20%,20%,20%);stroke-opacity:1;stroke-miterlimit:10;" d="M 27.660156 44.429688 L 30.402344 44.429688 "/>
<g style="fill:rgb(30.196078%,30.196078%,30.196078%);fill-opacity:1;">
  <use xlink:href="#glyph0-16" x="20.46875" y="187.551758"/>
</g>
<g style="fill:rgb(30.196078%,30.196078%,30.196078%);fill-opacity:1;">
  <use xlink:href="#glyph0-17" x="20.46875" y="164.411133"/>
</g>
<g style="fill:rgb(30.196078%,30.196078%,30.196078%);fill-opacity:1;">
  <use xlink:href="#glyph0-18" x="20.46875" y="141.270508"/>
</g>
<path style="fill:none;stroke-width:1.066978;stroke-linecap:butt;stroke-linejoin:round;stroke:rgb(20%,20%,20%);stroke-opacity:1;stroke-miterlimit:10;" d="M 27.660156 184.636719 L 30.402344 184.636719 "/>
<path style="fill:none;stroke-width:1.066978;stroke-linecap:butt;stroke-linejoin:round;stroke:rgb(20%,20%,20%);stroke-opacity:1;stroke-miterlimit:10;" d="M 27.660156 161.496094 L 30.402344 161.496094 "/>
<path style="fill:none;stroke-width:1.066978;stroke-linecap:butt;stroke-linejoin:round;stroke:rgb(20%,20%,20%);stroke-opacity:1;stroke-miterlimit:10;" d="M 27.660156 138.355469 L 30.402344 138.355469 "/>
<g style="fill:rgb(0%,0%,0%);fill-opacity:1;">
  <use xlink:href="#glyph1-1" x="194.460938" y="212.538086"/>
  <use xlink:href="#glyph1-2" x="201.460938" y="212.538086"/>
  <use xlink:href="#glyph1-3" x="207.460938" y="212.538086"/>
  <use xlink:href="#glyph1-4" x="213.460938" y="212.538086"/>
  <use xlink:href="#glyph1-5" x="216.460938" y="212.538086"/>
  <use xlink:href="#glyph1-6" x="222.460938" y="212.538086"/>
  <use xlink:href="#glyph1-7" x="224.460938" y="212.538086"/>
  <use xlink:href="#glyph1-8" x="230.460938" y="212.538086"/>
  <use xlink:href="#glyph1-9" x="233.460938" y="212.538086"/>
  <use xlink:href="#glyph1-7" x="239.460938" y="212.538086"/>
  <use xlink:href="#glyph1-8" x="245.460938" y="212.538086"/>
  <use xlink:href="#glyph1-10" x="248.460938" y="212.538086"/>
  <use xlink:href="#glyph1-5" x="254.460938" y="212.538086"/>
  <use xlink:href="#glyph1-9" x="260.460938" y="212.538086"/>
  <use xlink:href="#glyph1-5" x="266.460938" y="212.538086"/>
  <use xlink:href="#glyph1-8" x="272.460938" y="212.538086"/>
  <use xlink:href="#glyph1-11" x="275.460938" y="212.538086"/>
  <use xlink:href="#glyph1-3" x="277.460938" y="212.538086"/>
  <use xlink:href="#glyph1-9" x="283.460938" y="212.538086"/>
  <use xlink:href="#glyph1-11" x="289.460938" y="212.538086"/>
  <use xlink:href="#glyph1-12" x="291.460938" y="212.538086"/>
  <use xlink:href="#glyph1-11" x="296.460938" y="212.538086"/>
  <use xlink:href="#glyph1-9" x="298.460938" y="212.538086"/>
  <use xlink:href="#glyph1-2" x="304.460938" y="212.538086"/>
  <use xlink:href="#glyph1-13" x="310.460938" y="212.538086"/>
</g>
<g style="fill:rgb(0%,0%,0%);fill-opacity:1;">
  <use xlink:href="#glyph2-1" x="13.499023" y="169.046875"/>
  <use xlink:href="#glyph2-2" x="13.499023" y="163.046875"/>
  <use xlink:href="#glyph2-3" x="13.499023" y="159.046875"/>
  <use xlink:href="#glyph2-4" x="13.499023" y="153.046875"/>
  <use xlink:href="#glyph2-5" x="13.499023" y="147.046875"/>
  <use xlink:href="#glyph2-3" x="13.499023" y="141.046875"/>
  <use xlink:href="#glyph2-6" x="13.499023" y="135.046875"/>
  <use xlink:href="#glyph2-4" x="13.499023" y="129.046875"/>
  <use xlink:href="#glyph2-7" x="13.499023" y="124.046875"/>
  <use xlink:href="#glyph2-8" x="13.499023" y="122.046875"/>
  <use xlink:href="#glyph2-9" x="13.499023" y="116.046875"/>
  <use xlink:href="#glyph2-10" x="13.499023" y="113.046875"/>
  <use xlink:href="#glyph2-3" x="13.499023" y="107.046875"/>
  <use xlink:href="#glyph2-9" x="13.499023" y="101.046875"/>
  <use xlink:href="#glyph2-11" x="13.499023" y="98.046875"/>
  <use xlink:href="#glyph2-12" x="13.499023" y="96.046875"/>
  <use xlink:href="#glyph2-13" x="13.499023" y="90.046875"/>
  <use xlink:href="#glyph2-9" x="13.499023" y="85.046875"/>
  <use xlink:href="#glyph2-14" x="13.499023" y="82.046875"/>
  <use xlink:href="#glyph2-5" x="13.499023" y="76.046875"/>
  <use xlink:href="#glyph2-6" x="13.499023" y="70.046875"/>
  <use xlink:href="#glyph2-15" x="13.499023" y="64.046875"/>
  <use xlink:href="#glyph2-8" x="13.499023" y="61.046875"/>
  <use xlink:href="#glyph2-16" x="13.499023" y="55.046875"/>
  <use xlink:href="#glyph2-3" x="13.499023" y="53.046875"/>
  <use xlink:href="#glyph2-13" x="13.499023" y="47.046875"/>
</g>
</g>
</svg>
