variable,voz_min,voz,voz_max,comu_min,comu,comu_max,partd_min,part,partd_max,prot_min,prot,prot_max
Hombre,0.93,0.99,1.06,0.71,0.75,0.80,1.25,1.34,1.44,1.24,1.33,1.43
Edad,1.06,1.11,1.15,0.97,1.01,1.05,0.93,0.97,1.01,0.81,0.85,0.89
Ed_Primaria,1.12,1.34,1.61,1.13,1.34,1.58,0.81,0.99,1.22,0.83,1.04,1.31
Ed_Secundaria,1.08,1.31,1.58,1.09,1.3,1.54,0.94,1.16,1.43,1.14,1.43,1.79
Ed_Universitaria,1.35,1.65,2.03,1.12,1.36,1.64,1.26,1.57,1.96,2.67,3.39,4.31
Ing_Bajo/Mediano,0.73,0.81,0.89,0.93,1.02,1.11,0.75,0.83,0.92,0.86,0.96,1.08
Ing_Mediano/Alto,0.67,0.74,0.83,0.93,1.02,1.13,0.71,0.79,0.89,1.03,1.15,1.29
Ing_Alto,0.54,0.61,0.70,0.82,0.92,1.04,0.85,0.98,1.13,1.30,1.49,1.71
Protestante,1.05,1.21,1.41,0.84,0.97,1.11,0.91,1.07,1.26,1.07,1.24,1.45
Sin_religión,0.87,0.98,1.11,0.89,1,1.12,0.91,1.04,1.18,1.04,1.17,1.32
Evangélica_Pentecostal,1.10,1.21,1.33,1.06,1.16,1.27,1.00,1.11,1.23,0.97,1.08,1.20
Otra_religión,0.87,1.05,1.26,0.92,1.09,1.30,1.09,1.32,1.60,1.23,1.46,1.74
Et_Mestiza,1.07,1.17,1.28,0.92,1,1.08,0.98,1.08,1.18,0.88,0.97,1.06
Et_Indigena,1.37,1.6,1.88,1.26,1.47,1.70,1.09,1.3,1.56,1.18,1.39,1.65
Et_Negra,0.81,0.97,1.16,0.80,0.94,1.10,1.10,1.31,1.55,0.84,1.01,1.21
Et_Mulata,0.84,1.01,1.21,0.69,0.82,0.98,1.01,1.21,1.44,0.93,1.12,1.35
Otra_etn,1.04,1.37,1.79,0.77,1,1.30,0.97,1.3,1.74,0.88,1.18,1.58
Simpatizar_partido,1.32,1.42,1.53,1.17,1.25,1.35,3.06,3.32,3.59,1.50,1.62,1.76
Ind_confianza,1.03,1.07,1.11,1.06,1.09,1.13,1.03,1.06,1.11,0.91,0.95,0.98
Votar,1.39,1.53,1.68,1.56,1.69,1.84,1.71,1.89,2.10,0.89,0.98,1.07
PIB,0.85,0.93,1.01,0.78,0.89,1.02,0.85,1.01,1.19,0.80,0.91,1.03
PIB_ppc,0.74,0.85,0.97,0.49,0.61,0.76,0.71,0.93,1.22,0.71,0.87,1.06
log_pob,0.92,1.02,1.12,0.81,0.94,1.09,0.85,1.03,1.24,0.74,0.86,0.98
pob_urb,0.92,1.1,1.33,0.86,1.15,1.53,0.72,1.04,1.50,0.93,1.22,1.60
part_elect,0.75,0.88,1.04,0.84,1.09,1.41,0.88,1.21,1.69,0.57,0.73,0.93
Corrupción,0.98,1.11,1.25,0.74,0.89,1.07,0.68,0.86,1.08,0.87,1.03,1.22
tas_hom,0.89,1,1.11,0.73,0.87,1.03,0.83,1.03,1.29,0.68,0.81,0.95
pob_indg,0.92,1.03,1.15,0.92,1.09,1.29,0.67,0.83,1.03,1.10,1.29,1.51
v_oblg_san,0.83,1.07,1.39,0.44,0.66,0.99,0.41,0.69,1.15,0.98,1.43,2.08
