pais,cp2,cp4a,cp4,np1,np2,cp5,cp6,cp7,cp8,cp9,cp13,cp21,prot3,prot8,vic44,vb2,pp1,pp2
13,2,2,2,2,2,2,1,2,2,2,2,2,2,2,2,1,1,2
13,2,2,2,2,1,2,2,2,2,2,2,2,2,2,2,1,2,2
13,2,1,2,2,1,2,2,1,1,1,2,2,NA,NA,1,1,1,2
13,1,1,1,1,1,1,1,1,1,2,2,2,1,2,2,1,2,2
13,2,2,2,2,2,2,1,2,1,2,2,2,2,2,2,2,2,2
13,2,1,2,1,2,2,1,2,1,1,2,2,2,2,1,1,1,2
13,2,2,2,2,2,2,2,2,2,2,2,2,2,2,2,1,2,2
13,2,2,2,2,2,2,2,2,2,2,2,2,2,2,2,1,2,2
13,2,1,2,2,2,2,1,1,2,2,2,2,2,2,2,2,1,2
13,2,1,2,2,1,1,2,1,1,NA,2,2,2,2,2,1,2,2
13,2,2,2,2,2,2,2,2,2,2,2,2,2,2,2,1,2,2
13,2,2,2,1,2,2,2,2,1,2,2,2,NA,2,2,1,2,2
13,2,2,2,2,2,2,2,2,2,2,2,2,2,2,2,1,2,2
13,2,2,2,2,2,1,1,2,1,2,2,2,2,2,2,1,2,2
13,2,1,2,2,1,2,2,2,2,2,2,2,2,2,2,1,1,2
13,2,1,2,2,2,2,2,2,2,2,2,2,2,2,2,2,2,2
13,2,1,1,2,1,1,1,2,1,2,2,2,2,2,NA,1,2,2
13,2,2,2,2,2,2,2,2,2,2,2,2,2,2,2,2,2,2
13,2,2,2,2,2,2,1,2,1,2,2,2,2,2,2,1,2,2
13,2,2,1,2,2,2,2,2,1,2,2,2,2,2,2,1,2,2
13,2,2,2,2,2,2,2,2,2,2,2,2,2,2,2,1,2,2
13,2,2,2,2,2,2,NA,2,2,2,2,2,2,2,2,1,NA,2
13,2,2,2,2,2,2,2,2,2,2,2,2,2,2,2,2,2,2
13,2,2,2,2,2,2,2,2,2,2,2,2,2,2,2,1,2,2
13,2,2,2,2,2,2,2,2,2,2,2,2,2,2,2,1,2,2
13,2,2,2,2,2,1,2,2,1,2,2,2,2,2,2,1,2,2
13,2,1,2,2,2,2,2,2,1,1,2,2,2,2,2,2,2,2
13,2,2,2,2,2,2,2,2,2,2,2,2,2,NA,2,1,2,2
13,2,2,2,2,2,2,2,2,2,2,2,2,2,2,2,1,2,2
13,2,2,2,2,2,1,1,1,2,2,2,2,2,2,2,1,2,2
13,2,2,2,2,1,2,1,2,2,2,2,2,2,2,2,1,2,2
13,2,2,2,2,2,2,2,2,2,2,2,2,2,2,1,1,2,2
13,2,2,2,2,2,NA,1,2,2,2,2,2,2,2,2,1,2,2
13,2,1,2,2,1,2,1,2,1,2,2,2,2,2,2,1,2,2
13,2,1,2,2,2,2,1,1,2,2,2,2,2,2,2,1,1,2
13,2,2,2,2,2,2,2,2,2,2,2,2,2,2,2,1,2,2
13,2,2,2,2,2,2,2,2,2,2,2,2,2,2,2,1,2,2
13,2,2,2,2,2,2,1,2,2,2,2,2,2,2,2,1,2,2
13,2,1,2,2,1,2,1,2,1,1,2,2,2,2,2,1,2,2
13,2,1,2,2,2,2,2,2,1,2,2,2,2,2,2,1,1,1
13,2,2,2,2,2,2,2,1,2,2,2,2,2,2,2,1,2,2
13,2,2,2,2,2,2,2,2,2,2,2,1,2,2,2,2,1,1
13,2,2,2,2,2,2,2,2,2,2,2,2,2,2,2,1,2,2
13,2,2,2,2,2,2,1,1,1,2,2,2,2,2,2,1,2,2
13,2,2,2,2,2,2,2,1,1,2,2,2,2,2,2,2,2,2
13,2,1,2,2,1,2,2,2,2,1,1,2,2,2,2,1,1,2
13,2,2,2,2,2,2,2,1,2,2,2,2,2,2,2,1,2,2
13,2,1,2,2,1,2,2,1,2,2,2,2,2,2,2,2,2,2
13,2,1,2,2,2,2,2,1,2,2,2,2,2,2,2,1,1,2
13,2,1,2,2,1,2,2,2,2,2,2,2,2,2,2,1,2,2
13,2,2,2,2,2,2,1,2,2,2,2,2,2,2,2,2,2,2
13,2,2,2,2,2,2,1,2,2,2,2,2,2,2,2,1,2,2
13,2,2,2,2,2,2,2,2,2,2,2,2,2,2,2,1,2,2
13,2,2,2,2,2,2,1,2,2,2,2,2,2,2,2,1,2,2
13,1,1,1,2,2,2,1,2,2,2,2,2,2,2,2,1,1,2
13,2,2,2,2,2,2,1,1,2,2,2,2,2,2,2,1,2,2
13,2,2,2,2,2,2,2,2,2,2,2,2,2,2,2,1,2,2
13,2,2,2,2,1,2,1,1,2,2,2,2,2,2,2,1,1,2
13,2,1,2,2,1,2,2,2,2,2,2,2,2,2,2,NA,2,2
13,2,2,2,2,2,2,2,2,2,2,2,1,2,2,2,1,2,2
13,2,2,2,2,2,2,2,2,2,2,2,2,2,2,2,1,2,2
13,2,2,2,1,1,2,2,1,1,2,2,2,2,2,1,2,2,2
13,2,2,1,2,2,2,1,2,2,1,2,2,2,2,2,1,2,2
13,2,2,2,2,2,2,1,2,2,2,2,2,2,2,2,1,2,2
13,2,2,2,2,2,2,2,1,2,2,2,2,2,2,2,1,2,2
13,2,1,2,2,1,2,1,2,2,2,2,2,2,2,2,1,2,2
13,2,2,2,2,2,2,2,2,1,2,2,2,2,2,2,1,2,2
13,2,1,2,2,1,2,1,1,2,2,2,2,2,2,2,1,1,2
13,2,2,2,2,2,2,1,2,2,2,2,2,2,2,1,1,2,2
13,2,2,2,2,2,2,2,2,2,2,2,2,2,2,2,2,2,2
13,2,2,2,2,1,2,1,1,2,2,2,2,2,NA,2,1,2,2
13,1,1,2,2,2,2,2,2,2,2,2,2,2,2,2,1,2,2
13,2,2,2,2,2,2,1,2,2,2,2,2,2,2,2,1,2,2
13,2,1,NA,2,NA,1,1,1,2,2,2,2,2,NA,2,1,NA,2
13,2,2,2,2,2,2,2,2,2,2,2,2,2,2,2,1,2,2
13,2,2,2,2,2,1,2,2,2,2,2,2,2,2,2,1,2,2
13,2,2,2,2,2,2,2,2,2,2,2,2,2,2,2,1,2,2
13,2,2,2,2,2,2,2,2,2,2,2,2,2,2,2,1,2,2
13,2,2,2,2,2,2,2,2,2,2,2,2,2,2,2,1,2,2
13,2,2,2,2,2,2,2,1,2,2,2,2,2,2,2,2,2,2
13,2,2,2,2,2,2,1,2,2,2,2,2,2,2,2,1,2,2
13,2,2,2,2,2,2,2,2,2,2,2,2,2,2,2,1,1,2
13,1,1,2,2,2,1,2,2,2,2,2,2,2,2,2,1,1,2
13,2,2,2,2,2,2,2,2,2,2,2,2,2,2,2,1,2,2
13,2,1,2,2,1,2,2,1,1,2,2,2,2,2,2,2,2,2
13,2,2,2,2,2,1,2,1,1,2,2,2,2,2,2,1,1,2
13,2,2,2,2,2,2,2,2,2,2,2,2,2,2,2,1,2,2
13,2,2,2,2,2,2,1,1,2,2,2,2,2,2,2,2,NA,2
13,2,2,2,2,2,2,2,1,2,2,2,2,1,2,2,2,2,2
13,2,2,2,1,2,2,2,2,1,2,2,2,2,2,2,1,1,2
13,2,2,2,2,2,2,2,2,2,2,2,2,2,2,2,1,2,2
13,2,1,2,2,2,1,2,2,2,2,2,1,2,2,2,1,2,2
13,2,2,2,2,2,2,2,2,2,2,2,2,2,2,2,1,2,2
13,2,2,2,2,2,NA,1,2,2,2,2,2,NA,2,2,1,2,2
13,2,2,2,2,2,2,1,2,2,2,2,2,2,2,2,1,2,2
13,2,1,2,2,2,2,2,1,1,2,2,2,2,2,2,2,2,2
13,2,2,2,2,2,2,2,2,2,2,2,2,2,2,2,1,2,2
13,2,2,2,2,2,2,2,2,2,2,2,2,2,2,2,1,NA,NA
13,2,2,2,2,2,2,1,2,2,2,2,2,2,2,2,1,2,2
13,2,1,2,NA,1,2,1,2,2,2,2,2,2,2,2,1,2,2
13,2,2,2,2,2,1,2,2,2,2,2,2,2,2,2,1,2,2
13,2,2,1,2,2,2,1,1,2,2,2,2,2,2,2,2,1,2
13,2,1,2,2,2,2,1,2,2,2,2,2,2,2,2,1,2,2
13,2,2,2,2,2,2,1,2,1,2,2,2,2,2,2,1,2,2
13,2,2,2,2,2,2,1,2,2,2,2,2,2,2,2,1,1,2
13,2,2,2,1,1,2,1,1,1,2,2,2,2,2,2,1,2,2
13,2,2,2,2,2,2,2,2,2,2,2,2,2,2,2,2,2,2
13,2,2,1,2,2,2,2,2,2,2,2,2,2,2,2,1,2,2
13,2,1,1,1,2,2,1,1,2,2,2,1,2,2,2,1,1,2
13,2,2,2,2,2,2,2,1,2,2,2,2,2,2,2,2,2,2
13,2,2,2,2,2,2,2,2,2,2,2,2,2,2,2,1,2,2
13,2,2,2,2,2,1,2,1,2,2,2,2,NA,2,2,1,2,2
13,2,2,2,2,2,2,2,2,2,2,2,2,2,2,2,1,2,2
13,1,1,2,2,2,2,2,2,2,2,2,2,2,2,2,2,2,2
13,2,2,2,1,1,1,1,2,1,1,2,1,2,2,2,1,2,1
13,2,2,2,2,2,2,2,2,2,2,2,2,2,2,2,1,2,2
13,2,2,2,2,2,2,2,2,2,2,2,2,1,2,2,1,2,2
13,2,1,1,2,2,2,2,2,2,2,2,2,2,2,2,1,2,2
13,2,1,2,2,2,1,1,2,1,1,2,2,2,2,2,1,2,2
13,2,2,2,2,2,2,2,2,2,2,2,2,2,2,2,2,2,2
13,2,2,2,2,2,1,2,1,2,2,2,1,2,2,2,1,2,2
13,2,2,2,2,2,1,1,1,2,2,2,2,2,2,2,1,1,2
13,2,2,2,2,2,2,1,2,1,2,2,2,2,2,2,1,2,2
13,2,2,2,2,1,2,2,1,1,1,2,2,2,2,2,1,2,2
13,2,2,2,2,2,2,2,1,2,2,2,2,2,2,2,1,2,2
13,2,2,2,2,2,2,2,2,2,1,2,2,2,2,2,1,2,2
13,2,2,2,2,2,1,2,2,2,2,2,2,2,2,2,1,2,2
13,2,2,2,2,2,1,2,1,2,2,2,2,2,2,2,1,2,2
13,2,2,2,2,2,2,2,2,2,2,2,2,2,2,2,2,2,2
13,2,1,2,2,2,2,1,2,2,2,2,2,2,2,2,1,1,2
13,2,2,2,2,1,2,1,1,2,2,2,1,2,2,2,1,2,2
13,2,2,2,2,2,2,2,2,2,2,2,2,2,2,2,1,2,2
13,2,2,2,2,2,NA,1,2,2,2,2,1,2,2,2,1,2,2
13,2,2,2,2,2,2,1,2,2,2,2,2,2,2,2,1,2,2
13,2,1,2,2,1,2,2,2,1,1,2,2,2,NA,2,1,2,2
13,2,1,2,2,1,2,2,2,2,2,2,2,2,2,2,1,2,2
13,2,2,2,2,2,2,1,2,2,2,2,2,2,2,2,2,2,2
13,2,2,2,2,2,2,1,2,2,2,2,2,2,2,2,1,2,2
13,2,1,1,1,1,2,2,2,1,1,2,2,2,2,2,1,2,1
13,2,2,2,2,2,2,2,2,2,2,2,2,2,2,2,1,2,2
13,2,2,2,2,2,2,2,2,2,2,2,2,2,2,2,1,2,2
13,2,2,2,2,2,1,1,2,1,2,2,2,2,2,2,1,2,2
13,2,1,2,2,1,1,2,1,2,1,2,2,1,2,2,1,2,2
13,2,2,2,2,2,2,2,2,2,2,2,1,2,2,2,2,2,2
13,2,2,2,2,2,2,1,2,2,2,2,2,2,2,2,1,2,2
13,2,2,2,2,2,2,2,2,2,2,2,2,2,2,2,2,2,2
13,2,2,2,2,2,2,2,2,2,2,2,2,2,2,2,2,2,2
13,2,1,2,1,1,1,2,2,1,2,2,2,2,2,2,1,2,2
13,2,2,2,2,2,1,2,2,2,1,2,2,2,2,2,1,2,2
13,2,2,2,2,2,2,1,1,2,2,2,2,2,2,2,1,2,2
13,2,2,2,2,2,2,2,2,2,2,2,2,2,2,2,1,2,2
13,2,2,2,2,2,2,1,2,2,2,2,2,2,2,2,1,2,2
13,2,2,2,2,2,2,2,2,2,2,2,2,2,2,2,2,2,2
13,2,2,2,2,2,2,2,2,2,2,2,2,2,2,2,1,2,2
13,2,2,2,2,2,2,2,2,2,2,2,2,2,2,2,2,2,2
13,2,2,2,2,2,2,2,2,2,2,2,2,2,2,2,1,2,2
13,2,2,2,2,2,2,2,2,2,2,2,2,2,2,2,1,2,2
13,2,2,2,2,2,2,2,2,2,2,2,2,2,2,2,1,2,2
13,2,2,2,2,2,2,1,1,2,2,2,2,2,2,2,1,2,2
13,2,2,2,2,2,2,1,1,2,2,2,2,2,2,2,1,2,2
13,2,2,2,2,2,2,2,2,2,2,2,2,2,2,2,1,1,2
13,2,2,2,2,2,2,1,1,2,2,2,2,2,2,2,1,NA,2
13,2,2,2,2,2,2,2,2,2,2,2,2,2,2,2,2,NA,2
13,2,2,2,2,2,2,1,2,2,2,2,2,2,2,2,1,2,2
13,2,2,2,2,2,2,2,2,2,2,2,2,2,2,2,1,2,2
13,2,2,2,2,2,1,2,2,2,2,2,2,2,2,2,2,2,2
13,2,2,2,2,2,1,2,2,2,2,2,2,2,2,2,1,2,2
13,2,1,2,2,1,2,2,1,2,2,2,2,2,2,2,1,2,2
13,2,2,2,2,2,1,1,2,1,2,2,2,2,2,1,1,2,2
13,NA,1,2,2,2,2,1,1,2,1,2,1,2,2,2,1,2,2
13,2,2,2,2,2,2,2,1,2,2,2,2,2,2,2,1,2,2
13,2,2,2,2,2,2,1,1,2,2,2,2,2,2,2,1,2,2
13,2,2,2,2,2,2,2,2,2,2,2,2,2,2,2,1,2,2
13,2,2,2,2,2,2,2,2,1,2,2,2,2,2,2,1,2,2
13,2,2,2,2,2,2,2,2,2,2,2,2,2,2,2,1,2,2
13,2,2,2,2,2,2,2,2,2,2,2,2,2,2,2,1,2,2
13,2,1,2,2,2,2,2,1,1,2,2,2,2,2,2,1,2,2
13,2,2,2,2,2,2,2,2,2,2,2,2,2,2,2,1,1,2
13,2,1,2,2,2,2,2,1,2,2,2,2,2,2,2,1,2,2
13,2,2,2,2,2,2,2,2,2,2,2,2,2,2,2,1,2,2
13,2,2,2,2,2,2,2,1,2,2,2,2,2,2,2,1,2,2
13,2,2,2,2,2,2,2,2,2,2,2,2,2,2,2,1,2,2
13,2,2,2,2,2,1,2,2,2,2,2,2,2,2,2,1,2,2
13,2,2,2,2,2,2,2,2,2,2,2,2,2,2,2,1,2,2
13,2,2,2,2,2,2,1,1,2,2,2,2,2,2,2,1,2,2
13,2,2,2,2,2,2,2,2,2,1,2,2,2,2,1,1,2,2
13,2,2,2,2,2,2,2,2,2,2,2,2,2,2,2,1,2,2
13,2,2,2,2,2,2,1,2,2,2,2,2,2,2,2,1,1,NA
13,2,2,2,2,1,2,2,2,2,2,2,2,2,2,2,1,2,2
13,2,2,2,2,2,2,2,2,1,1,2,2,2,2,2,1,2,2
13,2,2,2,2,2,2,2,2,2,2,2,2,2,1,2,2,2,2
13,2,2,2,2,2,2,2,1,2,2,2,2,2,2,2,1,2,2
13,2,2,2,1,1,1,1,1,1,2,2,2,2,2,2,1,2,2
13,2,1,2,2,2,2,2,1,2,2,2,2,2,1,2,1,2,2
13,2,1,2,2,2,2,2,1,2,2,2,2,2,2,2,2,1,2
13,2,1,2,2,1,2,1,1,1,1,2,1,2,2,2,NA,2,2
13,2,1,1,2,1,2,2,2,2,2,2,2,2,2,2,2,2,2
13,2,2,2,2,2,2,2,1,2,2,2,2,2,2,2,2,2,2
13,2,2,2,2,2,2,2,2,2,2,2,2,2,2,2,1,2,2
13,2,2,2,2,2,2,2,2,2,2,2,2,2,2,2,2,2,2
13,1,1,2,2,1,2,1,1,1,2,2,2,2,1,2,1,2,2
13,2,1,2,2,2,2,2,1,2,2,2,2,2,2,2,1,2,2
13,2,2,2,1,2,1,1,1,1,1,1,1,2,2,2,1,2,2
13,2,2,2,2,2,2,2,2,2,2,2,2,2,2,2,1,2,2
13,2,2,2,2,2,2,2,2,2,2,2,2,2,2,2,2,2,2
13,2,2,2,2,2,2,1,2,2,2,2,2,2,2,2,1,2,2
13,2,2,2,2,2,2,2,2,2,2,2,2,2,2,2,1,1,2
13,2,2,2,2,2,2,2,1,2,2,2,2,2,2,2,2,1,2
13,2,2,2,2,2,2,2,2,2,2,2,2,2,2,2,1,2,2
13,2,2,2,2,2,2,2,2,2,2,2,2,2,2,2,2,2,1
13,2,2,2,2,2,1,2,2,2,2,2,2,2,2,2,2,2,2
13,2,2,2,2,2,2,2,2,2,2,2,2,2,2,2,1,2,2
13,2,2,2,2,2,2,2,2,1,2,2,2,2,2,2,1,2,2
13,2,2,2,2,2,2,2,1,2,2,2,2,2,2,2,1,2,2
13,2,2,2,2,2,2,2,1,2,2,2,2,2,2,2,1,2,2
13,2,2,2,2,2,2,2,2,2,2,2,2,2,2,2,1,1,2
13,2,2,2,2,2,1,2,2,2,2,2,2,1,1,2,2,2,2
13,2,1,2,2,2,2,2,2,2,2,2,2,2,2,2,1,1,2
13,2,2,2,2,2,2,2,2,2,2,2,2,1,2,2,1,NA,NA
13,2,1,1,2,1,2,2,1,1,2,2,2,2,2,2,1,2,2
13,2,2,2,2,2,2,1,2,2,2,2,2,2,2,2,1,2,2
13,2,2,2,2,2,2,2,2,2,2,2,1,1,1,1,2,2,2
13,2,2,2,2,2,2,2,1,2,2,2,1,1,1,2,1,2,2
13,2,2,2,2,2,2,2,2,2,2,2,2,2,2,2,2,2,2
13,2,2,2,2,2,2,2,2,2,2,2,2,2,2,1,1,2,2
13,2,2,2,2,2,2,2,2,2,2,2,2,2,2,2,1,1,2
13,2,1,2,2,2,2,2,2,2,2,2,2,2,1,2,1,1,2
13,2,2,2,2,2,2,2,2,2,2,2,2,2,2,2,1,1,2
13,2,2,2,2,2,2,2,1,2,2,2,2,1,1,2,1,2,2
13,2,2,2,2,1,2,2,2,2,2,2,2,2,2,1,1,2,2
13,2,2,2,2,2,2,2,2,2,2,2,2,2,2,2,1,1,2
13,2,2,2,2,2,2,2,2,2,2,2,2,2,2,2,1,2,2
13,1,2,1,2,2,2,2,1,2,1,2,2,2,2,1,1,2,2
13,2,2,2,2,2,1,2,2,2,2,2,2,1,2,2,2,2,2
13,2,2,2,2,2,2,1,2,2,2,2,2,NA,2,2,1,2,2
13,2,1,1,2,1,2,1,1,2,2,2,2,2,2,2,2,2,2
13,2,2,2,2,2,2,2,1,2,2,2,2,1,1,2,2,2,2
13,2,2,2,2,2,2,2,1,2,2,2,2,2,2,2,1,2,2
13,2,2,2,2,2,2,1,2,2,2,2,2,2,2,2,1,2,2
13,2,2,2,2,2,2,1,2,2,2,2,2,2,2,2,1,2,2
13,2,1,1,1,1,1,2,1,1,1,2,2,2,2,1,1,2,2
13,2,2,2,2,2,2,2,2,2,2,2,2,2,2,2,1,1,2
13,2,2,2,2,2,2,1,1,1,2,2,2,2,1,2,1,2,2
13,2,2,2,2,2,2,2,2,2,2,2,2,2,2,2,1,2,2
13,2,1,2,2,2,1,2,1,2,1,2,2,2,2,2,1,2,2
13,2,2,2,2,2,2,2,1,2,2,2,2,2,2,2,1,2,2
13,2,2,2,2,2,1,2,2,2,2,2,2,2,2,2,2,2,2
13,2,2,2,2,2,2,1,2,2,2,2,2,2,2,2,1,NA,2
13,2,2,2,2,2,2,2,2,2,2,2,2,2,2,2,1,2,2
13,2,2,2,2,2,2,2,2,2,2,2,1,2,2,2,1,2,2
13,2,2,2,2,2,2,2,2,2,2,2,2,2,2,2,2,2,2
13,2,2,2,2,2,2,2,1,2,2,2,2,2,2,2,1,2,2
13,2,2,2,2,2,2,2,2,2,2,2,2,2,2,2,2,2,2
13,2,2,2,2,2,2,2,1,2,2,2,2,2,1,2,2,2,2
13,2,2,2,2,2,2,2,2,2,2,2,2,2,2,2,1,2,2
13,2,2,1,2,2,2,1,2,2,2,2,2,2,2,2,1,2,2
13,2,2,2,2,2,2,2,2,2,2,2,2,2,2,2,1,1,2
13,2,2,2,2,2,2,2,1,2,2,2,2,2,2,2,1,1,2
13,2,2,2,2,2,2,2,2,2,2,2,2,2,2,2,1,2,2
13,2,2,2,2,2,2,1,1,2,2,2,2,2,2,1,1,2,2
13,2,2,2,2,2,2,2,2,2,2,2,2,2,2,2,1,2,2
13,2,2,2,2,2,2,1,2,2,2,2,2,2,2,2,1,2,2
13,2,2,2,2,2,2,2,2,2,2,2,2,2,2,2,1,2,2
13,2,2,2,2,2,1,2,1,2,2,2,1,2,2,2,1,2,2
13,2,2,2,2,2,2,2,2,2,2,2,2,2,2,2,1,2,2
13,2,2,2,2,2,2,1,2,2,2,2,2,2,2,2,1,2,2
13,2,2,2,2,2,2,2,2,2,2,2,2,2,2,2,1,2,2
13,2,2,2,2,2,2,2,2,2,2,2,1,1,1,1,2,2,2
13,2,1,2,2,1,2,2,1,2,2,2,2,2,2,2,1,2,2
13,2,2,2,2,2,2,2,2,2,2,2,2,2,2,2,1,2,2
13,2,2,2,2,2,NA,2,2,2,2,2,2,2,2,2,1,2,2
13,2,1,2,2,1,2,2,2,2,2,2,2,2,2,2,2,2,2
13,2,1,1,2,1,2,1,2,1,2,2,2,2,2,2,1,2,2
13,2,2,2,2,2,2,2,2,2,2,2,2,2,2,2,1,2,2
13,2,2,2,2,2,2,2,2,2,2,2,2,2,2,2,1,2,2
13,2,2,2,1,1,1,2,2,2,2,1,2,1,1,2,1,1,1
13,2,2,2,2,2,2,2,2,2,2,2,2,2,2,2,1,2,2
13,2,2,2,2,2,2,2,2,2,2,2,2,2,2,1,1,2,2
13,2,2,2,2,2,2,2,2,2,2,2,2,2,2,1,1,2,2
13,2,2,2,2,2,2,2,1,2,2,2,2,2,2,2,1,2,2
13,2,2,2,2,2,2,2,2,2,2,2,2,2,2,1,2,2,2
13,2,2,2,2,2,2,2,2,2,1,2,2,2,2,2,2,1,2
13,2,1,2,1,1,2,2,2,2,2,2,2,2,1,1,1,2,2
13,2,2,2,2,2,2,1,2,2,2,2,2,2,2,2,1,1,2
13,2,2,1,2,2,2,2,2,1,1,1,2,2,2,2,1,2,2
13,2,2,2,2,2,1,2,2,1,2,2,2,1,2,2,1,2,2
13,2,2,2,1,2,2,2,2,2,2,2,2,2,2,2,1,1,2
13,2,2,2,2,2,2,2,2,2,2,2,2,2,2,2,1,2,2
13,2,2,2,2,2,2,2,2,2,2,2,2,2,2,2,2,2,2
13,2,2,2,2,2,1,1,2,2,2,2,2,2,2,2,2,2,2
13,2,2,2,2,2,2,2,2,2,2,2,2,2,2,2,1,2,2
13,2,2,2,2,2,2,2,1,2,2,2,2,2,2,2,1,2,2
13,2,2,2,2,2,2,2,1,2,2,2,2,1,2,2,1,2,2
13,2,1,2,2,2,2,2,1,2,2,2,2,2,2,2,2,2,2
13,1,1,1,2,2,2,2,2,2,2,2,2,2,2,2,1,2,2
13,2,2,2,2,2,2,1,1,2,2,2,2,2,2,2,2,2,2
13,2,2,2,2,2,2,2,1,2,2,2,2,2,2,2,1,2,2
13,2,2,2,2,2,2,2,1,2,2,2,2,2,2,2,1,2,2
13,2,2,2,2,2,2,2,1,2,2,2,2,2,2,2,1,2,2
13,2,2,2,2,2,2,2,2,2,2,2,2,2,2,1,1,2,2
13,2,2,2,2,2,2,2,2,2,2,2,2,2,2,2,1,2,2
13,2,2,2,2,2,1,1,2,2,2,2,2,2,2,2,1,2,2
13,2,2,2,2,2,2,1,2,2,2,2,1,2,2,2,1,2,2
13,2,2,2,2,2,1,2,2,2,2,2,2,2,2,2,1,2,2
13,2,2,2,2,2,2,1,2,1,2,2,2,2,2,1,1,2,2
13,2,2,2,2,2,2,2,2,2,2,2,2,2,2,2,1,2,2
13,2,2,2,2,2,2,2,1,2,2,2,2,2,2,2,1,2,2
13,2,2,2,NA,2,2,2,2,2,2,2,2,2,2,2,2,2,2
13,2,2,2,2,2,2,2,1,2,2,2,2,2,2,2,1,2,2
13,2,2,2,2,2,2,2,2,2,2,2,2,2,2,2,2,2,2
13,2,2,2,2,2,2,1,2,2,2,2,2,2,2,2,1,2,2
13,2,2,2,2,2,2,2,2,2,2,2,2,2,2,2,1,2,2
13,2,2,2,2,2,2,2,1,2,2,2,2,2,2,2,1,2,2
13,2,2,2,1,2,2,1,2,2,2,2,2,2,2,2,1,1,2
13,2,2,2,2,2,2,2,2,2,2,2,2,2,2,2,2,1,2
13,2,2,2,2,2,2,1,1,2,2,2,2,2,2,2,2,2,2
13,2,2,2,2,2,2,2,2,2,2,2,1,2,2,2,1,2,2
13,2,2,2,2,2,2,2,1,2,2,2,2,2,2,2,2,2,2
13,2,2,2,2,2,2,1,2,2,2,2,2,2,2,2,2,2,2
13,2,2,2,2,2,2,2,2,2,2,2,2,2,2,2,1,2,2
13,2,2,2,2,2,2,2,2,2,2,2,2,2,2,2,1,2,2
13,2,2,2,2,2,2,2,1,2,2,2,2,2,2,2,1,2,2
13,2,2,2,2,2,2,2,1,2,2,1,2,1,2,2,1,1,1
13,2,2,2,2,2,1,2,2,2,2,2,2,2,2,2,1,2,2
13,2,2,2,2,2,2,2,2,2,2,2,2,2,NA,2,1,2,2
13,2,1,1,1,1,2,1,2,1,2,2,2,2,2,2,1,2,2
13,2,2,2,2,2,2,2,2,2,2,2,2,2,2,1,1,2,2
13,2,2,2,2,2,2,2,2,2,2,2,2,2,2,2,2,2,2
13,2,2,2,2,2,2,2,2,2,2,2,2,2,2,2,1,2,2
13,2,2,2,2,2,2,2,2,2,2,2,2,2,2,2,1,2,2
13,2,2,2,2,1,2,1,1,2,2,2,2,2,2,2,1,2,2
13,2,2,2,2,2,2,2,2,2,2,2,2,2,2,2,1,2,2
13,2,2,1,2,1,1,2,2,2,2,2,2,1,2,2,2,2,2
13,2,2,2,2,2,2,1,2,2,2,2,2,2,2,2,2,2,2
13,2,2,2,2,2,2,2,2,2,2,2,2,2,2,2,1,2,2
13,1,1,1,1,1,1,2,2,1,2,2,1,1,2,2,1,2,1
13,2,2,2,2,2,2,2,1,2,2,2,2,2,2,2,1,2,2
13,2,2,2,2,2,2,2,2,2,2,2,2,2,2,2,1,2,2
13,2,2,2,2,2,2,2,1,2,2,2,2,2,2,2,1,2,2
13,2,2,2,2,2,2,2,2,2,NA,NA,NA,2,2,2,1,2,2
13,2,2,2,2,1,2,2,2,1,2,2,2,2,2,2,1,2,2
13,2,2,2,2,2,2,2,2,2,2,2,2,2,2,2,1,2,2
13,2,2,2,2,2,2,2,2,2,2,2,1,2,1,2,1,2,2
13,2,2,2,2,2,2,2,2,2,2,2,1,1,1,1,1,2,2
13,2,2,2,2,2,1,2,2,2,2,2,2,2,2,2,1,2,2
13,2,2,2,2,2,2,2,2,2,2,2,2,2,2,2,1,2,2
13,2,2,2,2,2,2,2,2,2,2,2,2,2,2,1,1,1,2
13,2,2,2,2,2,2,2,2,2,2,2,2,2,2,2,1,2,2
13,2,2,2,2,2,2,1,2,2,2,2,2,2,2,2,1,2,2
13,2,2,2,2,2,2,1,2,2,2,2,2,2,2,2,2,2,2
13,2,2,2,2,2,2,2,1,2,2,2,2,2,1,2,1,2,2
13,2,2,2,2,2,2,2,2,2,2,2,2,2,2,2,1,2,2
13,1,1,1,2,2,2,2,2,2,2,2,2,2,2,2,1,2,2
13,2,2,2,2,2,2,2,2,2,1,2,1,2,1,2,1,2,2
13,2,2,2,2,2,1,2,2,1,2,2,2,2,2,2,2,1,2
13,2,1,2,2,2,1,2,2,2,2,2,2,2,2,2,1,2,2
13,2,2,2,2,2,2,2,1,2,2,2,2,2,2,2,1,1,2
13,2,2,2,2,2,2,2,1,2,2,2,2,2,2,2,2,2,2
13,2,2,2,2,2,1,2,2,2,2,2,1,2,2,2,2,2,2
13,2,2,2,1,2,2,2,2,2,2,2,2,2,2,2,1,1,1
13,2,2,2,2,2,2,2,2,2,2,2,1,2,1,2,2,2,2
13,2,1,2,2,1,1,1,2,2,2,2,2,2,2,2,1,2,2
13,2,1,2,2,1,2,2,1,2,2,2,2,2,2,2,1,2,2
13,2,2,2,2,2,2,1,1,2,2,2,2,2,NA,2,1,1,2
13,2,1,2,2,1,2,1,2,2,2,2,2,2,2,2,1,2,2
13,2,1,1,2,1,2,1,2,2,2,2,2,2,2,1,1,2,2
13,2,2,2,2,1,2,2,1,1,2,2,2,2,2,2,1,1,2
13,2,2,2,2,2,2,2,1,2,2,2,2,2,2,2,1,2,2
13,2,2,2,2,NA,2,2,2,2,2,2,2,2,2,2,2,2,2
13,2,2,2,2,2,2,2,2,2,2,2,2,2,2,2,1,1,2
13,2,2,2,2,2,2,2,2,2,2,2,2,2,2,2,1,NA,2
13,2,2,2,2,2,2,1,1,1,2,2,2,2,2,2,1,2,2
13,2,1,2,2,2,2,1,2,2,2,2,2,2,2,1,1,2,2
13,2,2,2,2,2,2,2,2,2,2,2,2,2,1,2,1,2,2
13,2,2,1,2,2,2,1,1,2,2,2,2,2,1,2,1,1,2
13,2,2,2,2,2,2,2,1,2,2,2,2,2,2,2,2,2,2
13,2,2,2,2,2,2,2,2,2,2,2,2,2,2,2,1,2,2
13,2,2,2,2,2,2,1,2,2,2,2,2,2,2,2,1,2,2
13,2,2,2,2,2,2,2,2,2,2,2,2,2,2,2,1,2,2
13,2,2,2,2,2,2,2,2,2,2,2,2,2,1,2,1,2,2
13,1,1,2,2,2,2,2,2,2,2,2,1,1,2,2,1,1,1
13,2,2,2,2,2,2,2,1,2,2,2,2,2,2,2,1,1,2
13,2,2,2,2,2,2,2,2,2,2,2,2,2,2,2,1,2,2
13,2,2,2,2,2,1,2,1,1,1,2,2,2,2,1,2,2,2
13,2,2,2,2,2,2,2,2,2,2,2,2,2,2,2,2,2,2
13,2,2,2,2,2,2,2,2,2,2,2,2,2,2,2,1,2,2
13,2,2,2,2,2,2,2,1,2,2,2,2,2,2,1,1,2,2
13,2,2,2,2,2,2,2,2,2,2,2,1,2,1,2,1,2,2
13,2,2,2,2,2,2,2,2,2,2,2,2,2,1,2,2,NA,2
13,2,2,2,2,2,2,1,2,2,2,2,1,2,2,2,1,2,2
13,2,2,2,2,2,2,2,2,2,2,2,1,2,2,1,2,2,2
13,2,2,2,2,2,2,2,2,2,2,2,2,2,2,2,2,2,2
13,2,2,2,2,2,2,2,1,2,2,2,2,2,1,2,1,1,2
13,2,2,2,2,2,2,2,2,2,2,2,2,2,2,2,2,2,2
13,2,1,2,2,2,2,2,1,2,2,2,2,2,2,2,1,2,2
13,2,2,2,2,2,2,2,2,2,2,2,2,1,1,2,2,NA,2
13,2,2,2,2,2,2,2,2,2,2,2,2,2,2,2,2,2,2
13,2,1,2,2,1,2,1,2,2,2,2,2,2,2,2,1,2,2
13,2,2,2,2,2,2,2,2,2,2,2,2,2,2,2,1,2,NA
13,2,2,2,1,2,2,2,1,2,2,2,2,2,2,2,2,2,2
13,2,2,2,2,2,1,2,1,2,1,2,2,2,2,1,1,1,2
13,2,2,2,2,2,2,2,2,2,2,2,2,2,2,2,2,2,2
13,2,2,2,2,2,2,2,2,2,2,2,1,2,1,2,1,2,2
13,2,1,2,2,2,2,2,2,2,2,2,2,2,2,2,1,2,2
13,2,2,2,2,2,2,1,1,2,2,2,2,2,2,1,1,1,2
13,NA,2,2,2,2,2,1,2,2,2,2,2,2,2,2,1,2,2
13,2,2,2,2,2,2,1,2,NA,2,2,2,2,2,1,NA,2,NA
13,2,2,2,2,2,2,1,2,2,2,2,2,2,2,2,1,2,2
13,2,2,2,2,2,2,2,1,2,1,2,2,2,2,2,NA,2,2
13,2,2,2,2,2,2,2,2,2,2,2,2,NA,2,2,1,1,2
13,2,1,2,2,2,2,1,2,2,2,2,2,2,2,2,1,2,2
13,2,2,2,2,1,2,2,2,2,2,2,2,1,1,2,2,2,2
13,2,2,2,2,2,2,1,1,2,2,2,2,2,2,2,1,2,2
13,2,2,2,2,1,2,2,1,2,2,2,2,2,2,2,1,2,2
13,2,2,2,2,2,2,2,2,2,2,2,2,2,2,1,1,2,2
13,2,2,2,2,2,2,2,2,2,2,2,2,2,2,2,1,1,2
13,2,2,2,2,2,2,1,1,2,2,2,2,2,2,2,1,2,2
13,1,2,1,2,2,2,1,2,2,2,2,2,2,2,2,1,2,2
13,2,2,2,2,2,2,2,2,2,2,2,2,2,2,1,1,1,2
13,2,2,2,2,2,2,2,2,2,2,2,2,2,2,2,1,2,2
13,2,2,2,2,2,2,2,2,2,2,2,2,2,2,2,1,2,2
13,2,2,2,2,1,1,2,2,1,2,2,2,1,1,2,1,2,2
13,2,2,2,2,2,2,2,2,2,2,2,2,2,2,1,1,2,2
13,2,2,2,2,2,2,1,2,2,2,2,1,2,2,2,1,2,2
13,2,2,2,2,2,2,2,2,2,2,2,2,2,2,2,1,2,2
13,2,2,2,2,2,2,2,2,2,2,2,2,2,1,2,2,2,2
13,2,2,2,2,2,2,2,2,2,2,2,2,2,2,2,1,2,2
13,2,2,2,2,2,2,2,2,2,2,2,1,2,1,2,2,2,2
13,2,1,2,2,1,2,2,1,2,2,2,2,1,1,2,2,2,2
13,2,2,2,2,2,2,1,2,2,2,2,2,2,2,2,1,2,2
13,2,2,2,2,2,2,1,2,2,2,2,2,2,2,2,1,2,2
13,2,2,2,2,2,2,2,2,2,2,2,2,2,2,2,2,1,2
13,2,2,2,2,2,2,2,2,2,2,2,2,2,2,2,NA,2,2
13,1,2,2,2,2,2,2,1,2,2,2,2,2,2,2,2,2,2
13,2,2,2,2,2,2,2,2,2,2,2,2,2,2,2,1,2,2
13,2,2,2,2,2,2,2,2,2,2,2,2,2,2,1,2,2,2
13,2,2,2,2,2,2,2,2,2,2,2,2,2,1,2,2,NA,2
13,2,2,2,2,2,1,1,1,2,2,2,2,2,2,2,1,2,2
13,2,2,2,2,2,2,2,2,2,2,2,2,2,2,2,2,2,2
13,2,2,2,2,1,2,1,2,2,2,2,1,2,2,2,1,2,2
13,2,2,2,2,2,NA,2,2,2,2,2,2,2,2,2,2,2,2
13,2,2,2,NA,2,2,2,2,2,2,2,2,2,NA,1,1,2,2
13,2,2,2,2,2,2,2,2,2,2,2,2,2,2,2,1,1,2
13,2,2,2,2,1,2,2,1,2,2,2,2,2,2,2,1,2,2
13,2,1,1,2,1,2,2,2,2,2,2,2,2,2,2,1,2,2
13,2,1,2,1,1,2,1,1,2,2,2,2,2,2,1,1,2,2
13,2,2,2,2,2,2,2,2,2,2,2,2,2,2,2,1,2,2
13,2,2,2,2,2,2,2,1,2,2,2,2,2,1,2,2,2,2
13,1,2,2,2,2,2,2,2,2,2,2,2,2,2,1,1,1,2
13,2,2,2,1,1,2,2,2,2,2,2,2,2,2,2,1,2,2
13,2,2,2,2,2,2,2,2,2,2,2,2,2,2,2,1,2,2
13,1,1,1,2,2,2,2,2,2,2,1,2,2,2,2,1,1,1
13,2,2,2,2,2,1,1,1,2,2,2,2,2,2,2,1,2,2
13,2,2,2,2,2,2,2,2,2,2,2,2,2,2,1,1,2,2
13,2,2,2,2,1,1,2,1,2,2,2,2,1,1,2,1,2,2
13,2,2,2,2,2,2,2,2,2,2,2,2,2,2,2,1,2,2
13,2,2,2,2,2,2,1,2,2,2,2,2,2,2,2,1,2,2
13,2,2,2,2,2,2,2,2,2,2,2,2,2,1,2,1,2,2
13,2,2,2,2,2,2,2,2,2,2,2,2,2,2,2,1,2,2
13,2,2,2,2,2,2,1,2,2,2,2,2,2,2,2,1,1,2
13,2,2,2,2,2,2,2,1,2,2,2,2,2,2,2,2,2,2
13,2,2,2,NA,2,2,2,2,2,2,2,2,2,2,2,1,2,2
13,2,2,2,2,2,2,2,1,2,2,2,2,2,2,2,1,2,2
13,2,2,2,2,2,1,2,2,2,2,2,2,2,2,2,2,2,2
13,2,2,2,2,2,2,2,1,2,2,2,2,2,2,1,1,2,2
13,2,2,2,2,1,1,1,1,1,2,2,2,2,2,2,1,2,2
13,2,2,2,2,2,2,1,2,2,2,2,2,2,2,2,1,2,2
13,2,2,2,2,2,2,1,1,2,2,2,2,2,2,2,2,2,2
13,2,1,2,2,1,2,1,2,2,2,2,2,2,2,2,2,2,2
13,2,2,2,2,2,2,2,2,2,2,2,2,2,2,1,1,2,2
13,2,1,1,1,1,1,2,2,1,1,2,1,1,1,1,NA,NA,NA
13,2,2,1,2,2,2,1,1,2,2,2,2,2,1,2,1,2,2
13,2,1,2,2,2,2,2,2,2,2,2,2,2,2,2,1,2,2
13,2,2,2,2,1,2,1,2,2,2,2,2,2,2,2,2,2,2
13,2,1,2,2,1,1,1,1,1,2,2,2,2,2,1,1,2,2
13,2,2,2,2,2,1,2,2,1,2,2,2,2,2,2,2,2,2
13,2,2,2,2,2,2,2,1,2,2,2,2,2,2,2,1,2,2
13,2,2,2,2,2,2,2,2,2,2,2,2,2,2,2,1,2,2
13,2,2,2,2,2,2,2,1,1,2,2,2,1,2,2,2,1,2
13,2,2,1,2,1,2,2,1,2,2,2,2,2,2,2,2,2,2
13,1,1,1,2,1,2,1,1,2,1,1,1,2,2,2,1,2,1
13,2,2,2,2,2,2,2,2,2,2,2,2,1,1,2,2,1,2
13,2,2,2,2,2,2,2,2,2,2,2,2,2,1,2,1,1,2
13,2,2,2,2,2,1,2,2,2,2,2,2,1,2,2,1,2,1
13,2,2,1,2,2,1,1,1,2,2,2,1,2,1,2,1,2,2
13,2,2,2,2,2,2,1,2,2,2,2,2,2,2,2,1,2,2
13,2,2,2,2,2,2,2,2,2,2,2,1,2,2,2,1,2,2
13,2,2,2,2,2,2,2,2,2,2,2,2,2,2,2,1,2,2
13,2,2,2,2,2,1,2,2,2,2,2,2,2,2,2,1,2,2
13,2,1,2,2,2,2,2,2,2,2,2,2,2,2,1,1,2,2
13,2,1,2,2,1,1,2,1,1,2,2,2,2,2,1,1,2,2
13,2,2,2,2,2,2,2,2,2,2,2,2,2,2,2,1,2,2
13,2,2,2,2,2,2,2,2,2,2,2,2,2,2,2,1,2,2
13,2,2,2,2,2,2,2,1,2,2,2,2,2,2,2,1,2,2
13,2,1,2,2,2,2,2,2,2,2,2,2,2,2,2,2,2,2
13,2,1,1,2,2,2,2,1,2,2,2,2,2,2,2,1,2,2
13,2,2,2,1,2,2,2,2,2,2,2,1,2,1,2,1,2,2
13,2,2,2,2,2,2,1,2,2,2,2,1,2,2,2,1,2,2
13,2,2,1,2,2,2,2,2,2,2,2,2,2,2,2,1,2,2
13,2,1,2,2,2,1,2,1,2,2,2,2,2,2,1,1,1,2
13,2,1,2,2,1,2,2,2,2,2,2,2,2,2,2,1,2,2
13,2,2,1,2,2,2,2,2,2,2,2,2,2,1,2,1,2,2
13,2,1,2,2,2,2,2,1,2,2,2,2,2,2,2,2,2,2
13,2,2,2,2,1,2,2,2,2,2,2,2,2,2,2,2,2,2
13,2,2,2,2,2,2,2,1,2,2,2,2,2,2,2,1,1,2
13,2,2,2,2,2,2,2,2,2,2,2,2,2,2,2,1,2,2
13,2,2,2,2,1,1,2,1,2,2,2,2,2,2,2,1,1,2
13,2,2,2,NA,1,2,2,2,2,2,2,2,2,2,2,2,2,2
13,2,2,2,1,2,2,2,2,2,2,2,2,2,2,1,1,2,2
13,2,2,2,2,2,2,1,1,1,2,2,1,2,2,2,1,2,2
13,2,2,2,2,2,2,2,2,2,2,2,2,2,2,2,2,2,2
13,2,2,2,2,2,2,1,2,1,2,2,2,2,2,1,1,2,2
13,2,2,2,2,2,2,2,2,2,2,2,2,NA,1,2,1,2,2
13,2,2,2,2,2,2,2,2,2,2,2,2,2,2,2,1,2,2
13,2,2,2,2,2,2,1,2,2,2,2,2,1,1,2,1,2,2
13,2,2,2,2,2,2,2,2,2,2,2,2,2,2,2,1,2,2
13,2,2,2,2,2,2,1,1,2,2,2,2,2,1,2,1,2,2
13,2,2,2,2,2,2,2,2,2,2,2,2,1,1,2,1,2,1
13,2,1,2,2,1,2,2,1,2,2,2,2,2,2,2,1,2,2
13,2,2,2,2,2,2,2,2,2,2,2,2,2,2,2,1,2,2
13,2,2,2,2,2,2,2,2,2,2,2,2,2,2,2,1,2,2
13,2,2,2,2,2,2,1,2,2,2,2,2,2,2,1,1,2,2
13,2,2,2,2,2,2,2,2,2,2,2,2,2,2,2,1,2,1
13,2,2,2,2,2,2,2,2,2,2,2,2,1,1,2,1,1,2
13,2,2,2,2,2,2,2,2,2,2,2,1,1,1,2,2,NA,2
13,2,2,2,2,2,2,2,2,2,2,2,2,2,2,2,1,1,2
13,1,1,2,2,2,2,2,2,2,2,2,2,2,1,2,2,1,2
13,2,2,2,2,2,2,2,2,2,2,2,1,2,1,2,2,2,2
13,2,2,2,2,2,2,1,2,2,2,2,2,2,2,2,1,2,2
13,2,2,2,2,2,1,1,2,2,2,2,2,2,2,2,2,1,2
13,1,2,2,2,2,2,2,2,2,2,NA,2,2,2,2,1,1,2
13,2,2,2,1,2,1,2,2,1,2,2,2,2,2,2,1,2,2
13,2,2,2,2,2,2,1,1,2,2,2,2,2,2,2,1,2,2
13,2,1,2,2,1,2,2,1,2,2,2,2,2,2,2,2,2,2
13,2,2,2,2,2,2,1,2,2,2,2,2,2,2,1,1,2,2
13,2,2,2,2,2,2,2,2,2,2,2,2,2,2,2,2,2,2
13,2,2,2,2,2,2,1,2,2,2,2,2,2,2,2,1,2,2
13,2,1,2,2,1,2,2,2,2,2,2,2,2,2,2,2,NA,2
13,2,2,2,2,1,1,1,2,2,2,2,2,2,1,2,1,1,2
13,2,2,2,2,2,2,2,1,2,2,2,2,2,2,2,1,2,2
13,2,2,2,2,2,2,2,1,2,1,2,1,1,2,2,1,2,2
13,2,2,2,2,2,2,1,2,2,2,2,2,2,2,2,1,1,2
13,2,2,2,2,2,2,2,2,1,2,2,2,2,1,2,1,2,2
13,2,2,2,2,2,2,2,1,2,2,2,2,2,2,2,1,2,2
13,1,2,2,2,2,2,2,2,2,2,2,2,2,1,2,2,1,2
13,1,1,2,2,2,1,2,2,2,2,2,2,2,2,2,1,1,2
13,2,2,2,2,2,2,2,1,2,2,2,2,2,2,2,1,2,2
13,2,2,2,2,2,2,1,2,2,2,2,2,2,2,2,1,2,2
13,2,2,2,2,2,2,1,2,2,2,2,2,2,2,2,1,2,2
13,2,2,2,2,2,1,2,2,1,2,1,2,2,2,2,1,2,2
13,2,2,2,2,2,1,1,2,1,2,2,2,2,2,1,1,2,2
13,2,2,2,2,2,2,2,2,2,2,2,2,2,2,2,1,1,2
13,2,2,2,2,2,2,1,2,2,2,2,2,2,2,2,1,2,2
13,2,2,2,2,2,2,2,1,2,2,2,2,2,1,2,1,2,2
13,2,2,2,2,2,2,2,2,2,2,2,2,2,2,2,1,2,2
13,2,2,2,2,2,2,2,2,2,2,2,2,2,2,1,1,2,2
13,2,2,2,2,2,2,2,2,2,2,2,2,2,2,2,1,2,2
13,2,2,2,2,2,2,1,2,2,2,2,2,2,2,2,1,2,2
13,2,2,2,2,2,2,1,1,2,2,2,2,2,2,1,1,1,2
13,2,1,2,2,1,2,2,1,2,2,2,2,2,2,2,2,2,2
13,2,2,1,2,2,2,2,2,2,2,2,2,2,2,2,2,2,2
13,2,2,2,2,2,2,2,2,2,2,2,2,2,2,2,1,2,2
13,2,2,2,2,2,2,2,2,2,2,2,2,2,2,2,1,2,2
13,2,2,2,2,2,2,1,2,2,2,2,2,2,2,1,1,2,2
13,2,2,2,2,2,2,2,1,2,2,2,2,2,2,1,1,2,2
13,2,2,2,2,2,2,2,1,2,2,2,2,2,2,2,1,1,2
13,2,1,1,2,2,1,2,1,2,1,1,2,1,2,2,1,1,2
13,2,1,2,2,1,2,1,1,2,2,NA,2,2,2,2,1,2,2
13,2,2,2,2,2,2,2,2,2,2,2,2,2,2,2,1,1,2
13,2,2,2,2,2,2,2,2,2,2,2,2,2,2,2,1,1,2
13,2,2,2,2,2,2,1,2,2,2,2,2,2,2,1,2,2,2
13,2,2,2,2,2,2,2,2,2,2,2,2,2,2,2,1,NA,2
13,2,2,2,2,2,2,2,1,2,2,2,2,2,2,2,1,2,2
13,2,2,2,2,2,2,2,2,2,1,2,1,2,2,2,1,2,2
13,2,2,2,2,2,2,2,2,2,2,2,2,2,2,2,1,2,2
13,2,1,2,2,2,2,2,1,2,2,2,2,2,2,2,1,2,2
13,2,2,2,2,2,2,1,2,2,2,2,2,2,2,2,1,2,2
13,2,2,2,2,2,2,1,2,2,2,2,2,2,2,2,1,2,2
13,2,2,2,2,2,2,2,1,2,2,2,2,2,1,2,1,2,1
13,2,2,2,2,2,1,1,2,1,1,2,1,2,2,2,1,2,2
13,2,1,2,2,2,2,2,2,2,2,2,2,2,2,2,2,2,2
13,2,2,2,2,2,2,2,2,2,2,2,2,2,2,2,1,1,2
13,2,2,2,2,2,2,2,2,2,2,2,2,2,2,2,2,2,2
13,2,2,2,1,2,1,1,1,1,2,2,2,2,1,2,2,2,2
13,2,2,2,2,2,1,2,2,2,2,2,2,2,2,2,1,2,2
13,2,1,2,2,2,2,2,1,2,2,2,2,2,2,2,2,2,2
13,2,2,2,2,2,2,2,2,2,2,2,2,2,2,2,1,2,2
13,2,2,2,2,2,2,2,1,2,2,2,2,2,2,2,2,2,2
13,1,1,2,2,2,1,1,2,2,2,2,2,2,2,2,1,2,2
13,2,2,2,2,2,2,2,1,2,2,2,2,2,2,1,1,2,2
13,2,2,2,1,2,2,1,1,2,1,2,1,1,1,1,1,2,2
13,2,2,2,2,2,2,1,2,2,2,2,1,2,2,2,1,2,2
13,2,2,2,2,2,2,2,2,2,2,2,2,2,2,2,1,2,2
13,2,2,2,2,2,2,2,2,2,2,2,2,2,2,1,1,2,2
13,2,1,2,2,1,2,2,2,2,2,2,2,2,2,1,1,2,2
13,2,2,2,2,2,2,1,NA,2,2,2,2,2,2,2,1,2,2
13,2,2,1,2,1,2,1,2,2,2,2,1,2,2,2,1,2,2
13,2,2,2,2,2,2,2,1,2,2,2,1,2,2,2,2,2,2
13,2,2,2,2,2,2,2,2,2,2,2,2,2,2,2,1,1,2
13,2,2,2,2,2,2,2,2,2,2,2,2,2,2,2,1,2,2
13,2,2,2,2,2,2,2,2,2,2,2,1,2,2,2,1,2,2
13,2,2,2,2,2,2,2,1,2,2,2,2,2,2,2,2,2,2
13,2,2,2,2,2,2,2,2,2,2,2,NA,2,2,2,1,2,2
13,2,1,2,2,1,2,1,2,2,2,2,2,2,2,2,1,2,2
13,2,2,2,2,2,2,2,2,2,2,2,2,2,2,2,2,2,2
13,2,2,2,2,2,2,2,2,2,2,2,2,2,2,2,2,2,2
13,2,1,2,1,2,1,2,1,2,2,2,2,2,2,2,1,2,2
13,2,2,2,2,2,2,2,2,2,2,2,2,1,1,2,2,2,2
13,2,2,2,2,2,2,2,1,2,2,2,2,2,2,2,1,2,2
13,2,2,2,2,2,2,2,2,2,2,2,2,2,2,1,1,2,2
13,2,2,2,2,2,2,2,2,2,2,2,2,2,2,2,1,2,2
13,2,2,2,2,2,1,1,2,2,2,2,2,2,2,2,1,2,2
13,2,2,2,2,2,2,2,2,2,2,2,2,2,2,1,1,1,2
13,2,2,2,2,2,2,2,2,2,2,2,2,2,2,2,1,2,2
13,2,2,2,2,2,2,2,2,2,2,2,1,2,2,1,1,2,2
13,2,2,2,2,2,2,2,1,2,2,2,2,2,2,2,1,2,2
13,2,2,2,2,2,2,2,1,1,2,2,2,2,2,2,2,2,2
13,2,2,2,2,2,2,2,1,2,2,2,2,2,2,2,2,2,2
13,2,2,2,2,2,2,2,2,2,2,2,2,2,2,2,1,2,2
13,2,2,2,2,2,2,2,2,2,2,2,2,2,1,2,1,1,2
13,2,2,2,2,2,2,1,2,2,2,2,2,2,2,1,1,2,2
13,2,2,2,2,2,2,2,2,2,2,2,2,2,2,2,2,2,2
13,2,2,2,2,2,2,2,2,2,2,2,2,2,2,2,1,2,2
13,2,1,2,1,1,1,2,2,2,2,2,2,1,2,2,1,2,2
13,2,2,2,2,2,2,2,1,1,2,2,2,2,1,2,1,2,2
13,2,2,2,2,2,2,2,1,NA,1,NA,2,1,1,2,1,2,2
13,2,2,2,2,2,2,2,2,2,2,2,2,2,2,2,1,2,2
13,2,2,2,2,2,2,1,2,2,2,2,1,2,2,2,1,2,2
13,2,2,2,2,2,2,1,2,2,2,2,2,2,2,2,1,2,2
13,2,2,2,2,2,2,2,2,2,2,2,1,2,2,2,1,2,2
13,2,2,2,2,2,2,2,1,2,2,2,2,2,1,1,1,1,2
13,2,2,2,2,2,2,2,1,2,2,2,1,2,1,2,1,2,2
13,2,2,1,2,1,2,2,2,2,2,1,1,1,1,2,1,2,1
13,2,2,2,2,2,2,1,2,2,2,2,2,2,2,2,1,2,2
13,2,2,2,2,2,2,2,2,2,2,2,2,2,2,2,2,2,2
13,2,2,2,2,2,2,2,1,2,2,2,2,2,1,2,1,2,2
13,2,2,2,2,2,2,2,2,2,2,2,2,2,2,2,1,2,2
13,2,2,2,2,2,2,2,2,2,2,2,2,2,2,2,1,2,2
13,2,2,2,2,2,2,2,2,2,2,2,2,2,2,2,1,2,2
13,1,1,2,2,2,2,2,2,2,2,2,2,2,2,2,1,1,2
13,2,2,2,2,2,2,1,2,2,2,2,2,2,2,1,1,2,2
13,2,2,2,2,2,2,2,2,2,2,2,2,2,2,2,NA,2,2
13,2,2,2,2,2,2,2,1,2,2,2,2,2,2,2,1,1,2
13,2,2,2,2,2,2,2,1,2,2,2,2,2,1,2,1,2,2
13,2,2,2,2,2,2,2,2,2,2,2,2,2,2,2,2,2,2
13,2,2,2,2,1,2,1,1,2,2,2,1,2,2,2,1,2,2
13,2,2,2,2,2,2,2,2,2,2,2,2,2,2,2,2,2,2
13,2,2,2,2,2,2,2,2,2,2,2,2,2,2,2,1,2,2
13,2,1,2,2,2,2,2,2,2,2,2,2,2,2,2,2,2,2
13,2,2,2,NA,2,2,2,1,2,2,2,1,2,2,2,1,2,2
13,2,2,2,2,2,2,2,1,2,2,2,2,2,2,2,1,2,2
13,2,2,2,2,2,2,2,2,2,2,2,2,2,2,2,1,2,2
13,2,2,2,2,2,1,2,1,2,2,2,2,2,2,2,1,2,2
13,2,2,2,2,2,2,1,2,2,2,2,1,2,2,2,1,2,2
13,2,2,2,2,2,2,2,2,2,2,2,2,2,2,2,1,2,2
13,2,2,2,2,1,1,2,1,2,2,2,2,2,2,2,1,2,2
13,2,2,2,2,2,2,2,1,2,2,2,1,2,2,2,1,2,2
13,2,2,2,2,2,2,2,2,2,2,2,2,2,2,2,2,2,2
13,2,2,2,2,2,2,2,2,2,2,2,2,2,2,2,2,2,2
13,2,2,2,2,2,2,1,1,1,2,2,2,2,2,2,1,2,2
13,2,2,2,2,2,2,1,1,2,2,2,2,2,2,2,1,1,2
13,2,2,2,2,2,2,2,2,2,2,2,2,2,2,2,1,2,2
13,2,1,1,2,2,2,1,1,2,2,2,2,2,2,1,2,2,2
13,2,2,2,2,2,2,2,2,2,2,2,2,2,2,2,2,2,2
13,2,2,2,2,2,2,1,1,2,2,2,2,2,1,2,1,NA,2
13,2,2,2,2,2,1,2,2,1,2,2,2,2,2,2,1,2,2
13,2,2,2,2,2,2,2,2,2,2,2,2,2,2,2,1,2,2
13,2,1,2,2,2,2,2,2,2,2,2,1,1,1,2,2,2,2
13,2,2,2,2,2,2,1,2,2,2,2,2,2,2,2,1,2,2
13,2,2,2,1,2,2,1,1,1,2,2,2,1,1,2,1,2,2
13,2,2,2,2,2,2,1,2,2,2,2,2,2,2,2,1,2,2
13,2,2,2,2,2,2,2,2,2,2,2,2,2,2,2,1,2,2
13,2,2,2,1,1,2,2,2,2,2,2,2,2,2,2,2,2,2
13,2,2,2,2,2,2,2,2,2,2,2,2,2,2,1,1,2,2
13,2,2,2,2,1,2,1,2,2,2,2,2,2,2,2,1,2,2
13,2,2,2,2,2,2,1,2,1,2,2,2,2,2,1,1,2,2
13,2,2,2,2,2,2,2,2,2,2,2,2,2,2,2,1,2,2
13,2,1,2,2,1,1,2,2,2,2,2,2,2,2,2,1,2,2
13,2,2,NA,2,2,1,2,2,2,2,2,2,2,2,2,2,1,2
13,2,2,2,2,2,2,1,2,2,2,2,2,2,2,2,1,2,2
13,2,1,2,2,2,2,1,2,2,2,2,2,2,2,2,1,2,2
13,2,2,2,2,2,2,2,2,2,2,2,2,2,2,2,1,1,2
13,2,2,2,2,2,2,2,2,2,2,2,2,2,1,2,2,2,2
13,2,2,2,1,1,2,2,2,2,2,2,2,2,2,2,1,2,2
13,2,1,2,2,1,1,2,1,2,2,2,2,2,1,2,2,2,2
13,2,2,2,2,2,2,2,1,2,2,2,1,2,2,1,1,1,2
13,2,2,2,2,2,2,1,NA,NA,NA,2,2,2,2,2,1,1,2
13,2,1,2,2,2,2,2,1,2,2,2,2,2,2,2,2,2,2
13,1,1,2,2,2,1,2,1,1,2,2,2,1,2,2,1,2,2
13,2,2,2,2,2,2,2,2,2,2,2,2,2,2,2,1,2,2
13,1,1,1,2,1,2,2,2,1,2,2,2,2,2,1,1,2,2
13,2,2,2,2,2,2,2,2,1,2,2,2,2,2,2,1,2,2
13,2,2,2,2,2,2,2,2,2,2,2,2,2,2,2,1,2,2
13,2,2,2,2,2,2,2,2,2,2,2,2,2,1,2,2,NA,2
13,2,2,2,2,2,2,1,2,2,2,2,2,2,2,2,1,2,2
13,2,2,2,2,2,1,1,1,1,2,2,2,2,2,2,1,2,2
13,2,2,2,2,2,1,1,2,2,2,2,2,2,2,2,1,2,2
13,2,2,2,2,2,2,2,2,2,2,2,2,2,2,2,2,2,2
13,2,2,2,2,2,2,2,2,2,2,2,2,2,2,2,1,2,2
13,2,2,2,1,2,2,1,1,2,2,2,2,2,2,2,1,2,2
13,2,2,2,2,2,2,2,1,2,2,2,2,2,2,1,1,2,1
13,2,2,2,2,2,2,2,2,1,2,2,2,2,2,1,1,2,2
13,2,2,2,2,1,1,2,1,1,2,2,2,2,NA,2,2,2,2
13,2,2,2,2,2,1,2,2,2,2,2,2,2,1,1,1,1,2
13,2,1,2,2,2,1,2,2,2,2,2,2,2,1,2,2,1,2
13,2,2,2,2,2,2,1,1,2,2,2,2,2,2,1,1,2,2
13,2,2,2,2,2,2,2,2,2,2,2,2,2,2,2,1,2,2
13,1,2,2,2,2,2,2,2,2,2,2,2,2,2,2,1,2,2
13,2,2,2,2,2,2,2,2,2,2,2,2,2,2,2,1,2,2
13,2,2,2,2,2,2,2,2,2,2,2,1,2,2,2,2,2,2
13,2,1,2,2,1,2,2,1,2,2,2,2,2,2,1,1,2,2
13,2,2,2,2,2,1,1,2,2,2,2,1,2,2,1,1,2,2
13,2,2,2,2,2,2,1,1,2,2,2,2,2,2,2,1,2,NA
13,2,2,2,2,2,2,1,2,2,2,2,2,2,2,2,1,2,2
13,2,2,1,1,1,2,2,1,2,1,2,2,2,1,2,1,1,2
13,2,2,2,2,2,1,2,2,2,2,2,2,2,1,2,2,1,2
13,2,2,2,2,2,1,1,2,2,2,2,2,2,2,2,2,2,2
13,2,2,2,2,2,2,1,2,2,2,2,2,2,2,1,1,2,2
13,2,2,2,2,1,2,2,1,2,2,2,2,2,2,2,1,2,1
13,2,2,2,2,2,1,2,1,1,2,2,2,2,2,2,1,NA,2
13,2,2,2,1,2,2,2,2,2,2,2,2,2,2,2,1,2,2
13,2,2,2,2,2,2,2,2,2,2,2,2,2,2,2,1,2,2
13,1,2,2,2,2,2,2,2,2,2,2,1,2,2,1,2,2,2
13,2,2,2,2,2,2,2,2,2,2,2,2,2,2,2,1,2,2
13,2,2,2,2,2,2,2,1,2,2,2,2,1,2,2,1,1,2
13,2,2,2,2,2,2,2,2,2,2,2,2,1,2,2,2,2,2
13,2,2,2,2,2,2,2,2,NA,2,2,2,2,2,2,1,1,2
13,2,1,2,2,2,1,2,2,2,2,2,2,2,2,1,2,1,2
13,2,2,2,2,2,2,2,2,2,2,2,2,2,1,2,2,2,2
13,2,2,2,2,2,1,1,2,2,2,2,2,2,2,2,1,1,1
13,2,1,2,2,1,2,2,2,2,2,2,1,1,1,1,2,2,2
13,2,2,2,2,2,2,2,1,2,2,2,2,2,2,2,2,2,2
13,2,2,2,2,2,2,1,1,2,2,2,2,2,2,2,2,2,2
13,2,2,2,2,2,2,2,2,2,2,2,2,2,1,1,2,2,2
13,2,2,2,2,2,2,1,2,2,2,2,2,2,2,2,1,2,2
13,2,1,1,2,2,2,2,2,1,2,2,2,2,2,1,1,1,1
13,2,2,2,2,2,2,1,2,2,2,2,2,2,2,1,2,2,2
13,2,2,2,2,2,2,2,2,2,2,2,2,2,2,2,2,2,2
13,2,2,2,2,2,2,1,2,2,2,2,2,2,2,2,1,2,2
13,2,2,2,2,1,2,2,2,2,2,2,2,2,2,2,2,2,2
13,2,2,2,2,2,2,2,2,2,2,2,1,2,2,2,1,2,2
13,2,2,2,2,2,2,2,1,2,2,2,2,2,2,2,2,2,2
13,2,2,2,2,2,2,2,2,2,2,2,2,2,2,2,1,2,2
13,2,2,2,2,2,1,1,2,1,2,2,2,2,2,1,1,2,2
13,2,2,2,2,1,1,1,1,1,2,2,2,2,2,1,1,2,2
13,2,2,2,2,2,2,2,2,2,2,2,2,2,2,1,1,2,2
13,2,1,2,2,1,2,1,1,1,2,2,2,2,2,2,2,2,2
13,2,1,2,2,2,2,2,2,2,2,2,2,1,2,2,2,2,2
13,2,2,2,2,2,2,1,1,2,2,2,1,2,2,2,1,2,2
13,2,2,2,2,1,2,2,2,2,2,2,2,2,2,2,1,NA,NA
13,1,NA,2,2,2,2,2,2,2,2,2,2,2,2,NA,1,2,NA
13,2,1,2,2,1,2,1,2,2,2,2,2,2,2,2,1,NA,2
13,2,2,2,2,2,2,2,2,2,2,2,2,1,2,2,1,2,2
13,2,2,2,2,2,2,2,2,2,2,2,2,2,2,2,1,2,2
13,2,2,2,2,2,2,2,1,2,2,2,2,2,2,2,1,2,2
13,2,2,2,2,2,2,2,2,2,2,2,2,1,2,2,1,2,2
13,2,1,2,2,1,2,1,2,2,2,2,2,2,2,2,1,2,2
13,2,2,2,2,2,2,2,2,2,2,2,2,1,2,2,2,2,2
13,2,2,2,2,2,2,2,1,2,2,2,2,2,2,2,1,2,2
13,2,2,2,2,2,2,2,2,2,2,2,2,1,2,2,2,2,2
13,2,2,2,2,2,2,2,2,2,2,2,2,2,2,2,1,2,2
13,2,2,2,2,2,2,2,2,2,2,2,2,2,1,2,1,2,2
13,2,2,2,2,2,2,2,2,2,2,2,2,2,2,2,1,2,2
13,2,2,2,2,2,2,2,1,2,2,2,2,2,2,2,1,1,NA
13,2,1,1,2,1,2,2,1,2,2,2,2,1,2,2,2,2,2
13,2,2,2,2,2,2,2,2,2,2,2,2,2,2,2,2,2,2
13,2,2,1,2,2,2,1,2,2,2,2,2,2,2,2,1,2,2
13,2,2,2,2,2,2,2,1,2,2,2,2,2,2,2,1,2,2
13,2,2,2,2,2,2,2,1,2,2,2,2,2,2,2,2,2,2
13,2,2,2,2,2,2,2,2,2,2,2,2,2,2,1,2,2,2
13,2,2,2,2,2,2,1,1,2,2,2,2,2,2,2,1,2,2
13,2,2,2,2,2,2,2,1,2,2,2,2,2,1,2,1,2,2
13,2,2,2,2,2,1,2,2,1,2,2,2,2,2,2,1,2,2
13,2,2,2,2,2,1,1,1,1,1,2,2,2,1,2,1,1,2
13,2,2,2,2,2,2,2,1,2,2,2,2,2,1,2,2,2,2
13,2,2,2,2,2,2,2,1,2,2,2,2,2,1,2,1,2,2
13,2,1,2,2,2,2,2,2,2,2,2,1,2,2,1,2,2,1
13,2,2,2,2,2,2,1,2,2,2,2,2,2,2,2,1,2,2
13,2,2,2,2,2,2,2,1,2,2,2,2,2,2,2,1,2,2
13,2,2,2,2,1,2,2,2,2,2,2,1,2,2,2,1,1,2
13,2,2,2,2,2,2,2,2,1,2,2,2,2,2,2,1,2,2
13,2,2,2,1,2,2,1,1,2,2,2,2,2,2,2,1,2,2
13,2,1,2,1,1,1,2,2,2,1,2,2,2,2,1,1,2,2
13,2,1,2,2,1,2,2,2,2,2,2,2,2,2,2,1,2,2
13,2,2,2,2,2,1,1,2,2,2,2,2,2,1,2,1,2,2
13,2,2,2,2,2,2,2,2,2,2,2,2,2,1,2,1,2,2
13,2,2,2,2,2,2,2,1,2,2,2,2,2,2,2,1,2,2
13,2,2,2,2,2,1,1,2,2,2,2,2,2,2,2,1,2,2
13,2,2,2,2,2,2,2,2,2,2,2,2,2,2,2,1,1,2
13,2,2,2,2,2,2,2,2,2,2,2,2,2,2,2,2,2,2
13,2,2,2,2,2,2,2,2,2,2,2,2,2,2,1,1,2,2
13,2,2,2,2,2,2,1,2,2,2,2,2,1,2,2,1,2,2
13,2,2,2,2,2,2,2,2,2,2,2,1,2,1,2,2,1,2
13,2,2,2,2,2,2,2,2,2,2,2,2,2,1,2,2,1,2
13,2,2,2,2,2,2,2,1,2,2,2,2,2,2,2,1,2,2
13,2,2,1,2,2,2,2,2,2,2,2,2,2,2,2,1,2,2
13,2,2,2,2,2,2,2,1,2,2,2,1,2,1,1,2,2,2
13,2,2,2,2,2,2,2,2,2,2,2,2,1,1,2,1,1,2
13,2,2,2,2,2,2,2,2,2,2,2,2,2,2,2,1,2,2
13,2,2,2,2,2,1,2,2,2,2,2,1,1,1,2,1,2,2
13,2,2,2,2,2,2,2,2,2,2,2,2,2,2,2,1,2,2
13,1,1,1,2,1,2,1,2,2,2,2,2,1,2,2,1,2,2
13,2,2,2,2,2,1,1,2,2,2,2,2,2,2,2,1,2,2
13,2,2,2,2,2,2,2,1,2,2,2,2,1,2,2,1,1,2
13,2,2,2,2,2,2,2,2,1,2,2,2,2,2,2,2,1,2
13,2,2,2,2,1,2,2,2,2,2,2,2,1,2,2,1,1,2
13,2,2,2,2,2,2,2,1,2,2,2,2,2,2,2,2,2,2
13,2,2,2,2,2,2,2,2,2,2,2,2,2,2,2,1,2,2
13,2,2,2,2,2,2,2,2,2,2,2,2,1,1,2,2,2,2
13,2,2,2,2,2,2,2,2,2,2,2,1,2,2,2,1,2,1
13,2,2,2,2,2,2,2,1,2,2,2,2,2,2,2,2,1,2
13,2,2,2,2,2,2,1,2,2,2,2,2,2,2,1,1,2,2
13,2,2,2,2,1,2,2,2,2,2,2,2,2,2,2,2,NA,2
13,2,2,2,2,2,2,2,2,2,2,2,2,2,2,2,1,2,2
13,2,2,2,2,2,2,2,2,2,2,2,2,2,1,2,1,2,2
13,2,2,2,2,2,2,2,2,2,2,2,2,2,2,2,1,2,2
13,2,2,2,2,2,2,1,1,2,2,2,2,2,2,2,1,2,2
13,2,2,2,2,2,2,1,1,2,2,2,2,2,2,2,1,2,2
13,2,2,2,NA,2,2,2,2,2,2,2,2,2,2,2,1,2,2
13,2,2,2,2,2,2,2,1,2,2,2,2,2,2,2,1,2,2
13,2,2,2,2,2,2,1,2,2,2,2,2,2,2,2,1,1,2
13,2,2,2,2,2,2,2,2,2,2,2,2,2,2,2,1,2,2
13,2,2,2,2,2,2,2,2,2,2,2,2,2,2,2,1,2,2
13,2,2,2,2,2,1,1,2,2,2,2,2,2,2,2,1,1,2
13,2,2,2,NA,2,2,2,2,2,2,2,2,NA,NA,2,1,2,2
13,2,2,2,2,2,2,1,1,2,2,2,2,2,2,2,NA,1,2
13,2,2,2,2,2,2,2,2,2,2,2,2,2,2,2,1,2,2
13,2,2,2,2,2,2,2,2,2,2,2,2,1,1,1,2,2,2
13,2,1,2,2,1,2,1,2,2,2,2,2,2,2,2,1,2,2
13,2,2,2,2,2,2,1,2,1,2,2,2,2,2,2,1,1,2
13,2,2,2,2,2,2,2,2,2,2,2,2,2,1,2,1,2,2
13,2,2,2,2,1,2,2,2,2,2,2,2,2,2,2,1,2,2
13,2,2,2,2,2,2,2,2,2,2,2,2,2,1,2,1,2,2
13,2,2,2,2,2,2,1,2,1,2,2,1,2,1,2,1,2,2
13,2,2,2,2,2,2,2,2,2,2,2,2,2,1,2,2,2,2
13,2,2,2,2,2,2,2,2,2,1,2,1,2,2,2,1,2,2
13,2,2,2,2,2,1,2,1,1,2,2,2,2,2,2,1,1,2
13,2,2,2,2,2,2,1,1,2,2,2,2,2,2,2,2,2,2
13,2,2,2,2,2,2,2,2,2,2,2,2,2,2,1,2,2,2
13,2,2,2,2,1,2,2,1,2,2,2,2,2,2,2,1,2,1
13,2,2,2,2,2,2,1,2,2,2,2,2,1,2,2,1,2,2
13,2,2,2,2,2,2,1,1,2,2,2,1,2,2,2,1,1,2
13,2,2,2,2,2,2,1,1,2,2,2,1,2,2,1,1,2,2
13,2,1,2,2,2,2,2,2,2,2,2,2,2,2,2,1,2,2
13,2,2,2,2,2,2,2,2,2,2,2,2,2,2,1,1,2,2
13,2,2,2,2,2,1,2,2,2,2,2,2,2,2,2,1,1,2
13,2,2,2,2,2,2,2,1,2,2,2,2,2,2,2,1,1,2
13,2,2,2,2,2,2,2,2,2,2,2,2,2,2,2,1,2,2
13,2,2,2,2,2,2,2,2,2,2,2,2,2,2,2,2,2,2
13,2,2,2,2,2,1,1,1,1,2,2,2,2,2,2,1,2,2
13,2,2,2,2,2,2,2,2,2,2,2,2,2,2,1,1,2,1
13,2,2,2,2,1,2,2,2,2,2,2,2,2,2,2,1,2,2
13,2,2,2,2,2,2,2,2,2,2,2,2,2,2,2,2,2,2
13,1,2,2,2,2,2,2,1,2,2,2,2,2,1,2,2,2,2
13,2,2,2,2,2,2,2,1,2,2,2,2,2,2,2,1,2,2
13,2,1,2,1,1,2,2,1,2,2,2,2,2,2,2,1,2,2
13,2,2,2,2,2,2,2,2,2,2,2,2,2,2,2,2,2,2
13,2,2,2,2,2,2,2,2,2,2,2,2,2,1,2,2,NA,2
13,2,1,2,2,2,2,2,2,2,2,2,2,2,1,2,2,2,2
13,2,1,1,2,2,2,2,2,2,2,2,2,1,1,1,1,2,2
13,2,2,2,2,2,2,2,1,2,2,2,2,2,2,2,1,2,2
13,2,2,2,2,2,2,2,2,2,2,2,2,2,1,2,1,2,2
13,2,1,1,2,1,2,2,2,1,2,2,2,2,2,2,2,2,2
13,2,2,2,2,2,2,2,1,2,2,2,2,2,2,1,1,2,2
13,2,2,2,2,1,2,2,2,2,2,2,2,2,1,2,1,1,2
13,2,2,2,2,2,2,2,2,2,2,2,2,2,2,2,1,2,2
13,2,2,2,2,2,2,1,1,2,2,2,2,2,2,1,1,2,2
13,2,2,2,2,2,2,2,1,2,1,2,1,2,2,1,1,2,2
13,2,1,2,2,1,2,2,1,2,2,2,2,2,2,2,1,2,2
13,2,1,2,2,1,2,2,1,1,2,2,2,1,2,2,1,NA,2
13,2,2,2,2,2,2,2,2,2,2,2,2,2,1,2,2,2,2
13,2,2,2,2,1,2,2,2,2,2,2,1,2,2,2,1,2,2
13,2,2,2,2,1,1,2,2,2,2,2,2,2,2,1,1,2,2
13,2,2,2,2,2,2,2,2,2,2,2,2,2,1,2,2,1,2
13,2,1,2,2,1,1,2,2,2,2,2,2,2,1,2,NA,NA,NA
13,2,1,1,2,1,2,1,2,1,2,2,2,2,2,2,1,2,2
13,2,1,2,2,2,1,2,2,2,2,2,2,2,2,2,2,2,2
13,2,2,2,2,2,1,2,2,2,2,2,1,1,1,2,2,2,2
13,2,2,2,2,2,2,2,1,2,2,2,2,2,NA,2,1,1,2
13,2,2,2,2,2,2,2,2,2,2,2,2,2,2,2,1,2,2
13,2,2,2,2,2,2,2,1,2,2,2,2,2,2,2,2,2,2
13,2,2,2,1,1,2,1,1,1,2,2,2,2,2,2,1,1,1
13,2,2,2,2,2,2,2,2,2,2,2,2,2,2,2,2,2,2
13,2,2,2,2,2,2,1,2,2,2,2,2,2,2,2,1,1,2
13,2,2,2,2,1,2,2,1,2,2,2,2,2,2,2,1,2,2
13,2,2,2,2,2,2,1,2,2,2,2,1,2,2,2,NA,2,2
13,2,2,2,2,1,2,2,2,2,2,2,2,2,2,2,1,1,2
13,2,2,2,2,2,2,2,2,2,2,2,2,2,2,2,1,1,2
13,2,1,1,2,1,2,1,1,2,2,2,2,2,2,2,1,2,2
13,2,2,2,2,2,2,2,2,2,2,2,2,2,2,2,1,2,2
13,2,2,2,2,2,2,2,1,2,2,2,2,2,1,2,2,2,2
13,2,2,2,2,2,2,1,2,1,2,2,2,2,2,1,2,2,2
13,2,2,2,2,2,2,2,2,2,2,2,1,2,2,2,1,2,2
13,2,2,2,2,2,2,1,1,2,2,2,2,2,2,2,1,2,2
13,2,1,1,2,1,2,1,2,1,2,2,2,2,2,1,1,2,2
13,2,2,2,2,2,2,2,2,2,2,2,2,1,2,2,2,1,2
13,2,2,2,2,2,2,2,2,2,2,2,2,2,2,2,2,2,2
13,2,1,2,2,2,2,1,1,2,2,2,2,2,2,2,1,1,2
13,2,2,2,2,2,2,2,2,1,2,2,2,2,2,1,1,2,2
13,2,2,2,2,2,2,1,1,2,2,2,2,2,2,2,1,1,2
13,2,2,2,2,2,2,2,2,1,2,2,2,2,2,2,1,2,2
13,2,2,2,2,2,2,2,2,2,2,2,2,1,2,2,1,2,2
13,2,2,2,2,2,2,2,2,2,2,2,2,1,1,2,2,2,2
13,2,2,2,2,2,2,2,1,2,2,2,2,2,2,2,2,2,2
13,2,2,2,2,2,2,1,2,2,2,2,2,2,2,2,1,2,2
13,2,2,2,2,2,2,1,2,2,2,2,2,2,2,2,1,2,2
13,2,2,2,2,2,2,2,2,2,2,2,2,2,2,2,1,2,2
13,2,2,2,2,2,2,2,2,2,2,2,2,2,1,2,1,2,2
13,2,2,2,2,2,2,2,2,2,2,2,2,2,2,2,1,2,2
13,2,2,2,2,2,2,2,2,2,2,2,2,2,2,2,1,2,2
13,2,2,2,2,2,2,1,2,2,2,2,2,2,2,2,1,2,2
13,2,2,2,2,2,2,2,2,2,2,2,2,2,2,2,1,1,2
13,1,1,2,2,2,1,2,2,2,2,2,2,2,2,2,1,2,2
13,2,2,2,2,2,2,2,2,2,2,2,2,2,2,2,1,1,2
13,2,2,2,2,2,2,2,2,2,2,2,1,2,2,1,1,2,2
13,2,2,2,2,2,2,2,2,2,2,2,2,2,2,2,1,2,2
13,2,2,2,2,2,2,2,2,2,2,2,2,2,2,2,1,2,2
13,2,2,2,2,2,2,2,1,2,2,2,1,2,2,2,1,2,2
13,2,2,2,2,2,2,2,2,2,2,2,1,1,1,2,2,2,2
13,2,2,2,2,2,2,2,2,2,2,2,2,2,1,2,2,1,2
13,2,1,2,1,1,2,1,2,2,2,1,2,2,1,1,1,2,1
13,2,2,2,2,2,NA,2,2,2,2,2,2,2,2,2,1,2,2
13,2,2,2,2,2,2,2,2,2,2,2,2,2,2,2,1,2,2
13,2,2,2,2,2,2,2,1,1,2,2,2,2,2,2,1,2,2
13,1,2,2,2,2,2,2,2,1,2,2,1,2,2,2,1,1,2
13,2,2,2,2,2,2,1,2,2,2,2,1,1,1,1,2,2,2
13,2,2,2,2,2,2,2,2,2,2,2,2,2,2,2,1,2,2
13,2,2,2,2,2,2,2,2,2,2,2,2,2,2,2,1,2,2
13,2,2,2,2,2,2,2,1,2,2,2,2,2,1,2,1,1,2
13,2,1,2,2,2,2,2,2,2,2,2,2,2,2,1,1,2,2
13,2,2,2,2,2,2,2,2,2,2,2,2,2,2,2,2,1,2
13,2,2,2,2,2,2,1,1,1,2,2,1,2,2,2,2,2,2
13,2,2,2,2,2,2,2,2,1,2,2,2,2,2,2,1,2,2
13,2,2,2,2,2,2,1,1,2,2,2,2,2,2,1,1,2,2
13,2,2,2,NA,2,NA,2,2,2,2,2,2,2,2,2,2,2,2
13,2,2,2,2,2,2,2,1,2,2,2,2,2,1,1,1,2,2
13,1,2,2,2,2,2,1,1,2,2,2,2,2,2,2,1,2,2
13,2,2,2,2,2,2,2,2,2,2,2,2,2,2,2,1,2,2
13,2,2,2,2,2,2,2,2,2,2,2,2,2,2,2,1,2,2
13,2,2,2,2,2,1,2,2,2,2,2,1,2,2,2,2,2,2
13,2,2,2,2,2,2,2,1,2,2,2,2,2,2,2,1,2,2
13,2,2,2,2,2,2,2,2,2,2,2,2,2,2,2,2,2,2
13,2,2,2,2,2,2,2,2,2,2,2,2,2,2,2,1,2,2
13,2,1,1,2,1,2,2,2,2,2,2,1,1,2,2,1,2,2
13,2,2,2,2,2,2,2,1,2,2,2,2,2,2,2,2,2,2
13,2,2,2,2,2,2,1,1,2,2,2,2,2,2,2,1,2,2
13,2,2,2,2,2,2,2,2,2,2,2,2,2,2,1,1,2,2
13,2,2,2,2,2,2,2,1,2,2,2,2,1,1,2,1,2,2
13,1,2,2,2,2,2,2,1,2,2,2,2,2,2,2,1,1,2
13,2,2,2,2,2,2,2,2,2,2,2,2,2,2,2,2,2,2
13,2,2,2,2,2,2,1,2,1,2,2,2,2,2,2,2,2,2
13,2,2,2,2,2,2,2,2,2,2,2,2,2,2,2,1,2,2
13,2,2,2,2,2,2,2,2,2,2,2,2,2,2,2,1,2,2
13,2,2,2,2,2,2,2,1,2,1,2,2,2,2,2,1,1,2
13,2,2,2,2,1,2,2,1,2,2,2,1,2,2,2,2,2,2
13,2,2,2,2,2,2,1,1,2,2,2,2,1,1,1,2,2,2
13,2,2,2,2,2,2,2,2,2,2,2,2,2,2,2,1,2,2
13,2,2,2,2,2,1,2,2,2,2,2,2,2,2,2,1,2,2
13,2,2,2,2,2,2,2,2,2,2,2,2,2,2,2,1,2,2
13,2,2,2,2,2,2,1,2,2,2,2,1,2,1,1,1,1,2
13,2,2,2,2,2,2,2,2,2,2,2,2,1,2,2,2,2,2
13,2,2,2,2,2,2,2,2,2,2,2,2,2,2,2,1,2,2
13,2,2,2,2,2,2,2,2,2,2,2,2,2,2,2,1,2,2
13,2,1,2,1,1,1,1,2,1,2,2,2,2,2,2,1,2,2
13,2,2,2,2,2,2,2,2,2,2,2,2,2,2,2,1,2,2
13,2,2,2,2,2,2,2,2,2,2,2,2,2,2,2,1,2,2
13,2,2,2,2,2,2,2,2,2,2,2,2,2,2,1,1,2,2
13,2,2,2,2,2,2,2,2,2,2,2,2,1,1,2,2,2,2
13,2,2,2,2,2,2,1,2,2,2,2,1,2,2,2,1,2,2
13,2,2,2,2,2,2,2,1,2,2,2,2,2,2,2,1,2,2
13,2,2,2,2,2,2,2,1,2,2,2,2,2,2,2,1,2,2
13,1,1,1,1,1,2,2,2,2,2,2,2,2,2,2,1,2,2
13,2,2,2,2,2,2,1,1,2,2,2,2,2,2,2,2,NA,2
13,2,2,2,2,2,2,2,2,2,2,2,1,1,1,2,1,2,2
13,2,2,2,2,2,2,2,2,2,2,2,2,2,2,2,1,2,2
13,2,2,2,2,2,2,2,2,2,2,2,2,2,2,2,2,2,2
13,2,2,2,2,2,2,2,2,2,2,2,2,1,2,2,2,1,2
13,2,2,2,2,2,1,1,1,2,2,2,2,2,2,2,1,2,2
13,2,2,2,2,2,2,2,2,2,2,2,2,2,2,2,1,2,2
13,2,2,2,2,2,2,2,2,2,2,2,2,2,2,2,1,2,2
13,2,2,2,2,2,2,2,2,2,2,2,2,2,2,2,2,2,2
13,2,1,2,2,1,2,2,1,2,2,2,2,2,2,2,1,1,1
13,2,2,2,2,2,2,2,2,2,2,2,2,2,2,2,1,1,2
13,2,2,2,2,1,2,1,2,2,2,2,2,2,2,2,1,2,2
13,2,2,2,2,2,1,2,2,2,2,2,2,2,2,2,1,2,2
13,2,2,2,2,2,2,2,2,2,2,2,2,2,2,2,1,2,2
13,2,2,2,2,2,2,1,1,2,2,2,2,2,2,2,1,1,2
13,2,1,2,2,1,1,2,2,1,2,2,2,2,2,2,1,2,2
13,2,2,2,2,2,2,2,1,2,1,2,2,2,2,2,2,2,2
13,2,2,2,2,2,2,2,2,2,2,2,2,2,2,2,2,2,2
13,2,2,2,2,2,2,2,2,2,2,2,2,2,2,1,1,2,2
13,2,2,2,2,2,2,2,1,2,2,2,2,2,2,1,1,2,2
13,2,1,2,2,1,2,2,2,2,2,2,2,2,2,2,1,2,2
13,2,2,2,2,2,1,2,2,2,2,2,2,2,2,1,1,2,2
13,2,2,2,2,2,2,2,2,2,2,2,2,2,1,2,1,2,2
13,2,2,2,2,2,2,2,1,2,2,2,2,2,2,2,1,1,2
13,2,2,2,2,2,2,1,2,2,2,2,2,2,2,2,2,2,2
13,2,1,2,2,1,2,2,2,2,2,2,2,2,2,2,2,2,2
13,2,1,2,2,2,1,2,2,2,2,2,2,2,2,1,1,2,2
13,2,2,2,2,2,2,2,2,2,2,2,2,2,2,2,1,2,2
13,2,2,2,2,2,2,2,2,2,2,2,2,2,2,2,1,2,2
13,2,1,1,1,1,2,2,2,1,1,2,2,2,2,1,1,2,2
13,2,1,2,2,1,1,2,2,2,2,2,2,2,2,2,1,2,2
13,2,2,2,2,2,2,1,2,2,2,2,2,2,2,2,1,2,2
13,2,2,2,2,2,2,2,2,2,2,2,1,2,2,2,1,2,2
13,2,2,2,2,2,2,2,2,2,2,2,NA,2,2,2,1,2,2
13,2,1,2,2,2,2,2,2,2,2,2,2,2,2,1,1,1,2
13,2,2,2,2,2,2,2,2,2,2,2,2,2,2,2,1,2,2
13,2,2,2,2,2,2,2,2,2,2,2,2,2,2,2,1,2,2
13,2,2,2,2,2,1,1,1,1,2,2,1,2,2,2,1,2,2
13,2,1,2,2,2,2,2,2,2,2,2,2,2,1,2,2,2,2
13,2,2,2,2,2,2,2,2,2,2,2,2,2,2,2,2,2,2
13,2,2,2,1,2,2,2,2,1,1,2,1,2,2,1,1,2,2
13,2,1,1,1,1,1,1,2,1,2,2,2,2,1,1,1,2,2
13,2,2,2,2,2,2,2,1,2,2,2,1,2,2,2,1,2,2
13,NA,1,NA,2,2,2,2,2,2,2,2,2,2,2,2,2,2,2
13,2,2,2,2,2,2,2,2,2,2,2,2,2,2,2,1,2,2
13,2,2,2,2,2,2,2,2,2,2,2,2,2,2,2,1,2,2
13,2,2,2,2,1,1,2,2,2,2,2,2,2,2,1,1,2,2
13,2,2,2,2,2,2,1,2,2,2,2,2,2,2,2,NA,NA,2
13,1,2,2,2,2,1,2,1,2,2,2,2,2,2,2,1,2,2
13,2,2,2,2,2,2,2,2,2,2,2,1,2,2,2,1,1,1
13,2,2,2,2,2,2,2,2,2,2,2,2,2,2,2,2,2,2
13,2,2,2,2,2,2,2,2,2,2,2,2,1,2,2,1,2,2
13,2,2,2,2,2,1,1,2,1,1,1,1,2,2,1,1,1,1
13,2,2,2,2,2,2,1,2,2,2,2,2,2,2,2,2,2,2
13,2,2,2,2,2,1,1,1,2,2,2,2,2,2,2,1,2,2
13,2,2,2,2,2,2,2,2,2,2,2,2,2,2,2,2,1,2
13,2,2,2,2,2,2,1,1,2,2,2,2,2,2,2,1,2,2
13,2,2,2,2,2,2,1,2,2,2,2,2,2,2,2,1,2,2
13,1,1,1,2,2,2,2,2,2,2,2,2,2,2,1,1,2,2
13,2,2,2,2,1,1,1,1,1,2,2,2,2,1,1,1,2,2
13,2,2,2,2,2,2,2,2,2,2,2,2,2,2,2,1,2,2
13,2,2,2,2,2,2,1,1,1,2,2,2,2,2,1,1,2,2
13,2,2,2,2,1,2,2,1,2,2,2,2,2,2,2,2,2,2
13,2,2,2,2,2,2,2,2,2,2,2,2,2,2,2,1,1,2
13,2,2,2,2,2,2,2,2,2,2,2,2,2,2,2,1,2,2
13,2,2,2,2,2,2,2,2,2,1,1,2,2,2,2,1,2,2
13,2,2,2,2,2,2,1,1,1,2,2,2,2,2,2,1,2,2
13,1,2,1,2,2,2,2,2,2,2,2,2,1,1,2,1,2,2
13,2,2,2,2,2,2,2,2,2,2,2,1,2,2,2,2,2,2
13,1,1,2,1,2,1,1,2,1,2,2,1,2,2,1,1,2,2
13,2,2,2,2,2,2,2,2,2,2,2,1,1,1,2,1,2,2
13,2,2,2,2,1,2,2,2,2,2,2,2,2,2,2,1,2,2
13,2,2,2,2,2,2,2,2,2,2,2,2,2,2,2,1,2,2
13,2,2,2,2,2,2,2,2,2,2,2,2,2,2,2,1,2,2
13,2,2,2,2,2,2,1,1,2,2,2,2,2,2,2,2,2,2
13,2,1,1,2,1,2,2,1,2,2,2,2,2,2,2,1,2,2
13,2,2,2,2,2,1,1,1,2,1,2,1,2,2,2,1,1,2
13,2,2,2,2,2,2,2,1,2,2,2,2,1,2,2,2,2,2
13,2,2,2,2,1,2,1,1,2,2,2,2,2,2,2,1,2,2
13,2,2,2,2,2,2,2,1,2,2,2,2,1,2,2,2,2,2
13,2,2,2,NA,2,2,2,2,2,2,2,2,2,2,2,1,2,2
13,2,2,2,2,2,2,1,1,2,2,2,2,2,2,2,1,2,2
13,2,1,2,2,1,2,2,1,2,2,2,2,2,2,2,1,2,2
13,2,2,2,2,2,1,2,2,2,2,2,2,1,2,1,2,2,1
13,2,2,2,2,2,2,2,1,2,2,2,1,2,1,2,1,2,2
13,2,2,2,2,2,2,2,2,2,2,2,2,2,2,2,1,2,2
13,2,2,2,2,2,2,2,2,2,2,2,2,2,2,2,1,2,2
13,2,2,2,2,2,2,2,2,2,2,2,2,2,2,2,1,1,2
13,2,2,2,2,2,2,2,1,2,2,2,2,2,2,1,1,2,2
13,2,2,2,2,2,2,2,2,2,2,2,2,2,2,2,1,2,2
13,2,2,2,2,2,1,2,2,2,1,2,1,2,2,2,1,2,2
13,2,2,2,2,2,2,1,2,2,2,2,2,2,1,2,1,2,2
13,2,1,2,2,1,2,1,2,2,2,2,2,2,2,2,1,2,2
13,2,1,1,2,2,1,2,2,2,2,2,2,2,1,2,2,2,2
13,2,1,2,2,2,2,1,2,2,1,2,2,2,2,1,1,1,2
13,2,2,2,2,2,2,2,1,2,2,2,2,1,1,2,1,2,2
13,2,2,2,2,2,2,2,2,2,2,2,2,2,1,2,1,2,2
13,2,2,2,2,2,1,2,2,2,2,2,2,2,2,2,1,2,2
13,2,2,2,2,2,2,2,2,2,2,2,2,2,2,2,1,2,2
13,2,2,2,2,2,2,2,2,2,2,2,2,2,2,2,1,2,2
13,2,2,2,2,2,2,1,1,1,2,2,2,2,2,2,1,2,2
13,2,2,2,2,2,2,2,1,2,2,2,2,2,2,2,2,2,2
13,2,2,2,2,2,2,2,1,2,2,2,2,2,2,2,1,1,2
13,2,1,2,2,2,1,2,1,1,2,2,2,2,2,2,2,1,2
13,2,2,2,2,2,2,2,2,2,2,2,2,2,2,1,2,2,2
13,2,2,2,2,2,2,1,2,2,2,2,2,2,2,2,2,2,2
13,2,2,2,2,2,2,1,2,2,2,2,2,2,2,2,2,2,2
13,2,2,2,2,2,2,2,2,2,2,2,2,1,1,2,2,2,2
13,2,2,2,2,2,2,2,2,2,2,2,2,2,2,1,1,2,2
13,2,2,2,2,2,2,2,2,2,2,2,2,2,2,2,1,2,2
13,2,2,2,2,1,2,2,2,2,2,2,2,2,2,2,1,2,2
13,2,2,2,2,2,2,2,1,2,2,2,1,1,1,2,1,2,2
13,2,2,2,2,2,2,2,1,2,2,2,2,2,2,2,1,2,2
13,2,2,2,2,2,2,1,2,2,2,2,2,2,2,2,1,1,2
13,2,2,2,2,2,1,2,2,2,2,2,2,2,2,2,1,2,2
13,2,2,2,2,2,2,2,1,2,2,2,2,2,2,1,1,1,1
13,2,2,2,2,2,2,2,1,2,2,2,2,2,2,2,1,1,2
13,2,2,2,2,2,1,2,2,2,2,2,2,2,2,2,1,2,2
13,2,2,2,2,2,2,2,1,2,1,2,2,2,1,2,2,2,2
13,2,2,2,2,2,2,2,2,2,2,2,2,2,2,2,2,2,2
13,2,2,2,2,2,2,2,2,2,2,2,2,1,1,2,2,NA,2
13,2,2,2,2,2,2,1,1,2,2,2,2,2,2,2,1,2,2
13,2,1,2,2,1,2,2,1,2,2,2,2,2,2,2,2,2,2
13,2,2,2,2,2,2,2,2,1,2,2,1,2,1,2,2,2,2
13,2,2,2,2,2,2,2,2,2,2,2,2,2,1,2,2,2,2
13,2,2,2,2,2,2,2,1,2,2,2,2,2,2,2,1,2,2
13,2,2,2,2,2,2,2,1,1,2,2,2,2,2,1,1,2,2
13,2,2,2,2,2,2,2,2,2,2,2,2,2,2,2,2,2,2
13,2,2,2,2,2,2,2,2,2,2,2,2,2,2,2,1,2,2
13,2,2,2,2,1,2,2,2,2,2,2,2,2,2,2,1,2,2
13,2,2,2,2,2,2,2,2,2,2,2,2,2,2,2,1,2,2
13,2,2,2,2,1,2,2,1,1,2,2,1,2,1,1,1,2,2
13,1,NA,1,1,2,1,2,2,1,2,2,2,2,2,2,1,2,2
13,2,2,2,2,2,2,2,2,2,2,2,2,2,2,2,2,2,2
13,2,2,2,2,2,2,2,2,2,2,2,2,2,2,2,1,2,2
13,2,2,2,2,2,2,2,2,2,2,2,2,2,2,2,2,1,2
13,2,2,2,2,2,2,2,2,2,2,2,2,2,2,2,1,2,2
13,2,2,2,2,2,2,2,2,2,2,2,2,1,1,2,2,2,2
13,2,2,2,2,2,2,2,1,2,2,2,2,2,1,2,2,2,2
13,2,2,2,2,2,2,2,1,2,2,2,2,2,2,1,1,1,2
13,2,2,2,2,2,2,2,2,2,2,2,2,2,2,2,2,2,2
13,2,2,2,2,2,2,2,2,2,2,2,2,2,2,1,1,2,2
13,1,2,2,2,2,2,2,2,2,2,2,2,2,2,2,1,2,2
13,2,2,2,2,2,2,2,2,2,2,2,2,2,2,2,1,2,2
13,2,2,2,2,2,2,2,1,2,2,2,2,2,2,2,1,2,2
13,2,2,2,2,2,2,2,2,2,2,2,2,2,2,2,2,2,2
13,2,2,2,2,2,2,2,2,2,2,2,2,2,1,2,2,2,2
13,2,1,1,2,2,1,2,1,1,2,2,2,2,2,2,1,2,2
13,2,1,2,2,1,2,2,2,2,2,2,2,2,2,1,1,1,2
13,2,2,2,2,2,2,2,2,2,2,2,2,2,2,2,2,2,2
13,2,1,2,2,1,2,1,1,1,2,2,2,2,2,2,1,2,2
13,2,2,2,2,2,2,2,1,2,2,2,2,1,1,2,1,2,2
13,2,2,2,1,2,2,2,2,2,2,2,2,2,2,1,2,2,2
13,2,2,2,2,1,2,2,2,2,2,2,2,2,2,2,2,2,2
13,2,2,2,2,2,2,2,1,2,2,2,2,2,2,2,2,2,2
13,2,2,2,2,2,2,1,1,1,2,2,2,2,2,2,2,2,2
13,2,1,2,2,1,2,2,2,2,2,2,2,2,2,2,1,2,2
13,2,2,2,2,2,2,2,2,1,2,2,2,2,2,2,1,2,2
13,2,2,2,2,2,2,2,2,2,2,2,2,2,2,2,2,2,2
13,2,1,2,2,1,2,1,1,2,2,2,2,2,2,2,1,2,2
13,2,2,2,2,2,2,2,2,2,2,2,2,2,2,2,1,2,2
13,2,2,2,2,2,2,2,2,2,2,2,2,2,2,2,2,2,2
13,2,2,2,2,2,1,2,1,2,2,2,1,2,2,2,1,2,2
13,2,2,2,2,2,2,2,2,2,2,2,2,2,2,1,1,2,2
13,2,2,2,2,2,2,2,2,2,2,2,2,1,2,2,2,2,2
13,2,2,2,2,1,2,2,2,2,2,2,2,2,2,2,1,2,2
13,2,2,2,2,2,2,1,2,2,2,2,2,2,2,2,1,2,2
13,2,2,2,2,2,2,2,1,2,2,2,2,2,2,2,2,2,2
13,2,2,2,2,2,2,2,2,2,2,2,2,2,2,2,1,2,2
13,2,1,2,2,1,2,2,2,2,2,NA,2,2,2,2,1,2,2
13,2,2,2,2,2,2,2,1,2,2,2,2,2,2,2,1,2,2
13,2,1,2,2,1,2,2,2,2,2,2,2,1,2,1,1,2,2
13,2,2,2,2,2,2,1,2,2,2,2,2,2,2,2,1,2,2
13,2,2,2,2,1,1,1,2,2,2,2,2,2,2,2,1,2,2
13,2,1,2,2,2,2,1,2,2,2,2,2,2,2,2,1,1,2
13,2,2,2,2,2,2,2,2,2,2,2,2,1,2,2,1,2,2
13,2,2,2,2,2,2,1,2,2,2,2,2,2,2,1,1,2,2
13,2,2,2,2,2,2,2,2,2,2,2,2,1,1,2,2,2,2
13,2,1,2,2,2,2,2,2,2,2,2,2,2,2,2,1,2,2
13,2,2,2,2,2,2,2,2,2,2,2,2,2,2,1,2,2,2
13,2,2,1,2,2,2,2,2,2,2,2,1,1,1,2,2,2,2
13,2,2,2,2,2,NA,2,2,2,2,2,2,2,2,2,2,2,2
13,2,2,2,2,2,2,2,1,2,2,2,2,2,2,2,1,2,2
13,2,2,2,2,2,2,2,1,2,2,2,2,2,2,1,1,2,2
13,2,2,2,2,2,2,2,2,2,2,2,2,2,2,2,1,1,2
13,2,2,2,2,2,2,2,2,2,2,2,2,2,2,2,1,1,2
13,2,2,2,2,2,2,2,2,2,2,2,1,2,2,2,1,2,2
13,2,2,1,2,1,2,1,2,1,2,2,1,2,2,2,1,NA,2
13,2,2,2,2,2,1,2,2,2,2,2,2,2,2,1,1,2,2
13,2,2,2,2,2,2,2,1,2,2,2,2,2,2,2,1,2,2
13,2,2,2,2,2,2,2,2,2,2,2,2,1,1,1,2,2,2
13,2,2,2,2,2,2,2,2,2,2,2,2,2,1,2,2,2,2
13,2,2,2,2,2,2,1,2,2,2,2,2,1,2,2,1,2,2
13,2,2,2,2,2,2,2,2,2,2,2,2,2,2,2,1,2,2
13,2,2,2,2,2,2,2,1,2,2,2,2,2,2,1,2,2,2
13,2,2,2,2,2,1,2,1,2,2,2,2,2,2,2,1,2,2
13,1,1,1,2,1,2,2,2,2,2,2,2,2,2,2,1,2,2
13,2,2,2,2,2,2,2,2,2,1,2,2,2,2,2,2,2,2
13,2,2,2,2,2,2,2,2,2,2,2,2,2,2,2,1,2,2
13,1,1,1,2,2,2,1,2,1,2,2,2,2,2,2,2,2,2
13,2,2,2,2,2,1,2,2,1,2,2,1,1,1,2,1,2,2
13,2,2,2,2,2,2,1,1,2,2,2,2,2,2,2,2,2,2
13,2,1,2,2,1,2,1,1,2,2,2,2,2,2,2,1,2,2
13,2,1,1,2,2,2,2,1,2,2,2,2,2,2,2,2,2,2
13,2,2,2,2,2,2,2,2,2,2,2,2,2,2,2,1,2,2
13,2,2,2,2,2,2,2,2,2,2,2,2,2,2,2,1,2,2
13,2,2,2,2,2,2,1,2,2,2,2,2,1,1,1,1,2,2
13,2,2,2,2,2,2,2,1,2,2,2,2,2,2,2,1,1,2
13,2,2,2,2,2,2,1,2,2,2,2,1,2,1,2,2,2,2
13,2,2,2,2,2,2,2,2,2,2,2,1,2,2,2,1,1,2
13,1,1,1,2,1,2,1,2,2,2,2,2,1,2,2,1,2,2
13,2,2,2,2,2,2,2,2,2,2,2,2,2,2,2,1,2,2
13,2,2,2,2,2,2,1,2,2,2,2,2,1,2,2,1,1,2
13,2,2,2,2,2,2,2,2,2,2,2,2,2,2,2,1,1,2
13,2,1,2,2,2,2,2,2,2,2,2,2,2,2,2,1,2,2
13,2,2,2,2,2,2,1,2,2,2,2,2,2,2,1,1,2,2
13,2,1,2,2,1,2,1,2,1,2,2,1,2,2,2,1,1,2
13,2,2,2,2,2,2,2,2,2,2,2,2,2,2,2,1,2,2
13,2,2,2,2,1,2,1,2,2,2,2,2,2,2,1,1,2,2
13,2,2,1,2,2,2,2,2,2,2,2,2,2,2,2,2,2,2
13,2,1,2,2,2,1,1,1,1,1,1,1,2,2,1,1,2,2
13,2,2,2,2,2,2,2,2,2,2,2,2,2,2,2,1,1,2
13,2,1,2,2,1,1,1,2,1,1,1,1,1,2,1,1,2,2
13,2,2,2,2,2,2,2,2,2,2,2,2,2,2,2,1,2,2
13,2,2,2,2,2,2,2,2,2,2,2,2,2,2,2,2,2,2
13,2,2,2,2,2,2,1,2,2,2,2,2,2,2,2,NA,NA,NA
13,2,1,1,2,1,2,1,1,2,2,2,2,2,2,2,1,2,2
13,2,2,2,2,2,2,2,2,2,2,2,2,2,2,2,1,2,2
13,2,1,2,2,1,2,1,2,2,2,2,2,2,2,2,2,2,2
13,2,2,2,2,2,2,2,2,2,2,2,2,2,2,2,1,2,2
13,2,1,2,2,2,1,2,2,1,2,2,2,2,2,2,1,2,2
13,2,2,2,2,2,2,2,2,2,2,2,2,2,2,2,1,2,2
13,2,2,2,2,2,2,2,1,2,2,2,2,2,2,2,2,2,2
13,2,2,2,2,2,2,2,1,2,2,2,2,1,1,1,2,1,2
13,2,1,2,2,1,2,2,1,2,2,2,2,2,2,2,1,2,2
13,2,2,2,2,2,2,1,1,2,2,2,1,2,1,2,2,2,2
13,1,1,2,2,1,2,2,1,2,1,2,1,2,1,1,1,2,2
13,2,2,2,2,2,2,1,2,1,2,2,2,2,2,2,1,2,2
13,2,2,2,2,2,1,2,2,2,2,2,2,2,1,2,1,2,2
13,2,2,2,2,2,2,2,2,2,2,2,2,2,2,2,1,2,2
13,2,2,2,2,2,2,2,1,2,2,2,2,2,2,2,2,2,2
13,2,2,2,1,2,2,2,2,2,2,2,2,1,1,2,2,1,2
13,2,1,2,2,2,2,2,2,1,2,2,2,1,1,1,1,2,2
13,2,2,2,2,2,2,2,1,2,2,2,2,2,NA,2,2,2,2
13,2,2,2,2,2,2,2,2,2,2,2,2,1,2,1,2,2,2
13,2,2,2,2,2,2,1,2,2,2,2,2,2,2,1,1,2,2
13,2,2,2,2,2,1,1,2,2,2,2,2,2,1,2,1,2,2
13,2,2,2,2,2,1,2,2,2,2,2,2,2,2,2,1,2,2
13,2,2,2,2,2,2,1,1,2,2,2,2,1,2,2,1,1,2
13,2,2,2,2,2,2,2,1,2,2,2,2,2,2,2,1,2,2
13,2,2,2,2,2,2,1,2,2,2,2,2,2,2,2,1,2,2
13,2,2,2,2,2,2,2,2,2,2,2,2,2,2,2,2,2,2
13,2,2,2,2,2,1,2,1,2,2,2,1,2,2,2,2,2,2
13,2,2,2,2,2,2,2,2,2,2,2,1,1,2,2,2,2,2
13,2,2,2,2,2,2,2,2,2,2,2,2,2,2,2,1,2,2
13,2,2,2,2,2,2,1,2,2,2,2,2,2,2,1,1,2,2
13,2,2,2,2,2,2,2,2,2,2,2,2,2,2,2,2,2,2
13,2,2,2,2,2,2,1,2,2,2,2,2,2,2,2,1,2,2
13,2,2,2,2,2,2,2,2,2,2,2,2,2,2,2,1,2,2
13,2,1,2,2,1,2,1,2,2,2,2,2,2,2,2,1,2,2
13,2,2,2,2,2,2,2,2,1,2,2,2,1,2,2,1,2,NA
13,2,2,2,2,2,2,1,2,2,2,2,2,2,2,2,1,2,2
13,2,2,2,2,1,2,2,2,2,2,2,2,2,2,2,2,1,2
13,2,2,2,2,2,2,2,2,2,2,2,2,2,2,2,2,2,2
13,2,2,2,2,2,2,1,2,2,2,2,2,2,2,2,1,2,2
13,2,2,2,2,2,2,2,1,2,2,2,1,1,1,1,2,2,2
13,2,2,2,2,2,2,2,2,2,2,2,2,2,2,2,1,2,2
13,2,2,2,2,2,2,1,2,2,2,2,2,2,2,2,1,2,2
13,2,2,2,2,2,2,1,2,1,2,2,2,2,2,2,1,2,2
13,2,2,2,2,2,2,2,2,1,2,2,2,2,2,2,1,2,2
13,2,2,2,2,1,2,2,2,2,2,2,2,2,2,2,1,2,2
13,2,2,2,2,1,2,2,2,2,2,2,2,2,2,2,2,2,2
13,2,2,2,2,2,2,2,1,2,2,2,2,2,2,1,2,2,2
13,2,2,2,2,2,2,2,1,2,2,2,1,2,2,2,1,2,2
13,2,2,1,2,2,2,2,2,2,2,2,2,2,2,2,1,2,2
13,2,2,2,2,2,2,1,1,2,2,2,2,2,2,2,1,2,2
13,2,2,2,2,2,2,2,2,2,2,2,2,2,2,2,1,2,2
13,2,1,2,2,2,2,2,2,2,2,2,2,2,2,1,1,2,2
13,2,2,2,2,2,2,2,2,2,2,2,2,2,2,2,1,2,2
13,2,2,1,2,2,2,2,2,2,2,2,2,2,2,2,1,2,2
13,2,2,2,2,2,2,2,1,2,2,2,2,1,2,2,2,2,2
13,1,1,1,2,2,2,2,2,2,2,2,1,2,2,2,1,2,2
13,2,1,2,2,1,2,2,1,2,1,2,2,2,1,2,2,2,2
13,2,2,2,2,2,2,2,2,2,2,2,2,2,2,2,2,2,2
13,2,2,2,2,2,2,2,2,2,2,2,2,1,2,2,2,2,2
13,2,2,2,2,1,2,2,1,2,2,2,2,2,2,1,1,2,2
13,2,2,2,2,2,2,2,1,2,2,2,2,2,2,2,2,1,2
13,2,2,2,2,2,1,2,2,2,2,2,2,2,2,2,1,2,2
13,2,2,2,2,2,2,2,2,2,2,2,1,2,2,NA,2,2,2
13,2,2,2,1,2,2,2,2,1,2,2,1,1,1,2,1,2,2
13,2,2,2,2,2,2,2,2,2,2,2,2,2,2,1,1,2,2
13,2,2,2,2,2,2,2,1,2,2,2,2,2,2,2,2,2,2
13,2,2,2,2,2,2,2,2,2,2,2,2,2,2,2,2,2,2
13,2,2,2,2,2,2,2,2,2,2,2,2,2,1,2,1,2,2
13,2,2,2,2,2,2,2,2,2,2,2,2,2,2,1,1,2,2
13,2,2,2,2,2,1,2,2,2,2,2,1,2,1,2,2,2,2
13,2,2,2,2,1,2,2,2,2,2,2,2,2,2,2,1,2,2
13,2,2,2,2,2,2,2,1,2,2,2,2,2,2,1,1,2,2
13,2,2,2,2,2,2,1,1,2,2,2,2,2,2,2,1,1,2
13,2,2,2,2,2,2,2,2,2,2,2,2,2,2,1,2,2,2
13,2,2,2,2,2,2,2,2,1,2,2,2,2,2,2,2,2,2
13,2,2,2,2,2,2,2,2,2,2,2,2,1,1,2,2,1,2
13,2,2,2,2,2,2,2,2,2,2,2,2,2,2,2,2,2,2
13,2,2,2,2,2,2,2,2,2,2,2,2,2,2,2,1,2,2
13,2,2,2,2,2,1,2,1,2,2,2,2,2,2,2,2,2,2
13,2,2,2,2,2,2,2,1,2,2,2,2,2,2,2,2,2,2
13,2,2,2,2,2,2,2,2,2,2,2,2,2,1,2,1,2,2
13,2,2,2,2,2,1,2,1,2,2,2,2,2,2,2,1,2,2
13,2,2,2,2,2,2,2,2,1,2,2,2,1,2,2,1,2,2
13,2,2,2,2,2,2,2,2,2,2,2,2,2,2,2,2,2,2
13,2,1,2,2,2,2,2,2,1,2,2,2,2,2,2,1,2,2
13,2,2,2,2,2,2,2,2,2,2,2,2,2,2,2,1,2,2
13,2,2,2,2,2,NA,2,2,2,2,2,2,2,2,2,2,2,2
13,2,2,2,2,2,2,2,2,2,2,2,2,1,1,2,1,2,2
13,2,2,2,2,2,2,2,1,2,2,2,2,2,1,2,2,2,2
13,2,2,2,NA,2,2,2,2,2,2,2,2,2,2,2,2,2,2
13,2,2,2,2,2,2,2,2,2,2,2,1,1,2,2,1,1,2
13,2,2,2,2,2,1,2,2,2,2,2,2,2,2,2,1,1,2
13,2,2,2,2,2,2,2,2,2,2,2,2,2,2,2,1,2,2
13,2,2,2,2,2,2,2,2,2,2,2,2,1,1,2,2,2,2
13,2,2,2,2,2,2,2,2,2,2,2,2,2,2,2,2,2,2
13,2,2,2,2,2,2,2,2,2,2,2,1,2,1,2,2,1,2
13,2,2,1,2,2,2,2,2,2,2,2,2,2,2,2,1,1,2
13,2,2,2,2,2,2,2,2,2,2,2,2,1,1,2,2,2,2
13,1,1,1,1,2,1,2,2,2,2,2,2,2,1,1,1,1,NA
13,2,2,2,2,2,2,1,1,2,2,2,2,2,2,2,1,2,2
13,2,2,2,2,2,1,2,2,2,2,2,2,2,2,2,1,2,2
13,2,2,2,2,2,1,1,1,1,2,2,1,1,1,2,1,2,2
13,2,2,2,2,2,2,1,1,2,2,2,2,2,2,2,1,2,2
13,2,2,2,2,1,2,1,1,2,2,2,2,2,2,2,1,2,2
13,2,1,2,2,1,2,2,1,2,2,2,2,2,1,2,1,2,2
13,2,1,1,2,1,2,2,1,2,2,2,2,2,2,2,2,2,2
13,2,2,2,2,2,2,2,1,2,2,2,2,2,2,2,1,1,2
13,2,1,2,2,1,2,2,2,2,2,2,2,2,2,1,1,2,2
13,2,2,2,2,2,2,1,2,1,2,2,2,2,1,1,1,2,2
13,2,2,2,2,2,2,2,2,2,2,2,2,1,2,2,1,1,2
13,2,1,2,2,1,2,2,2,1,2,2,2,2,2,2,1,2,2
13,2,2,2,2,2,2,2,2,2,1,2,2,2,2,2,1,2,2
13,2,2,2,2,2,2,1,1,2,2,2,2,2,2,1,1,2,2
13,2,1,2,2,2,2,2,2,2,2,2,2,1,2,2,1,2,2
13,2,2,2,2,2,2,2,2,2,2,2,2,2,2,2,1,2,2
13,2,2,2,2,2,2,2,1,2,2,2,2,2,2,2,2,2,2
13,2,1,2,2,1,2,2,1,2,2,2,2,2,2,2,1,2,2
13,2,2,2,2,2,2,2,2,2,2,2,2,2,1,2,2,2,2
13,2,2,2,2,2,2,1,2,2,2,2,1,2,2,1,1,1,2
13,2,2,2,2,2,2,2,2,2,2,2,2,2,2,2,1,2,2
13,2,2,2,2,2,2,2,2,2,2,2,2,2,2,2,2,2,2
13,2,2,2,2,2,1,2,2,2,2,2,2,2,2,2,2,1,2
13,2,2,2,2,2,2,2,2,1,2,2,2,2,2,2,1,2,2
13,2,2,2,2,2,2,2,1,2,2,2,2,2,2,1,1,2,2
13,2,1,1,2,2,2,2,2,2,2,2,2,2,2,1,1,2,1
13,2,2,2,2,2,2,2,2,2,2,2,2,2,2,2,1,1,2
13,2,2,2,2,2,2,2,2,2,2,2,2,2,2,2,2,2,2
13,1,2,1,2,1,1,2,2,1,1,2,2,1,1,1,1,2,2
13,2,2,2,2,2,1,1,2,2,2,2,2,2,2,NA,1,1,2
13,2,2,2,2,2,2,1,2,1,2,2,2,2,2,1,1,2,2
13,2,2,2,2,2,2,2,2,2,2,2,2,2,2,1,2,2,2
13,2,1,2,2,1,2,2,2,2,2,2,2,2,2,2,2,2,2
13,2,2,2,2,2,2,2,2,2,2,2,2,1,2,2,2,2,2
13,2,2,2,2,2,2,1,2,2,2,2,1,2,1,1,1,2,2
13,2,2,2,2,2,1,2,2,2,2,2,2,2,2,2,2,2,2
13,2,1,2,2,2,2,2,1,2,2,2,2,2,2,2,1,2,2
13,2,1,2,2,2,2,2,2,2,2,2,2,2,2,2,1,2,2
13,2,2,2,2,2,2,1,2,2,2,2,2,2,2,2,1,1,2
13,2,2,2,2,2,1,1,2,2,2,2,1,2,2,1,1,2,2
13,2,2,2,2,2,2,2,2,2,2,2,2,2,1,2,1,2,2
13,2,2,2,2,2,2,1,1,2,2,2,2,2,2,2,1,2,2
13,2,2,2,2,2,1,2,2,1,2,2,2,2,2,2,1,2,2
13,2,2,2,2,2,2,1,1,2,2,2,2,2,2,2,2,2,2
13,2,2,2,2,2,1,1,2,2,2,2,1,2,2,2,1,1,2
13,2,2,2,2,2,1,1,1,2,2,2,2,2,2,2,1,2,2
13,2,2,2,2,2,2,2,1,2,2,2,2,2,2,2,2,2,2
13,2,2,2,2,2,2,1,2,2,2,2,1,2,2,2,1,2,2
13,2,2,1,2,2,2,2,2,2,2,2,2,2,1,2,2,2,2
13,2,2,2,2,2,2,2,2,2,2,2,2,2,2,2,1,2,2
13,2,2,1,2,2,2,2,2,1,2,1,2,1,1,2,2,1,2
13,2,2,2,2,2,2,2,2,2,2,2,2,2,2,2,1,2,2
13,2,2,2,2,2,2,1,2,2,2,2,2,2,2,2,1,2,2
13,2,2,2,2,2,2,2,2,2,2,2,2,2,2,2,1,2,2
13,2,1,2,2,1,2,2,2,2,2,2,2,2,2,2,1,2,2
13,2,2,2,2,2,2,2,2,2,2,2,2,2,2,2,1,2,2
13,2,2,2,2,2,2,2,1,1,2,2,2,2,2,2,1,2,2
13,2,2,2,2,2,1,2,2,2,2,2,2,2,2,2,1,2,2
13,2,2,2,2,2,2,2,2,1,2,2,2,2,2,2,1,1,2
13,2,2,2,2,1,2,2,2,2,2,2,2,2,2,2,2,2,2
13,2,1,2,2,2,2,2,1,2,2,2,2,2,2,2,2,2,2
13,2,2,2,2,2,2,2,2,2,2,2,2,2,2,2,1,2,2
13,2,2,2,2,2,2,2,2,2,2,2,2,2,2,2,2,2,2
13,2,1,2,2,1,2,2,2,2,2,2,2,2,2,2,NA,2,2
13,2,2,2,2,2,2,2,1,1,2,2,2,1,2,2,NA,NA,NA
13,2,2,2,2,2,2,1,1,2,2,2,2,2,2,2,1,2,2
13,2,2,2,2,2,2,2,2,2,2,2,2,2,2,2,2,2,2
13,2,2,2,2,2,2,2,2,2,2,2,2,2,2,2,1,2,2
13,2,2,2,2,2,2,2,2,2,2,2,2,2,2,2,2,2,2
13,2,2,2,2,2,2,2,2,2,2,2,2,1,2,2,1,2,2
13,2,2,2,2,2,2,2,2,2,2,2,2,2,2,1,2,2,2
13,2,2,2,2,2,2,2,2,2,2,2,2,2,1,2,1,2,2
13,2,2,2,2,2,2,1,2,2,2,2,2,2,2,2,1,2,2
13,2,2,2,2,2,2,1,2,2,2,2,2,2,2,2,1,2,2
13,2,2,2,2,1,2,2,2,1,2,2,2,1,2,2,1,2,2
13,2,2,2,2,2,2,1,2,2,2,2,2,2,2,2,1,NA,2
13,2,2,2,2,2,2,1,2,2,2,2,2,2,2,2,1,2,2
13,2,2,2,2,2,2,2,1,2,2,2,2,2,2,2,2,2,2
13,2,2,2,2,2,2,2,2,2,2,2,2,2,2,2,1,2,2
13,2,2,2,NA,2,1,2,2,1,2,2,2,2,2,2,2,2,2
13,2,1,2,2,2,1,2,1,1,2,2,2,2,2,2,1,2,2
13,2,2,2,2,2,2,1,2,2,2,2,2,2,2,2,1,2,2
13,2,2,2,2,2,2,2,2,2,2,2,2,2,2,2,2,2,2
13,1,2,2,2,1,2,2,2,2,2,2,2,2,2,2,2,2,2
13,2,2,2,2,2,2,2,1,2,2,2,2,2,2,2,2,2,2
13,2,2,2,2,2,2,1,2,2,2,2,1,2,2,2,2,2,2
13,2,2,2,2,2,2,2,2,2,2,2,2,2,2,2,1,2,2
13,2,2,2,2,2,2,2,1,2,2,2,2,2,2,1,1,2,2
13,2,1,2,2,1,2,1,1,1,2,2,2,2,2,2,2,2,2
13,2,1,2,2,1,2,1,2,2,2,2,2,2,2,2,1,2,2
13,2,1,2,2,1,2,1,2,2,2,2,2,2,2,2,2,2,2
13,2,2,2,2,2,2,2,2,2,2,2,2,2,2,2,1,2,2
13,2,2,2,2,2,2,2,2,2,2,2,2,2,2,2,1,2,2
13,2,2,2,1,1,1,2,1,1,2,2,2,2,2,1,1,2,2
13,2,2,2,2,2,2,1,2,2,2,2,2,2,2,2,1,2,2
13,2,2,2,2,2,2,2,2,2,2,2,2,2,2,2,1,2,2
13,1,1,1,2,2,2,1,2,2,2,2,2,2,2,2,2,2,2
13,2,2,2,2,2,2,2,1,2,2,2,2,2,2,2,2,2,2
13,2,2,2,2,2,2,1,2,2,2,2,2,2,2,2,1,2,2
13,2,2,2,2,2,2,2,1,2,2,2,2,2,2,2,1,2,2
13,2,2,2,2,2,2,1,2,2,2,2,2,2,2,2,1,2,2
13,2,1,2,2,2,2,2,1,2,2,2,2,2,2,1,2,1,2
13,2,2,2,2,2,2,2,2,2,2,2,2,2,2,2,1,2,2
13,2,2,2,2,2,2,1,2,2,2,2,2,2,2,2,1,2,2
13,2,2,2,NA,2,2,2,2,2,2,2,NA,2,2,2,2,2,2
13,2,2,2,2,2,2,2,2,2,2,2,2,2,2,2,2,2,2
13,2,2,2,2,2,2,2,2,2,2,2,1,2,2,2,1,1,2
13,2,2,1,2,2,2,2,2,2,2,2,1,2,2,2,NA,2,2
13,2,2,2,2,2,2,2,2,2,2,2,2,2,2,2,1,2,2
13,2,2,2,2,2,2,2,2,2,2,2,2,2,2,2,1,2,2
13,2,2,2,2,2,2,2,1,2,2,2,2,2,2,1,2,2,2
13,2,2,2,2,2,2,2,2,2,2,2,2,2,2,2,2,2,2
13,2,2,2,2,2,2,2,2,2,2,2,2,2,2,2,1,2,2
13,2,2,2,2,2,2,1,2,2,2,2,2,2,2,2,1,2,2
13,2,2,2,2,2,2,2,2,2,2,2,2,2,2,2,1,2,2
13,2,2,2,2,2,2,2,1,2,2,2,2,2,2,2,2,1,2
13,2,1,2,2,2,2,2,2,2,2,2,2,2,2,1,1,2,2
13,2,2,2,2,2,2,2,2,2,2,2,2,1,1,2,1,1,1
13,2,2,2,2,2,2,2,2,2,2,2,2,2,2,2,2,2,2
13,2,2,2,2,2,2,2,2,2,2,2,2,2,1,2,1,2,2
13,2,2,2,2,1,2,2,2,2,2,2,2,1,2,1,2,2,2
13,2,2,2,1,1,1,1,2,1,2,2,2,1,1,1,1,1,1
13,2,2,2,2,1,2,2,2,2,2,2,2,1,2,2,1,NA,NA
13,2,2,2,2,2,2,2,NA,2,2,2,2,2,2,2,1,2,2
13,1,2,2,2,2,2,2,1,2,2,2,2,2,1,2,1,2,2
13,2,2,2,2,2,2,2,1,2,2,2,2,2,2,2,1,2,2
13,2,2,2,2,2,2,2,2,2,2,2,2,2,2,2,1,1,2
13,2,2,2,2,2,2,2,1,2,2,2,2,1,1,2,1,2,2
13,2,2,2,2,2,2,2,2,2,2,2,2,2,2,2,1,2,2
13,2,2,2,2,2,2,2,1,2,2,2,2,2,2,2,1,2,2
13,2,2,2,2,2,1,1,2,2,2,2,2,2,2,2,2,2,2
13,2,2,2,2,2,2,2,1,1,2,2,2,2,2,1,1,2,2
13,2,2,2,2,2,2,2,2,2,2,2,2,2,2,2,1,2,2
13,2,2,1,2,2,2,2,2,2,2,2,2,2,2,2,1,2,2
13,2,2,2,2,2,2,2,2,2,2,2,2,2,2,2,1,1,2
13,1,2,2,2,1,2,2,2,2,2,2,2,2,2,1,1,2,2
13,2,2,2,2,2,2,2,1,2,2,2,2,2,2,2,1,2,2
13,2,2,2,2,2,2,2,2,2,2,2,2,2,2,2,1,2,2
13,2,2,1,2,2,2,2,2,2,2,2,2,2,2,1,1,2,2
13,2,2,2,2,2,2,2,1,2,2,2,2,2,2,2,1,2,2
13,2,2,2,2,2,2,2,2,2,2,2,2,2,2,2,2,2,2
13,2,1,2,2,1,2,2,1,2,2,2,2,2,2,2,2,2,2
13,2,2,2,1,2,2,2,1,2,2,2,2,2,2,2,1,2,2
13,2,2,2,2,2,2,1,2,2,2,2,2,2,2,2,2,2,2
13,2,2,2,2,2,2,2,2,2,2,2,2,2,2,2,1,1,1
13,2,2,2,2,2,2,2,2,2,2,2,2,2,2,2,2,2,2
13,1,2,2,2,2,2,2,1,2,2,2,2,2,2,2,1,1,2
13,2,2,2,2,2,2,2,2,2,2,2,2,2,2,2,1,2,2
13,2,1,2,2,2,1,1,2,2,2,2,2,2,2,1,1,2,2
13,2,2,2,2,2,2,2,1,2,2,2,2,2,2,2,1,2,2
13,2,2,2,2,2,2,2,2,2,2,2,2,1,2,1,2,2,2
13,2,2,2,2,1,2,1,2,2,2,2,2,2,2,2,1,2,2
13,1,1,2,2,2,2,2,1,1,1,2,1,2,2,2,1,1,2
13,2,2,2,2,2,2,2,2,2,2,2,2,2,2,2,1,2,2
13,2,2,2,2,2,2,2,2,2,2,2,2,2,2,2,1,2,2
13,2,2,2,2,2,2,2,2,2,2,2,2,2,2,2,1,2,2
13,2,2,2,2,2,2,2,2,2,2,2,2,2,2,2,1,1,2
13,2,2,2,2,2,1,2,2,2,2,2,2,2,2,1,1,1,2
13,1,1,1,2,2,1,2,2,2,2,2,2,2,1,2,2,2,2
13,2,2,2,2,2,2,2,2,2,2,2,2,2,1,2,2,2,2
13,2,1,2,2,2,2,1,2,2,2,2,2,2,2,2,1,2,2
13,2,2,2,1,2,2,2,2,2,1,2,2,2,1,2,1,2,2
13,2,2,2,2,2,2,2,2,2,2,2,2,2,2,2,1,1,2
13,2,2,2,2,2,2,2,2,2,2,2,2,2,2,2,2,2,2
13,2,2,2,2,1,2,1,1,2,2,2,2,2,2,2,1,2,2
13,2,2,2,2,2,2,2,2,2,2,2,2,2,2,2,1,2,2
13,2,1,2,2,2,2,2,2,2,2,2,2,1,1,2,1,1,2
13,2,2,2,2,2,2,2,2,2,2,2,2,2,2,2,2,2,2
13,2,2,2,2,2,2,2,2,1,2,2,2,2,2,2,1,2,2
13,2,1,2,2,2,2,1,2,2,2,2,2,1,2,2,2,2,2
13,2,2,2,2,2,2,1,2,2,2,2,2,2,2,2,1,2,2
13,2,2,2,2,2,2,2,2,2,2,2,2,2,2,2,2,2,2
13,2,2,2,2,2,2,1,2,2,2,2,2,2,2,2,1,2,2
13,2,2,2,2,2,2,2,2,1,2,2,2,2,2,2,1,1,2
13,2,2,2,2,2,2,2,2,2,2,2,2,2,2,2,1,2,2
13,2,2,2,2,2,2,2,2,2,2,2,2,2,2,1,1,2,2
13,2,2,2,2,2,1,1,2,2,2,2,2,2,2,2,1,2,2
13,2,2,2,2,2,2,2,1,2,2,2,2,2,2,2,1,2,2
13,1,2,NA,2,2,2,2,2,2,2,2,2,2,2,2,1,2,NA
13,1,1,1,1,1,2,2,1,2,2,2,2,2,2,1,2,NA,2
13,2,2,2,2,2,2,2,2,2,2,2,2,2,2,2,1,2,2
13,2,2,2,2,2,2,1,1,2,2,2,2,2,2,2,1,2,2
13,2,2,2,2,2,2,1,2,2,2,2,2,2,2,2,2,2,2
13,2,2,2,2,2,2,2,2,2,2,2,2,1,2,2,1,1,2
13,1,1,1,1,1,1,2,1,1,2,2,2,2,2,1,1,1,1
13,2,2,2,2,2,2,2,2,2,2,2,2,2,2,1,2,2,2
13,2,2,2,2,2,2,2,1,1,2,2,1,2,1,2,2,2,2
13,2,2,2,2,2,2,2,2,2,2,2,2,2,2,2,2,2,2
13,2,2,2,2,2,2,1,2,2,2,2,2,2,2,2,1,2,2
13,2,2,2,2,2,2,2,1,2,2,2,1,2,1,2,1,2,2
13,2,2,2,2,2,2,2,2,2,2,2,2,2,2,2,1,2,2
13,2,2,2,2,2,2,2,1,2,2,2,2,1,2,2,1,1,2
13,2,2,2,2,2,2,1,2,2,2,2,2,2,2,2,1,2,2
13,2,2,2,2,2,2,2,1,2,2,2,2,2,1,2,1,2,2
13,2,2,2,2,2,2,2,2,2,2,2,2,2,2,2,1,1,2
13,2,2,2,2,2,2,2,1,2,2,2,2,2,1,2,2,2,2
13,2,2,2,2,2,2,2,2,2,2,2,2,2,2,2,1,2,2
13,2,2,2,2,2,2,2,2,1,2,2,2,2,2,2,1,2,2
13,2,2,2,2,2,2,2,2,2,2,2,2,2,2,1,1,2,2
13,2,2,2,2,2,2,2,2,2,2,2,2,2,2,2,1,2,2
13,2,2,2,2,2,2,2,1,2,2,2,2,2,2,2,2,2,2
13,2,2,2,2,2,2,2,2,2,2,2,2,2,2,2,2,2,2
13,2,2,2,2,2,2,1,2,2,2,2,2,2,2,2,1,2,2
13,2,2,2,2,2,2,2,2,2,2,2,2,2,2,2,1,2,2
13,2,2,2,2,2,2,2,2,2,2,2,2,2,1,2,2,2,2
13,1,1,2,2,1,2,2,2,2,2,2,2,2,2,2,1,2,2
13,2,2,2,2,2,2,2,2,2,2,2,2,2,2,1,1,2,2
13,2,2,2,2,2,2,2,2,2,2,2,1,2,1,2,1,1,2
13,2,2,2,2,2,2,2,2,2,2,2,2,2,2,2,1,1,2
13,2,2,2,2,2,2,2,1,2,2,2,2,2,2,1,1,2,2
13,2,2,2,2,2,2,2,1,2,2,2,2,2,1,2,1,2,2
13,2,2,2,2,2,2,2,2,2,2,2,2,2,2,2,2,2,2
13,2,2,2,2,2,2,2,2,2,2,2,2,2,2,2,2,2,2
13,2,2,2,2,2,2,1,1,2,2,2,2,2,2,2,1,2,2
13,2,2,2,2,2,2,2,2,2,2,2,2,2,2,2,2,2,2
13,2,2,2,2,2,1,2,2,2,2,2,2,1,2,2,2,2,2
13,2,2,2,2,2,2,2,2,2,2,2,2,2,2,2,1,2,2
13,2,2,2,2,2,2,2,2,2,2,2,2,2,2,2,1,2,2
13,2,2,2,2,2,2,1,1,2,2,2,2,1,1,2,1,1,2
13,2,2,2,2,2,2,2,2,2,2,2,2,2,2,2,1,2,2
13,2,2,2,2,2,2,1,2,2,2,2,2,2,2,1,1,1,2
13,2,1,2,2,2,2,2,1,1,2,2,2,2,2,2,1,2,2
13,2,2,2,2,2,2,2,2,2,2,2,2,2,2,2,1,2,2
13,2,2,2,2,2,2,1,2,2,2,2,2,2,2,2,1,2,2
13,2,2,2,2,2,2,2,2,2,2,2,2,2,1,2,2,2,2
13,2,2,2,2,2,1,2,1,2,2,2,2,2,2,2,1,2,2
13,2,2,2,2,2,2,2,2,2,2,2,1,2,1,1,1,2,2
13,2,2,2,2,2,2,1,2,2,2,2,2,2,2,2,1,2,2
13,2,1,2,2,1,1,2,2,2,2,2,2,2,2,2,2,2,2
13,2,2,2,2,2,2,1,2,2,2,2,2,2,2,2,1,1,2
13,2,2,2,2,2,2,2,2,2,2,2,2,2,2,2,1,1,NA
13,2,2,2,2,2,2,1,2,2,2,2,2,2,2,2,1,2,2
13,2,1,2,2,1,1,2,1,2,2,2,2,2,2,1,1,2,2
13,2,2,2,2,2,2,2,2,2,2,2,1,2,2,1,1,2,2
13,2,2,2,2,2,2,2,2,2,2,2,1,2,1,2,1,2,NA
13,2,2,2,2,2,2,2,2,2,2,2,2,2,NA,2,2,2,2
13,2,2,2,1,2,2,1,2,2,2,2,2,2,2,2,1,2,2
13,2,2,2,2,2,2,1,2,2,2,2,2,2,2,2,1,2,2
13,2,2,2,2,2,2,2,1,2,2,2,2,2,2,2,1,2,2
13,2,2,2,2,2,2,2,2,2,2,2,1,2,2,2,1,2,2
13,2,2,2,2,2,2,2,2,2,2,2,2,1,2,1,1,2,2
13,2,2,2,2,2,2,1,1,2,2,2,2,2,2,2,1,2,2
13,2,2,2,2,2,2,2,2,2,2,2,2,2,2,1,1,1,2
13,2,1,1,1,2,2,2,1,2,2,2,2,2,2,2,1,2,2
13,2,1,2,2,1,2,2,2,2,2,2,2,1,2,2,1,2,2
13,2,2,2,2,2,2,2,2,2,2,2,2,1,1,2,2,2,2
13,2,1,2,2,1,1,1,1,1,2,2,2,2,2,1,1,2,2
13,2,1,2,2,1,2,2,2,2,2,2,2,2,2,1,1,1,2
13,2,2,2,2,2,2,2,2,2,2,2,2,2,2,2,1,1,2
13,2,1,2,2,1,2,1,2,2,2,2,2,2,2,1,1,2,2
13,2,2,2,2,2,2,2,2,2,2,2,2,2,2,1,1,2,2
13,2,2,2,2,2,2,2,2,2,2,2,2,2,2,2,1,2,2
13,2,2,2,2,2,1,2,1,1,2,2,2,2,2,2,1,2,2
13,2,2,2,2,2,2,2,2,2,2,2,2,2,2,2,1,1,2
13,2,2,2,2,2,2,1,2,2,2,2,2,2,2,2,1,2,2
13,2,2,2,2,2,1,1,2,2,2,2,2,2,2,2,2,2,2
13,2,2,2,2,2,2,2,1,2,2,2,1,2,2,2,2,2,2
13,2,1,2,2,1,2,2,2,2,2,2,2,2,2,2,1,2,2
13,2,1,1,2,1,2,1,1,1,2,2,2,2,2,2,NA,2,2
13,2,1,2,2,2,2,2,2,1,2,2,1,2,2,2,1,1,2
13,2,2,2,2,2,2,2,1,2,2,2,2,2,2,2,2,2,2
13,2,2,2,2,2,2,2,1,2,2,2,2,2,2,1,1,2,2
13,2,2,2,2,2,2,1,2,2,2,2,2,2,2,2,1,2,2
13,2,2,2,2,2,2,2,2,2,2,2,2,2,2,2,1,1,2
13,2,2,2,2,2,1,1,2,2,2,2,2,2,1,2,2,2,2
13,2,2,2,2,2,1,1,2,2,2,2,2,1,2,2,2,2,2
13,2,2,2,2,2,2,1,2,2,2,2,2,2,2,2,1,2,2
13,2,2,2,2,2,2,2,2,2,2,2,2,2,2,2,2,2,2
13,2,2,2,2,2,1,2,1,2,2,2,2,2,2,2,1,2,2
13,2,2,2,2,2,1,2,2,2,2,2,2,2,2,2,1,2,2
13,2,2,2,2,2,1,2,2,2,2,2,2,1,1,2,1,2,2
13,2,2,2,2,2,2,2,2,2,2,2,2,2,2,2,1,2,2
13,2,2,2,2,2,2,2,2,2,2,2,2,2,2,2,1,2,2
13,2,2,2,2,2,2,2,2,2,2,2,2,2,2,2,2,2,2
