pais,cp2,cp4a,cp4,np1,np2,cp5,cp6,cp7,cp8,cp9,cp13,cp21,prot3,prot8,vic44,vb2,pp1,pp2
17,2,2,2,2,2,2,2,2,1,2,2,2,2,2,2,2,2,2
17,2,1,2,2,1,2,1,2,2,2,2,1,2,2,2,1,2,2
17,2,2,2,2,2,2,1,1,2,2,1,1,2,2,1,1,2,2
17,1,1,2,2,2,1,1,1,1,1,1,2,2,2,1,1,1,1
17,2,2,2,2,2,2,1,1,2,2,2,2,2,2,2,1,2,2
17,1,1,1,2,2,2,1,1,1,2,1,2,2,2,1,1,2,2
17,2,2,2,1,2,2,2,2,2,2,2,2,2,2,2,1,2,2
17,2,2,2,2,2,2,2,2,2,2,2,2,2,2,2,1,2,2
17,2,1,1,1,2,2,2,2,2,2,1,2,2,2,1,1,2,1
17,2,2,2,2,2,1,1,2,1,2,2,2,2,2,2,2,2,2
17,2,2,2,2,2,2,1,2,2,2,2,2,2,2,1,1,1,2
17,2,2,2,2,2,2,1,1,2,2,2,2,2,2,1,1,2,1
17,2,2,2,2,1,2,2,2,2,1,2,2,2,2,2,1,2,2
17,2,2,2,2,2,2,2,2,2,1,2,2,2,2,2,1,2,2
17,2,2,2,2,1,2,1,2,2,2,2,2,2,2,2,1,2,2
17,2,2,2,2,2,2,2,2,2,1,2,2,2,2,2,1,2,2
17,2,2,2,2,2,2,1,2,2,2,2,2,2,2,2,2,2,2
17,2,1,2,2,1,2,2,2,2,2,2,2,2,2,2,2,1,2
17,2,2,2,1,2,2,1,2,2,2,1,1,2,2,1,2,2,2
17,2,1,2,2,2,2,1,2,2,1,2,2,2,2,1,1,2,2
17,2,2,2,2,2,2,1,2,2,2,2,2,2,2,2,2,2,2
17,2,2,2,2,2,2,2,2,2,2,2,2,2,2,2,1,2,2
17,1,2,2,2,1,2,2,2,2,2,2,2,2,2,2,1,2,2
17,2,2,2,1,2,2,2,2,2,2,2,2,2,2,2,2,2,2
17,2,1,2,1,2,2,1,1,1,2,1,2,2,2,2,1,1,2
17,2,2,2,2,2,2,2,1,2,2,2,2,2,2,2,2,2,2
17,2,2,2,2,2,2,2,1,2,2,2,2,2,2,1,2,2,2
17,2,2,2,2,2,2,2,2,2,2,2,2,2,2,2,2,2,2
17,2,2,2,1,1,NA,2,2,2,2,1,2,2,2,2,1,1,2
17,2,1,1,2,2,1,1,2,2,2,2,2,2,2,2,1,1,1
17,2,2,2,1,1,1,2,2,2,2,2,2,2,2,2,1,1,2
17,2,2,2,2,2,2,2,2,2,2,2,2,2,2,2,1,2,2
17,2,2,2,2,2,2,1,2,2,2,2,2,2,2,2,1,2,2
17,2,2,2,2,2,2,2,1,1,2,1,2,2,2,1,1,2,2
17,2,2,2,2,2,1,1,1,1,1,2,1,2,2,1,2,2,2
17,2,2,2,2,2,2,2,2,2,2,2,2,2,2,2,2,2,2
17,1,2,2,2,2,1,1,2,2,2,NA,2,2,2,2,2,2,2
17,2,2,2,2,2,2,2,1,2,2,2,2,2,2,2,1,2,2
17,2,2,2,1,2,2,1,2,2,2,2,2,2,2,2,1,1,1
17,2,2,2,2,2,2,2,2,2,2,2,2,2,2,1,1,2,2
17,2,2,2,2,2,2,1,2,2,2,2,2,2,2,2,1,2,2
17,2,2,2,2,2,2,1,1,2,2,1,1,2,2,2,1,1,2
17,2,2,2,2,2,2,1,1,1,2,2,2,2,2,2,1,2,2
17,2,2,2,1,2,1,2,2,1,1,1,2,1,2,1,1,2,2
17,2,2,2,2,2,2,1,2,2,2,2,2,2,2,1,2,2,2
17,1,1,1,2,2,2,2,1,2,2,2,2,2,2,2,1,2,2
17,1,1,2,1,2,1,1,2,1,NA,2,2,2,1,1,1,1,2
17,2,2,2,2,2,2,1,2,2,2,2,2,2,2,1,1,2,2
17,2,1,1,1,1,1,2,2,2,2,2,2,2,2,2,1,1,2
17,2,2,2,2,2,2,1,2,1,2,2,2,2,2,1,1,2,2
17,2,2,2,2,2,1,1,1,2,1,2,2,1,2,1,1,2,2
17,2,2,1,1,2,1,2,2,2,2,2,1,2,2,2,1,1,1
17,1,1,1,1,1,1,1,1,1,1,1,1,1,1,2,1,1,1
17,2,2,2,1,2,2,1,1,1,2,2,2,2,2,2,1,2,2
17,2,2,2,2,1,2,1,2,1,1,2,2,2,2,2,1,2,2
17,2,2,2,2,2,2,2,2,2,2,2,2,2,2,2,2,2,2
17,1,2,2,1,2,2,1,1,2,2,2,2,2,2,2,1,2,2
17,2,2,2,2,2,2,1,2,2,2,2,1,2,2,2,2,2,1
17,2,2,2,1,1,1,2,1,2,1,2,2,2,2,1,1,1,1
17,2,2,2,2,2,2,2,1,2,2,2,2,2,2,2,1,2,2
17,2,2,2,2,2,2,1,2,2,2,2,2,2,2,1,2,2,2
17,1,2,2,2,1,2,1,1,1,2,1,2,2,2,2,1,1,1
17,2,2,2,2,2,2,2,2,2,2,2,2,2,2,2,2,2,2
17,2,2,2,2,2,2,2,2,2,2,2,2,2,2,2,1,2,2
17,2,2,2,2,2,1,1,1,2,2,2,2,2,2,2,1,2,2
17,2,2,2,2,2,2,2,2,2,2,2,2,2,2,2,1,1,2
17,2,2,2,1,2,2,2,2,1,2,1,2,2,2,1,1,1,2
17,2,2,2,2,2,2,1,2,2,2,2,2,2,2,2,1,2,1
17,2,2,2,2,2,2,2,1,2,2,2,2,2,2,2,1,2,2
17,2,1,2,1,1,2,1,1,1,2,1,2,2,2,2,1,2,2
17,2,2,2,1,2,2,1,1,2,2,1,1,2,2,2,2,2,2
17,2,2,2,2,2,2,2,2,2,1,2,2,2,2,2,1,2,2
17,2,2,2,1,2,2,1,2,2,2,2,2,2,2,1,1,1,2
17,2,2,2,2,2,2,1,NA,NA,2,2,2,2,2,2,1,2,2
17,2,2,2,2,2,2,1,2,1,2,2,2,2,2,1,1,2,2
17,2,2,1,2,2,2,2,2,2,2,1,2,2,2,2,1,1,1
17,2,2,1,1,1,2,1,2,2,2,2,2,2,2,1,1,1,2
17,2,2,2,2,2,2,2,2,2,2,2,2,2,2,1,2,2,2
17,2,2,2,2,2,2,1,2,2,2,2,2,2,2,2,1,2,2
17,2,2,2,2,2,2,1,2,2,2,2,2,2,2,2,1,2,2
17,2,2,2,1,2,2,2,2,1,2,2,1,2,2,1,1,2,2
17,2,2,2,2,2,2,1,1,2,2,2,2,2,2,2,2,2,2
17,1,2,2,1,2,2,1,2,2,2,2,2,2,2,2,1,2,2
17,2,2,2,2,2,2,2,2,2,2,2,2,2,2,2,1,2,2
17,2,2,2,2,2,2,2,2,2,2,2,2,2,2,2,2,2,2
17,2,2,2,2,2,2,1,2,2,2,2,1,2,2,1,1,2,2
17,2,2,2,2,2,2,1,2,1,2,2,2,2,2,1,1,2,2
17,2,2,2,1,1,2,1,1,2,2,2,2,2,2,1,1,2,2
17,2,2,2,2,2,1,1,1,1,1,1,1,2,2,2,1,2,2
17,2,2,2,2,2,1,2,2,2,2,2,2,2,2,1,1,1,2
17,2,2,2,2,2,2,2,1,1,2,2,2,2,2,1,1,2,2
17,2,2,2,2,2,2,1,2,2,2,2,2,2,2,1,1,2,2
17,2,2,2,1,2,2,1,2,1,2,1,2,2,2,2,1,1,1
17,2,2,2,2,2,2,2,2,2,2,2,2,2,2,1,1,2,1
17,2,2,2,2,2,2,1,2,2,2,2,2,2,2,2,1,2,2
17,2,2,2,1,2,2,1,1,2,2,2,2,2,2,1,1,2,2
17,2,2,2,2,2,2,2,1,2,2,2,1,2,1,2,2,2,2
17,2,2,2,2,2,2,2,2,2,2,2,2,2,2,2,1,2,2
17,2,1,2,1,1,2,2,2,2,2,2,2,2,2,1,1,1,1
17,1,1,1,1,1,2,1,1,1,1,2,2,2,2,2,1,2,2
17,2,2,2,1,2,2,2,2,2,2,2,1,1,2,2,2,2,2
17,2,2,2,2,2,2,2,2,2,2,2,2,2,2,2,2,2,2
17,1,2,2,2,2,2,1,1,2,2,2,2,2,2,1,1,1,2
17,2,2,2,2,2,2,1,1,2,2,2,2,2,2,2,2,2,2
17,1,2,2,1,2,2,1,1,1,2,1,1,2,2,2,1,2,1
17,2,2,2,1,2,1,1,2,1,2,1,2,2,2,2,2,1,1
17,2,2,2,2,2,2,2,1,1,2,2,2,2,2,2,1,2,2
17,1,2,2,2,2,2,1,1,2,2,1,2,2,2,1,1,1,1
17,2,2,2,1,2,2,1,2,2,2,1,2,1,2,2,1,2,1
17,2,2,2,2,2,2,2,2,2,2,1,2,2,2,1,1,2,2
17,2,2,2,2,2,2,1,1,1,2,2,2,2,2,1,2,2,2
17,1,2,2,2,2,2,1,2,2,2,2,2,2,2,2,1,2,2
17,2,2,2,2,1,2,1,1,2,1,1,2,2,2,2,1,1,2
17,2,1,2,2,1,2,1,2,1,1,2,2,2,2,1,1,1,1
17,2,2,2,1,1,1,1,2,2,2,2,2,2,2,1,1,2,2
17,2,1,2,1,2,2,1,2,1,2,1,2,2,2,1,1,1,1
17,2,2,2,2,2,2,2,2,2,2,2,2,2,2,2,1,2,2
17,2,2,2,1,2,2,2,2,2,2,1,2,2,2,1,1,2,1
17,2,2,2,1,2,2,2,1,1,2,2,2,2,2,1,1,2,2
17,2,2,2,2,2,2,2,2,2,2,1,2,2,2,2,2,2,2
17,1,2,2,1,1,1,1,1,2,2,1,1,2,2,1,1,1,1
17,2,2,2,2,1,1,2,1,2,2,2,1,2,2,1,1,1,2
17,2,2,2,2,2,1,1,1,1,2,2,2,1,2,2,1,2,2
17,2,2,2,1,2,2,2,2,2,2,2,2,2,2,2,1,2,2
17,2,2,2,1,1,1,1,1,2,2,1,2,2,2,2,1,2,2
17,2,2,2,1,NA,2,1,2,2,2,2,2,2,2,1,1,2,2
17,2,2,2,2,2,2,1,2,2,2,2,2,2,2,2,1,1,2
17,2,2,2,2,2,2,2,2,2,2,2,2,2,2,2,1,1,1
17,2,2,2,2,1,2,1,1,2,2,2,2,2,2,2,2,NA,NA
17,2,1,2,2,2,2,1,2,2,2,2,2,2,2,2,2,2,2
17,2,2,2,1,2,1,1,NA,1,2,NA,1,2,2,1,1,1,1
17,2,2,2,2,2,1,2,2,2,2,1,2,2,2,1,1,1,1
17,2,2,2,2,2,1,1,2,2,2,2,2,2,2,2,2,1,2
17,2,2,2,2,1,2,1,2,2,2,1,2,2,2,2,1,1,1
17,2,2,2,2,2,2,1,2,2,2,2,2,2,2,NA,2,2,2
17,2,2,2,2,2,2,2,2,2,2,2,2,2,2,2,1,2,2
17,2,2,2,2,2,2,1,2,2,2,1,2,2,2,2,1,1,2
17,1,1,2,1,2,2,1,2,2,2,2,2,2,2,2,1,2,2
17,2,1,2,2,1,2,1,2,2,2,1,2,2,2,2,1,1,2
17,2,2,2,2,2,2,2,2,2,2,2,2,2,2,2,2,2,2
17,2,2,2,2,2,2,2,2,2,2,2,2,2,2,1,2,2,2
17,2,2,2,1,2,2,2,1,2,2,2,2,2,2,2,1,2,2
17,2,2,2,1,2,2,2,2,2,2,1,2,2,2,1,2,1,2
17,2,2,2,2,2,2,2,2,2,2,1,1,2,2,2,1,1,2
17,2,2,2,2,2,2,1,2,2,2,1,2,2,1,2,1,1,2
17,2,2,2,2,2,2,1,1,2,2,2,2,2,2,1,2,2,2
17,1,2,2,2,2,2,1,2,2,2,2,2,2,2,2,1,2,2
17,2,2,1,2,1,1,2,2,1,1,2,1,2,1,1,1,2,2
17,2,2,2,2,2,2,1,2,2,2,2,1,2,2,2,2,2,2
17,2,2,2,2,2,2,1,1,1,2,1,2,2,2,2,1,2,2
17,2,2,2,2,2,1,1,1,1,2,2,1,2,2,2,1,2,2
17,2,2,2,1,2,2,1,2,2,2,2,2,2,2,2,1,2,2
17,2,2,2,2,2,2,2,2,2,2,2,2,2,2,2,1,2,2
17,2,2,2,1,2,2,1,1,2,2,1,2,2,2,1,2,2,2
17,2,2,2,2,2,2,2,2,2,2,2,2,2,2,1,1,2,2
17,1,1,1,1,1,1,1,1,1,1,2,2,2,2,1,1,1,1
17,2,2,2,2,2,2,2,2,1,2,2,2,2,2,1,1,1,2
17,2,2,2,2,2,2,2,2,2,2,2,2,2,2,2,1,1,2
17,2,2,2,2,2,1,1,2,1,2,2,2,2,1,1,1,2,2
17,2,2,2,2,2,2,2,2,2,2,1,2,2,2,2,2,1,2
17,2,2,2,2,2,1,1,2,2,2,2,2,2,2,2,1,2,2
17,2,2,2,1,2,1,1,1,2,2,2,1,2,2,2,2,2,2
17,2,1,1,2,1,2,1,2,2,1,2,1,2,2,1,1,1,1
17,2,2,2,2,2,2,1,2,2,2,2,1,2,2,1,2,1,2
17,2,2,2,2,2,2,1,2,2,2,2,2,2,2,2,1,2,2
17,2,2,2,2,2,2,1,2,2,2,2,2,2,2,2,1,2,2
17,2,2,2,2,2,2,2,2,2,2,2,2,2,2,2,2,2,2
17,2,2,2,2,2,2,2,2,2,2,1,2,2,2,2,1,2,1
17,1,2,2,1,2,2,2,1,1,2,1,1,2,1,1,1,2,2
17,2,2,2,2,2,2,2,1,1,1,2,2,2,2,2,2,2,2
17,1,1,2,2,2,2,1,2,1,2,2,2,2,2,1,1,2,1
17,2,2,2,2,2,2,1,2,2,2,2,2,2,2,2,2,2,2
17,2,1,2,2,2,2,2,1,2,2,2,2,2,2,2,1,1,2
17,1,1,2,1,2,1,2,2,1,2,1,1,1,2,1,1,2,2
17,2,2,2,2,2,2,1,2,1,2,2,2,1,2,1,2,2,1
17,1,2,2,2,2,2,1,1,1,2,1,2,2,2,1,1,1,2
17,2,2,2,2,2,2,2,2,2,2,2,2,2,2,2,1,2,2
17,2,2,2,2,2,2,2,2,2,2,2,2,2,2,2,2,2,2
17,2,2,2,2,2,2,1,2,2,2,2,2,2,2,1,1,2,2
17,1,1,1,1,1,1,1,2,1,1,2,2,2,2,1,1,1,2
17,1,1,1,2,2,1,1,2,2,2,2,2,2,2,2,1,2,2
17,2,2,2,1,2,1,2,1,1,2,2,2,2,1,2,2,2,2
17,2,2,2,2,2,2,2,1,2,2,2,2,2,2,2,2,2,2
17,2,2,2,1,2,2,1,2,1,2,1,2,2,2,1,1,2,1
17,2,1,2,2,2,2,1,2,2,2,2,2,2,2,2,1,2,2
17,2,2,2,1,2,2,2,2,1,2,1,2,2,2,2,1,1,1
17,2,2,2,2,2,2,1,2,2,2,2,2,2,2,2,2,2,2
17,2,1,2,1,1,1,2,1,1,2,1,2,2,2,1,1,1,1
17,2,2,2,2,2,2,1,2,2,2,2,2,2,2,1,1,2,2
17,2,2,2,2,2,2,1,1,2,2,1,2,2,2,2,1,2,2
17,2,2,2,2,2,2,1,2,2,2,2,2,2,2,2,1,2,2
17,2,2,2,2,2,2,1,1,2,2,2,2,2,2,1,1,2,2
17,2,2,2,2,2,2,1,1,1,2,2,2,2,2,2,1,2,2
17,2,2,2,2,2,2,1,2,2,2,2,1,2,2,2,2,2,2
17,2,2,2,2,2,1,1,1,1,2,2,2,2,2,1,1,2,2
17,2,2,2,2,2,2,2,2,2,2,2,2,2,2,1,2,2,2
17,1,1,2,2,2,1,2,1,2,2,2,1,2,2,1,2,NA,NA
17,2,2,2,2,2,2,1,2,2,2,2,2,2,2,2,2,1,2
17,2,2,2,1,1,2,2,2,1,2,2,2,2,2,2,1,1,1
17,1,1,2,1,1,2,1,2,1,2,2,2,2,2,1,1,2,2
17,2,2,2,1,2,2,1,2,1,2,2,2,2,2,1,1,2,2
17,2,2,2,2,2,2,1,1,1,2,2,2,2,2,2,2,2,2
17,2,2,2,2,1,2,2,2,2,2,1,2,2,2,2,1,2,2
17,1,2,2,2,1,1,2,2,2,2,2,2,2,2,2,1,2,2
17,1,1,2,2,2,2,2,2,2,2,1,2,2,2,2,1,2,1
17,2,2,2,2,2,2,2,1,2,2,1,2,2,2,1,1,2,1
17,2,1,1,1,1,1,1,1,1,1,1,1,2,1,2,1,1,1
17,2,2,2,2,2,2,2,1,2,2,2,2,2,2,2,1,2,2
17,2,2,2,2,2,2,2,2,2,2,2,2,2,2,2,1,2,2
17,2,1,1,1,1,1,1,1,2,2,2,2,2,2,1,1,2,2
17,2,2,2,2,2,2,1,1,2,1,2,2,2,1,2,1,2,2
17,2,2,2,2,2,2,1,2,2,2,2,1,2,1,2,1,2,2
17,2,2,2,2,2,2,1,2,1,2,2,2,2,2,1,1,2,2
17,2,2,2,2,2,2,1,2,2,2,2,2,1,2,2,1,2,1
17,2,2,1,1,1,1,1,1,2,2,2,2,2,2,2,2,2,2
17,2,2,2,1,2,2,1,1,2,2,2,2,2,2,2,1,2,2
17,2,2,2,1,2,2,1,2,1,2,2,1,2,2,2,2,2,2
17,2,2,2,2,2,2,2,2,2,2,1,1,2,2,1,2,1,2
17,2,2,2,2,2,2,1,2,2,2,2,2,2,2,2,2,2,2
17,2,2,2,2,2,1,1,1,1,2,2,2,2,2,2,1,2,2
17,2,2,2,2,2,2,2,1,2,2,2,2,2,2,2,1,2,2
17,2,2,2,2,2,1,1,2,2,2,2,2,2,2,2,1,2,2
17,2,2,2,2,2,1,1,1,2,2,2,2,2,2,1,1,2,2
17,2,2,2,2,2,2,2,2,2,2,2,2,2,2,1,2,2,2
17,2,2,2,1,2,2,2,1,2,1,1,2,2,2,2,2,2,2
17,2,2,2,2,2,1,2,2,2,2,2,2,2,2,2,2,2,2
17,2,2,2,1,2,2,1,1,1,2,NA,2,1,1,1,1,1,2
17,2,2,2,2,2,2,2,2,2,2,2,2,2,2,2,2,2,2
17,2,2,2,1,2,1,1,2,2,2,1,2,2,2,2,1,1,1
17,2,1,2,1,2,1,1,2,NA,2,NA,2,2,2,2,1,1,1
17,2,2,2,2,2,1,2,2,2,2,2,2,2,2,2,1,2,2
17,2,2,2,2,2,2,1,1,2,2,2,2,2,2,2,1,2,2
17,2,2,2,2,2,1,1,2,1,2,1,2,2,2,1,1,1,1
17,2,2,2,2,2,2,1,2,1,1,2,2,2,2,2,1,1,2
17,2,1,2,2,1,2,1,1,2,2,2,2,2,2,1,1,1,1
17,1,2,2,1,2,2,2,1,2,1,1,2,2,2,2,1,2,1
17,2,2,2,1,2,2,1,2,2,2,2,2,2,2,2,1,2,2
17,2,2,2,2,2,2,2,2,2,2,2,2,2,2,1,2,2,2
17,2,2,2,2,2,2,1,2,2,2,1,1,2,2,2,2,1,2
17,2,2,2,2,2,1,1,2,2,2,2,2,2,2,2,2,2,2
17,2,2,2,2,2,2,1,1,1,1,1,2,2,2,2,2,1,2
17,2,2,2,2,2,2,2,2,2,2,2,2,2,2,2,1,2,2
17,2,2,2,2,2,2,1,1,1,2,1,2,2,2,2,1,1,2
17,1,1,2,1,1,2,1,1,2,2,2,2,2,2,1,1,2,2
17,2,2,2,1,2,1,1,1,2,2,2,2,2,2,2,1,2,2
17,2,1,1,2,1,2,2,2,2,2,2,2,2,2,2,1,2,2
17,2,2,2,2,2,2,2,2,2,2,2,1,2,2,1,1,1,1
17,2,2,2,2,2,2,2,2,2,2,1,2,2,2,2,2,2,2
17,2,2,2,1,2,1,1,2,1,2,1,1,2,2,1,1,1,1
17,2,2,2,2,2,1,1,2,1,2,2,2,2,2,1,1,2,2
17,2,2,2,1,2,2,1,1,2,1,1,2,2,1,1,1,1,1
17,2,2,2,2,2,1,2,2,1,1,2,2,2,1,1,1,1,2
17,2,2,2,2,2,2,1,2,1,2,2,2,2,1,2,2,1,2
17,2,2,2,2,2,2,2,1,2,2,2,2,2,2,2,1,2,2
17,2,2,2,2,2,2,1,2,2,2,2,2,2,1,2,1,2,2
17,2,2,2,1,2,2,2,1,2,2,2,2,2,2,2,1,2,2
17,2,2,2,2,2,2,1,1,1,2,2,1,2,2,1,1,1,2
17,2,2,2,2,1,2,1,1,1,2,2,2,2,2,2,1,2,2
17,2,2,2,2,2,2,2,2,2,2,2,2,2,2,2,2,2,2
17,2,2,2,2,2,2,1,2,2,2,2,2,2,2,1,1,2,2
17,2,2,2,2,2,2,1,2,2,2,2,2,2,2,2,2,2,2
17,1,1,1,1,1,1,1,1,1,1,1,1,2,2,1,1,2,1
17,2,2,2,2,2,NA,NA,1,2,2,2,2,NA,2,1,2,2,2
17,2,2,2,2,2,2,1,2,2,2,2,2,2,2,2,2,2,2
17,2,2,2,2,2,2,2,2,2,2,2,1,2,2,2,1,2,2
17,1,2,2,2,2,2,1,2,2,2,2,2,2,2,2,1,1,2
17,2,2,2,2,2,2,1,2,2,2,1,2,2,2,2,1,2,2
17,2,2,2,1,2,2,1,2,2,2,2,2,2,2,1,1,1,2
17,2,1,2,2,1,2,1,1,2,2,2,2,2,2,2,1,1,2
17,2,2,2,2,2,2,2,2,2,2,1,1,2,2,2,1,1,1
17,2,2,2,2,2,2,1,1,2,2,2,2,2,2,2,1,2,2
17,2,2,2,1,2,1,1,1,1,2,1,2,2,2,1,1,2,2
17,2,2,2,2,2,1,1,2,2,2,2,2,2,2,2,1,2,2
17,2,2,2,2,1,NA,1,2,2,2,2,1,1,2,1,2,1,2
17,2,2,2,1,1,1,1,1,1,2,2,2,2,2,1,1,2,2
17,2,2,2,2,1,1,1,2,2,1,2,1,2,2,1,1,2,1
17,2,2,2,2,2,2,1,1,2,2,2,2,2,2,2,1,2,2
17,2,2,1,1,2,2,1,2,2,2,1,2,2,2,2,2,2,2
17,2,2,1,1,2,1,2,2,2,1,1,2,2,2,1,1,2,2
17,2,2,2,1,2,2,1,2,2,2,2,2,1,2,2,1,2,2
17,1,2,2,2,1,1,2,1,1,2,2,1,2,2,1,1,2,1
17,2,2,2,2,2,2,2,2,2,2,2,1,2,2,2,2,1,2
17,2,2,2,2,2,1,1,1,2,2,2,2,2,2,1,1,1,2
17,2,2,2,2,1,2,2,2,2,2,2,2,2,2,2,1,2,2
17,2,2,2,1,2,2,1,2,2,1,1,2,2,2,2,1,2,2
17,2,2,2,2,2,2,2,2,2,2,2,1,2,2,2,1,2,2
17,2,2,2,2,2,1,2,1,1,1,1,2,2,2,2,1,2,1
17,2,2,2,2,2,2,1,2,2,2,2,2,1,2,2,2,1,2
17,1,2,2,2,1,1,1,2,1,2,2,2,2,2,2,1,2,2
17,1,1,2,1,1,1,1,1,2,2,2,2,2,2,1,1,1,1
17,2,2,2,2,2,2,1,1,2,2,2,2,2,2,2,1,2,2
17,2,2,2,2,2,2,2,2,2,2,2,2,2,2,2,NA,2,2
17,2,2,2,2,2,2,1,2,2,2,2,2,2,2,2,1,1,2
17,2,2,2,2,2,2,2,2,2,2,2,2,2,1,1,2,2,2
17,1,1,2,2,1,2,2,1,2,2,1,2,2,2,1,2,2,2
17,2,2,2,2,2,2,1,2,2,2,2,2,2,2,1,2,2,2
17,2,2,2,2,2,2,1,2,2,2,1,2,2,2,2,2,2,2
17,1,1,2,1,1,1,1,2,2,1,1,1,1,2,1,2,1,2
17,2,2,2,2,2,2,1,2,2,2,2,2,2,2,2,2,2,2
17,2,1,1,1,2,1,1,2,1,2,1,2,2,2,1,1,2,2
17,2,2,2,2,2,2,2,2,2,2,2,2,2,2,2,2,2,2
17,2,2,2,2,2,2,2,1,2,2,2,2,2,2,2,1,2,2
17,2,2,2,1,2,2,1,2,2,2,2,2,2,2,1,2,1,1
17,2,2,2,2,2,2,2,1,2,2,2,2,2,2,2,1,2,2
17,2,2,2,2,2,2,2,2,2,2,2,2,2,2,2,2,1,2
17,2,2,2,2,2,2,2,2,2,2,2,2,2,2,2,1,2,2
17,2,2,2,2,2,1,1,1,2,2,2,1,2,1,1,2,2,2
17,2,2,2,2,2,2,2,2,2,2,2,2,2,2,1,2,2,2
17,2,2,2,1,2,2,1,2,2,2,1,2,2,2,1,1,1,1
17,2,2,2,2,2,2,1,1,2,2,2,2,2,2,2,1,2,2
17,2,2,2,2,2,1,2,2,2,2,1,1,2,2,2,1,2,1
17,2,2,2,1,2,2,2,2,1,2,1,2,1,2,1,2,2,2
17,2,2,2,2,2,1,1,2,1,1,2,1,2,2,1,1,2,2
17,2,2,2,2,2,2,2,2,2,2,2,2,2,2,2,1,2,2
17,2,2,2,2,2,2,1,1,1,2,1,2,2,2,2,1,1,2
17,2,2,2,2,2,2,2,1,2,2,2,2,2,2,1,2,2,2
17,2,2,2,1,2,1,1,1,2,2,1,2,2,2,1,1,2,2
17,2,2,2,2,2,2,2,2,2,2,2,1,2,2,1,1,2,2
17,2,1,2,2,1,2,1,2,2,2,1,2,2,2,2,1,1,1
17,2,2,2,2,2,2,1,2,2,2,2,1,2,2,2,2,2,2
17,2,2,2,2,2,2,2,2,2,2,2,1,2,2,2,2,1,2
17,2,2,2,2,2,2,2,1,2,2,2,2,2,2,1,1,2,2
17,2,2,2,2,2,2,1,2,2,2,2,2,2,2,2,1,1,1
17,2,2,2,2,2,2,2,2,2,1,2,1,1,2,1,1,1,2
17,2,2,2,2,2,2,2,1,2,2,2,2,2,2,2,1,1,2
17,2,2,2,2,2,2,2,2,2,1,2,1,2,2,2,2,2,2
17,2,2,2,1,2,2,1,2,2,2,2,2,2,2,2,1,1,1
17,2,1,2,2,2,2,1,2,1,2,1,2,2,2,2,2,2,2
17,2,2,2,2,2,1,2,2,2,2,2,1,2,2,2,1,2,2
17,2,1,2,2,1,2,1,2,2,2,2,2,2,2,2,1,2,2
17,2,2,2,2,2,1,1,2,2,1,2,1,2,2,1,2,2,2
17,1,1,1,2,2,1,1,2,1,2,2,2,2,2,1,1,2,2
17,1,2,2,2,2,2,1,1,1,2,2,2,2,2,2,2,2,2
17,2,2,2,1,2,1,2,1,2,1,2,2,2,2,2,2,1,2
17,1,2,2,2,2,2,1,2,2,2,2,2,2,1,1,2,2,2
17,2,2,2,2,2,2,1,2,2,2,1,2,2,2,2,1,2,2
17,2,2,2,2,2,2,2,2,2,2,2,2,2,2,2,1,2,2
17,2,2,2,2,2,2,1,1,1,1,1,2,2,2,2,1,2,2
17,2,1,2,2,2,1,1,2,1,2,2,2,2,2,1,1,2,2
17,2,2,2,2,2,2,1,1,2,2,2,2,2,2,2,2,2,2
17,2,2,2,2,1,2,1,2,2,2,2,NA,2,2,2,1,1,2
17,2,2,2,2,2,1,2,2,2,2,2,2,2,2,2,1,2,2
17,2,2,2,2,2,1,1,1,1,1,2,1,2,2,1,1,2,2
17,2,2,2,2,2,2,1,1,2,2,2,2,2,2,2,1,1,2
17,2,2,2,2,2,1,1,1,2,2,2,2,2,2,2,1,2,2
17,2,2,2,1,2,1,1,2,1,1,2,2,1,2,1,1,2,1
17,2,2,2,2,2,2,1,2,2,2,2,2,2,2,1,1,2,2
17,2,2,2,2,2,2,2,2,2,2,2,2,2,2,1,1,2,2
17,2,1,2,1,1,2,2,2,2,2,2,2,2,2,1,1,2,2
17,2,2,2,2,2,2,2,2,2,2,2,2,2,2,2,2,2,2
17,1,1,1,1,1,1,1,1,1,2,1,2,2,1,1,1,1,1
17,2,2,2,2,2,2,2,1,2,2,2,1,2,2,2,1,1,2
17,1,1,1,1,1,1,1,2,1,2,2,2,2,2,2,1,2,2
17,2,2,2,2,2,2,2,2,2,2,2,1,2,2,2,2,2,2
17,2,2,2,2,2,1,1,2,2,2,2,2,2,2,2,1,2,2
17,2,2,2,2,2,2,1,1,2,2,2,2,2,2,2,1,2,2
17,2,2,2,2,2,2,2,2,2,2,2,2,2,2,2,1,2,2
17,2,2,1,2,1,2,2,1,2,2,1,2,2,2,1,1,2,2
17,2,2,2,2,2,2,2,2,2,2,2,1,2,2,2,1,2,2
17,2,2,2,2,2,1,1,2,1,2,1,2,2,2,1,1,1,2
17,1,2,2,1,2,2,2,1,2,2,1,2,1,2,1,1,1,1
17,2,1,2,2,2,1,1,1,2,2,2,2,2,2,2,1,2,2
17,2,1,2,2,2,2,2,2,2,1,1,2,2,2,2,1,1,1
17,2,2,2,2,2,1,1,1,1,2,2,2,2,2,1,1,2,2
17,1,1,2,2,1,1,2,2,1,2,2,2,2,2,2,1,2,2
17,2,2,2,2,2,2,1,2,2,2,2,2,2,2,NA,1,2,2
17,2,2,2,1,1,1,1,2,1,2,2,2,2,2,1,2,2,2
17,2,2,2,2,2,2,2,2,2,2,2,2,2,2,2,1,1,2
17,1,1,2,2,2,2,1,2,2,2,2,2,2,1,2,2,2,2
17,2,2,2,2,2,2,2,2,2,2,1,2,2,2,2,1,1,2
17,2,2,2,2,2,2,2,2,2,2,2,2,1,2,2,2,2,2
17,2,2,2,1,2,1,1,1,1,2,2,1,1,1,1,1,2,2
17,1,2,1,2,2,2,1,2,2,2,2,2,2,2,2,1,2,2
17,2,2,2,2,2,2,2,1,2,2,2,1,1,2,1,1,1,1
17,2,2,2,2,2,2,1,1,2,2,2,1,2,2,1,1,2,2
17,2,2,2,2,2,2,1,1,1,1,2,1,2,2,1,1,1,1
17,2,2,2,2,2,2,1,1,1,2,2,2,2,2,1,1,2,2
17,2,2,2,2,2,2,1,2,1,2,2,2,2,2,1,1,1,2
17,2,2,2,2,2,2,1,1,2,2,2,1,2,2,1,1,1,1
17,2,2,2,2,2,2,2,2,1,2,2,1,2,2,1,1,2,2
17,1,1,2,1,1,2,1,1,1,1,1,1,2,1,2,1,1,1
17,1,1,2,2,2,2,1,2,2,2,2,1,2,2,2,2,2,1
17,2,2,2,2,2,2,1,2,2,2,2,2,2,2,2,2,2,2
17,2,2,2,1,2,2,1,2,1,2,2,1,1,1,2,2,2,2
17,2,2,2,2,2,2,2,2,2,2,2,2,2,2,2,1,1,2
17,2,2,2,2,2,2,2,2,2,2,2,2,2,2,2,2,2,2
17,2,2,2,2,2,2,2,2,2,2,2,2,2,2,2,2,2,2
17,2,2,2,2,2,1,1,2,1,2,2,2,2,2,1,1,2,2
17,2,2,2,2,2,2,2,2,2,2,2,2,2,2,1,2,2,2
17,2,2,2,1,2,1,2,1,2,2,1,2,2,2,2,1,2,2
17,2,2,2,2,2,2,1,2,1,1,2,2,2,2,1,1,2,2
17,2,2,1,1,1,2,1,1,1,2,2,2,2,2,1,1,2,2
17,2,2,2,1,2,2,2,1,2,2,2,2,2,2,2,2,2,2
17,2,2,2,2,2,2,2,1,1,2,2,2,2,2,2,1,1,1
17,1,1,2,2,2,1,1,1,2,2,1,1,2,NA,2,1,2,2
17,2,2,2,1,2,2,2,1,1,2,2,2,1,2,1,1,2,1
17,2,2,2,2,2,2,2,2,1,2,2,2,2,2,1,2,2,2
17,2,2,2,2,2,2,1,2,2,2,1,1,2,2,1,1,2,2
17,2,2,2,2,2,2,1,2,2,2,2,2,2,2,1,1,2,2
17,2,2,2,2,2,2,2,2,2,2,2,2,2,2,2,1,1,1
17,2,2,2,2,2,1,2,1,2,2,2,1,2,2,1,1,2,2
17,2,2,2,2,2,2,2,2,2,2,2,2,2,2,2,1,2,2
17,2,2,2,2,2,2,1,1,2,2,2,2,2,2,1,2,2,2
17,2,2,2,2,2,2,1,2,2,2,1,2,2,2,2,1,1,2
17,2,2,2,2,2,2,1,2,2,2,2,2,2,1,2,2,2,2
17,2,2,2,1,1,1,1,1,2,2,1,1,2,1,2,1,1,1
17,2,2,2,2,2,2,2,2,2,2,2,2,2,2,2,2,2,2
17,1,1,2,1,2,2,1,1,1,2,1,1,2,2,1,1,1,1
17,1,1,1,2,1,1,1,1,1,2,2,2,2,2,1,2,2,2
17,2,1,2,1,2,1,1,1,1,2,1,2,2,1,2,1,2,2
17,2,2,2,2,2,2,1,2,2,2,2,2,2,2,2,2,1,2
17,2,2,2,2,2,2,1,1,2,2,2,2,2,2,2,2,2,2
17,2,2,2,2,2,1,2,2,2,1,2,2,2,2,2,1,1,2
17,1,1,1,2,2,2,1,2,2,2,2,2,2,2,2,2,2,2
17,2,2,2,2,2,2,2,2,2,2,2,2,2,2,2,NA,2,2
17,2,1,2,2,1,2,1,2,2,2,2,2,1,2,1,1,2,2
17,2,2,2,2,2,2,1,2,2,2,1,2,2,2,2,1,2,2
17,2,2,2,2,2,2,1,2,2,2,2,2,2,2,2,1,2,2
17,2,2,2,1,2,1,1,2,2,2,1,2,2,2,2,1,2,2
17,2,2,2,2,2,2,1,1,2,2,2,2,2,2,2,2,2,2
17,2,2,2,2,2,2,1,1,2,2,2,2,2,2,2,1,1,2
17,2,2,2,2,2,2,2,2,1,2,2,1,2,1,2,2,2,2
17,2,2,2,2,2,1,1,2,2,2,2,1,2,2,2,2,2,2
17,1,1,2,1,1,2,1,2,1,2,1,2,2,2,1,1,2,2
17,2,2,2,2,2,2,1,2,2,2,2,2,2,2,2,NA,2,2
17,2,2,2,2,2,2,2,2,2,2,2,2,2,2,2,1,2,2
17,2,2,2,2,2,2,2,2,2,2,2,2,2,2,2,1,1,1
17,2,2,2,1,2,1,1,2,1,2,1,2,1,1,1,1,1,1
17,2,2,2,2,2,2,1,1,2,2,2,2,2,2,2,1,2,2
17,2,2,2,2,2,2,1,2,2,2,2,1,2,2,1,2,2,2
17,2,2,2,2,2,2,1,2,2,2,2,2,2,2,2,1,2,2
17,2,2,2,2,2,2,2,2,1,1,1,1,2,2,1,1,2,1
17,2,2,2,2,2,2,1,2,2,2,2,2,2,2,2,1,2,2
17,2,2,2,2,2,2,2,2,2,2,2,1,2,1,2,2,2,2
17,1,1,2,1,2,2,1,2,1,2,2,2,1,2,1,1,2,1
17,2,2,2,2,2,2,1,2,2,2,2,2,2,2,2,1,2,2
17,2,2,2,2,2,NA,1,1,1,1,2,2,1,2,2,1,2,2
17,2,2,2,2,2,2,2,2,2,2,2,2,2,2,2,1,2,2
17,1,2,2,2,1,1,1,2,1,2,2,2,2,1,1,1,2,2
17,2,2,2,1,2,2,1,1,2,1,1,1,2,1,1,1,1,2
17,2,2,2,2,2,1,2,2,2,1,2,2,2,2,1,2,2,2
17,2,2,2,2,2,2,2,2,1,2,2,2,2,1,1,2,2,2
17,2,2,2,2,2,2,2,1,1,2,2,2,2,2,2,1,2,2
17,2,2,2,2,2,2,1,2,2,2,2,2,2,2,2,1,1,2
17,2,2,2,2,2,2,1,1,1,2,2,1,2,2,2,1,1,2
17,1,2,1,2,2,1,1,2,1,1,1,2,2,2,1,1,1,1
17,2,2,2,2,2,2,2,2,2,2,2,2,2,2,1,2,2,2
17,2,2,2,2,2,2,2,2,2,2,1,2,2,2,2,1,2,2
17,2,2,2,2,2,2,1,2,2,2,2,2,2,2,2,2,2,2
17,2,2,2,2,2,2,1,2,2,2,2,2,2,2,2,1,2,2
17,2,2,2,2,2,2,2,2,1,2,2,2,2,2,2,1,2,2
17,2,2,2,2,2,1,2,2,2,2,2,2,2,2,1,2,2,2
17,2,2,2,2,2,2,2,2,2,2,2,2,2,2,2,2,2,2
17,2,2,2,2,2,2,2,2,2,2,2,2,2,2,2,1,2,2
17,2,2,2,2,2,2,1,1,1,1,2,2,2,2,1,1,2,2
17,2,2,2,2,2,2,1,2,1,2,1,1,2,1,2,2,2,2
17,2,2,2,2,2,1,1,2,1,2,2,1,1,2,1,2,2,2
17,2,2,2,2,2,2,2,2,2,2,2,1,2,2,2,1,2,2
17,2,2,2,2,2,2,2,2,2,2,1,1,2,2,2,1,2,1
17,2,2,2,2,2,2,1,2,1,2,2,2,2,2,2,2,2,2
17,2,2,2,2,2,2,1,2,2,2,2,2,2,2,2,2,2,2
17,1,1,1,2,1,1,1,1,1,2,2,2,2,2,1,1,2,2
17,2,2,2,2,2,2,1,2,2,2,2,2,2,2,1,2,2,2
17,2,2,2,1,1,1,2,2,1,2,2,2,2,2,1,2,2,2
17,2,2,2,2,1,2,1,2,2,2,2,2,2,2,2,1,1,2
17,1,1,2,2,2,2,1,2,2,2,2,2,2,2,1,2,2,2
17,1,1,2,2,2,2,1,2,1,2,1,2,2,2,2,1,1,1
17,2,2,2,2,2,2,1,2,2,2,2,2,2,2,2,1,2,2
17,2,2,2,2,2,2,1,1,2,2,2,1,2,2,1,2,2,2
17,2,2,2,1,1,2,2,2,2,2,2,2,2,2,2,2,1,NA
17,2,2,2,1,2,2,1,1,1,1,1,1,2,2,1,1,1,1
17,2,2,2,2,2,2,1,2,NA,2,2,2,2,2,2,1,2,2
17,2,2,2,2,2,2,1,1,1,2,1,1,1,2,1,1,1,2
17,2,2,2,1,2,1,1,2,1,2,1,2,2,1,1,1,1,1
17,2,2,2,2,2,2,1,2,2,1,2,2,2,2,2,2,1,2
17,2,2,2,2,2,2,1,2,2,2,2,2,2,2,2,2,2,2
17,1,2,1,2,2,1,2,1,1,1,1,2,2,1,2,1,1,1
17,1,2,2,2,1,2,2,2,2,1,1,1,2,1,2,2,1,2
17,1,1,2,1,1,2,2,2,2,2,NA,2,2,2,1,1,2,2
17,1,1,2,2,2,2,1,2,2,2,2,2,1,2,2,1,2,1
17,2,2,2,2,2,2,2,1,2,2,2,2,2,2,1,1,1,2
17,2,2,2,1,2,2,2,1,2,2,2,2,2,2,2,1,1,2
17,2,2,2,2,2,2,2,2,2,2,2,2,2,2,2,1,2,2
17,1,1,2,1,1,2,1,2,1,2,1,2,1,2,1,1,1,1
17,2,2,2,2,2,2,1,2,1,2,2,2,2,2,1,2,2,2
17,2,2,2,2,2,1,1,1,2,2,2,2,2,1,1,1,2,2
17,2,2,2,1,2,2,1,2,2,2,2,1,1,1,2,1,2,1
17,2,2,2,2,2,2,1,2,2,2,2,1,2,2,2,2,2,2
17,1,1,1,1,1,1,1,1,1,1,1,2,2,2,1,1,1,1
17,2,2,2,2,2,2,1,1,2,2,2,2,2,2,2,1,2,2
17,2,1,2,2,2,2,2,2,2,2,2,2,2,1,1,1,2,2
17,2,2,2,2,2,2,2,2,2,2,2,2,2,2,1,1,2,2
17,2,2,2,2,2,2,1,1,2,2,2,2,2,2,2,1,2,2
17,2,2,2,2,2,2,1,2,2,2,2,2,2,2,1,1,2,2
17,1,1,1,2,1,1,1,1,1,1,1,1,2,2,2,1,1,1
17,2,2,2,2,2,2,1,2,2,2,2,2,2,2,2,2,2,2
17,2,2,2,2,1,1,2,2,2,2,2,1,2,1,2,1,2,2
17,2,2,2,2,2,2,2,2,2,2,2,1,2,1,1,1,2,2
17,2,2,2,2,2,2,1,1,2,2,2,2,2,2,1,1,1,2
17,2,2,2,2,2,2,1,2,2,2,2,1,1,1,2,2,1,2
17,2,2,2,1,2,2,1,1,1,2,1,1,2,2,1,2,2,2
17,2,2,2,2,1,2,1,2,2,2,2,2,1,2,1,1,2,2
17,2,2,2,2,2,2,2,2,1,2,1,2,2,2,2,2,2,2
17,2,2,2,2,2,2,1,2,2,2,1,1,2,2,2,2,1,2
17,2,2,2,2,2,2,1,2,2,2,2,2,2,2,2,1,2,2
17,2,2,2,1,1,1,1,2,1,2,2,1,1,2,2,2,2,2
17,2,2,2,2,2,2,2,2,2,2,2,1,2,2,1,1,2,2
17,2,2,2,1,2,2,1,2,2,2,1,1,1,1,2,2,1,2
17,2,2,2,2,2,2,1,2,2,2,2,2,2,2,2,2,2,2
17,2,2,2,2,2,2,2,2,1,2,2,2,2,2,2,2,2,2
17,2,2,1,2,2,2,1,2,2,2,2,2,2,2,2,1,2,2
17,2,2,2,2,2,2,1,2,2,2,2,2,2,2,2,2,1,2
17,2,2,2,2,2,2,2,2,2,2,1,2,2,1,2,1,1,1
17,2,1,1,1,1,2,1,2,2,2,1,1,2,1,1,1,2,1
17,2,2,2,2,2,2,2,2,2,2,2,1,1,1,2,1,2,2
17,2,2,2,2,2,1,2,1,2,2,2,1,1,2,1,1,2,2
17,2,2,2,2,2,1,1,1,2,1,2,1,2,1,2,1,1,1
17,2,2,2,2,2,2,1,1,2,2,2,2,2,2,1,1,2,2
17,2,2,2,2,2,1,2,2,2,2,2,2,2,1,2,2,2,2
17,2,2,2,2,2,2,1,1,2,2,2,2,2,1,1,2,2,2
17,2,2,2,1,2,2,2,2,1,1,2,1,1,2,1,2,2,2
17,2,2,2,2,2,2,2,2,2,2,2,1,2,2,2,2,2,2
17,2,2,2,2,2,2,1,2,2,2,2,2,2,2,2,1,2,2
17,2,2,2,2,2,1,2,1,2,2,2,2,2,2,1,2,2,2
17,2,2,2,2,2,2,1,1,1,2,2,1,2,1,1,1,1,2
17,2,2,2,1,2,2,1,2,2,2,1,2,2,1,2,1,2,2
17,2,2,2,2,2,2,1,2,2,2,2,2,2,2,1,2,2,2
17,2,2,2,2,2,2,1,2,2,2,2,2,2,2,2,1,2,2
17,2,2,2,2,2,2,2,2,2,2,2,2,2,2,2,2,2,2
17,2,2,2,2,2,1,1,1,2,2,2,2,2,1,1,1,2,2
17,2,2,2,2,2,2,1,1,2,2,2,2,2,NA,2,2,2,2
17,2,2,2,2,2,1,1,2,2,1,2,2,2,2,2,1,1,2
17,2,2,2,2,2,2,2,2,2,2,2,2,2,2,2,1,2,2
17,2,2,2,2,2,2,1,2,2,2,2,2,2,2,2,1,2,2
17,2,2,2,2,2,2,2,2,2,2,2,2,2,2,2,1,2,2
17,2,2,2,2,2,1,2,1,2,2,2,2,1,2,2,1,1,2
17,2,2,2,2,2,2,2,2,2,2,2,2,2,2,2,1,2,2
17,2,2,2,2,2,2,1,2,2,2,2,2,2,1,2,2,2,2
17,2,2,2,1,2,2,1,2,2,2,1,2,2,1,1,1,1,2
17,2,2,2,2,2,2,2,2,2,2,2,2,2,2,1,2,2,2
17,2,2,2,2,2,2,2,2,2,2,2,1,2,1,1,1,2,1
17,1,2,2,2,2,1,1,2,2,2,2,2,2,2,1,1,2,2
17,2,2,2,2,2,2,1,1,2,2,2,2,2,2,2,1,2,2
17,2,2,2,1,2,2,2,1,2,2,2,2,2,2,2,1,1,2
17,2,2,2,2,2,2,2,2,2,2,2,1,2,2,2,1,1,2
17,2,2,2,2,2,2,1,2,2,2,2,1,2,1,2,2,2,2
17,2,2,2,2,2,2,1,2,2,2,2,2,2,2,1,1,2,2
17,2,2,2,2,2,1,2,2,2,2,2,1,2,2,2,1,2,2
17,2,2,2,2,2,2,1,1,2,2,2,2,2,2,2,1,2,2
17,2,2,2,2,2,2,2,2,2,2,2,2,1,2,2,1,1,1
17,2,2,2,2,2,2,1,1,2,2,2,2,2,2,2,1,2,2
17,2,2,2,2,2,2,2,2,2,2,1,2,2,2,2,1,2,2
17,2,1,2,1,2,2,1,1,2,2,2,2,2,2,1,2,2,1
17,2,1,2,1,1,2,2,1,2,2,2,2,2,2,2,1,1,1
17,2,2,2,2,2,2,2,2,2,2,2,2,2,2,2,2,1,2
17,1,2,2,2,2,2,1,2,2,2,1,2,2,2,2,1,1,2
17,2,2,2,1,2,2,1,2,2,2,2,2,2,1,2,2,1,2
17,1,1,2,1,1,2,1,1,2,2,1,2,1,2,2,2,1,2
17,2,2,2,2,2,1,2,2,2,2,2,2,2,2,2,1,1,2
17,1,2,1,2,2,1,1,1,1,1,2,2,2,2,1,2,2,2
17,1,1,2,2,2,2,1,1,2,1,1,2,2,2,1,1,2,1
17,2,2,2,2,2,2,1,2,2,2,2,2,2,2,2,2,2,2
17,2,2,2,2,2,2,2,2,2,2,2,2,2,2,2,1,2,2
17,2,2,2,2,2,2,2,2,2,2,2,2,2,2,2,1,2,2
17,2,2,2,2,2,2,2,2,1,2,2,2,2,2,2,1,2,2
17,2,2,2,2,2,2,2,1,2,2,2,2,2,2,1,1,2,2
17,2,2,2,2,2,2,2,2,2,2,2,2,2,2,2,1,2,2
17,2,2,2,2,2,2,1,1,1,2,2,2,2,2,2,1,1,2
17,2,2,2,2,2,1,2,2,1,2,2,1,2,1,1,1,2,2
17,2,2,1,1,2,1,1,2,2,2,2,1,2,2,2,1,1,1
17,2,2,2,2,2,1,1,2,2,2,2,2,2,2,2,1,2,2
17,2,2,2,2,2,2,1,2,2,2,1,2,2,2,2,1,2,2
17,2,2,2,2,2,1,2,1,2,2,2,1,2,2,2,1,2,2
17,2,2,2,2,2,1,2,2,1,1,1,1,1,1,1,2,1,2
17,2,2,2,2,2,NA,1,2,1,2,2,2,2,2,2,1,2,2
17,2,2,2,2,2,2,1,2,2,1,2,2,2,2,2,2,2,2
17,2,2,2,2,1,1,1,1,2,2,NA,2,2,2,1,1,2,2
17,2,2,2,2,2,2,2,1,2,2,2,2,2,2,2,2,2,2
17,2,2,2,2,2,2,2,1,2,2,2,2,2,2,2,2,2,2
17,2,2,2,2,2,2,1,1,1,1,1,1,2,1,2,1,1,1
17,2,2,2,2,2,2,1,2,2,2,2,2,2,1,1,1,2,2
17,2,2,2,1,2,1,2,1,2,1,1,1,2,1,1,1,2,1
17,2,2,2,2,1,1,1,1,1,2,1,2,2,2,1,1,2,1
17,2,2,2,2,2,2,1,2,2,2,2,2,2,2,2,1,2,2
17,2,2,2,2,2,2,1,1,2,2,2,2,2,2,2,1,2,2
17,2,2,2,2,2,2,2,2,2,2,2,2,2,2,2,2,2,2
17,2,2,2,2,2,2,1,1,1,2,2,1,1,2,1,1,2,2
17,2,2,2,2,2,1,2,2,2,2,2,2,2,1,2,1,1,2
17,2,2,2,1,2,2,2,2,2,2,2,2,2,2,2,1,2,2
17,2,2,2,1,1,1,1,2,2,2,1,2,2,2,1,1,1,2
17,2,2,2,2,2,2,1,2,2,2,2,2,2,2,2,1,2,2
17,2,2,2,2,2,2,2,2,2,2,2,2,2,2,2,2,2,2
17,2,2,2,1,2,2,2,2,2,2,1,2,2,2,1,1,1,1
17,2,2,2,2,2,2,2,1,2,2,2,2,2,2,2,1,2,2
17,2,2,2,2,2,1,1,2,1,2,1,2,1,1,1,1,2,1
17,2,2,2,2,2,2,2,2,2,2,2,2,2,2,2,1,1,2
17,2,2,2,2,2,2,2,2,2,2,1,1,2,2,2,2,2,2
17,2,2,2,2,2,2,2,2,2,2,2,2,2,2,2,2,1,2
17,2,2,2,2,2,2,2,2,2,2,2,2,2,2,2,1,2,2
17,2,2,2,2,2,2,1,2,2,2,2,2,2,2,2,1,2,2
17,2,2,2,2,2,1,2,1,1,2,2,2,2,2,2,1,2,2
17,2,2,2,2,2,2,2,1,1,2,1,1,2,2,1,1,1,1
17,2,2,2,1,2,2,1,1,2,2,2,2,2,2,1,1,1,2
17,2,1,2,1,1,2,2,2,2,2,1,2,2,1,1,1,1,1
17,2,2,2,2,2,1,2,2,2,2,2,2,2,2,2,2,NA,2
17,1,2,1,1,2,2,2,2,2,2,1,2,2,2,2,1,1,1
17,2,2,2,2,2,2,2,2,2,2,2,2,2,2,2,1,1,1
17,2,2,2,2,2,2,2,2,2,2,2,2,2,2,2,1,1,1
17,2,2,2,2,2,2,2,2,2,2,2,2,1,1,2,2,2,2
17,2,2,2,1,2,2,2,1,2,2,2,2,2,2,2,2,2,2
17,2,2,2,2,2,2,2,1,2,2,2,2,2,2,2,2,2,2
17,2,2,2,2,2,2,2,2,2,1,2,2,2,2,2,1,2,2
17,2,2,2,2,2,2,2,2,2,2,1,2,2,2,1,1,2,1
17,2,2,2,2,2,2,2,2,2,2,2,2,2,1,2,1,2,2
17,1,1,2,2,1,2,1,2,2,2,2,2,2,2,2,2,1,2
17,2,2,2,2,2,2,1,2,1,2,2,2,2,2,2,1,2,2
17,2,2,2,2,2,2,1,2,2,2,2,2,2,2,2,1,2,2
17,2,2,2,2,2,2,1,1,2,2,2,2,2,2,2,2,2,2
17,2,2,2,2,2,2,1,1,1,2,2,2,1,1,1,2,2,2
17,2,2,2,2,2,2,2,2,2,2,2,2,2,2,2,1,2,2
17,2,2,2,2,2,2,2,2,1,2,2,2,2,2,1,1,2,2
17,2,2,2,2,2,2,1,2,2,2,2,2,2,2,2,1,2,2
17,2,2,2,2,2,2,2,1,2,2,2,2,2,2,2,1,2,2
17,2,2,2,2,2,2,2,2,1,2,2,1,2,2,2,2,2,2
17,2,2,2,2,2,2,2,2,2,2,2,2,1,1,1,1,1,2
17,2,2,2,2,2,2,2,2,1,1,1,1,2,2,2,2,2,2
17,2,2,2,2,2,2,2,2,2,2,2,2,2,1,2,2,2,2
17,2,2,2,2,2,2,2,2,2,2,2,2,2,2,2,1,2,2
17,2,2,2,2,2,2,2,2,2,1,1,1,2,1,2,1,1,2
17,2,2,2,2,2,2,1,1,2,2,2,2,2,1,2,2,2,2
17,2,2,2,2,2,2,1,2,1,2,2,2,2,2,1,1,2,2
17,2,2,2,1,2,2,2,2,2,2,2,1,2,2,1,1,2,2
17,2,2,2,2,2,2,2,1,2,2,2,2,2,2,2,1,2,2
17,2,2,2,2,2,2,1,1,1,2,1,2,2,1,1,1,1,2
17,2,2,2,2,2,2,1,2,2,2,2,2,2,2,2,1,2,2
17,2,2,1,1,1,2,2,2,2,2,2,1,2,2,2,1,1,2
17,2,2,2,1,2,2,2,2,2,2,2,2,2,2,1,1,2,2
17,2,2,1,2,1,2,1,2,2,2,2,2,2,2,2,2,2,2
17,2,2,2,2,2,1,2,2,2,2,2,1,2,1,1,1,2,2
17,2,2,2,2,2,1,1,2,2,2,2,2,2,2,2,1,1,2
17,2,1,1,2,1,2,1,1,2,2,1,2,2,2,1,1,1,1
17,2,2,2,2,2,2,1,2,2,2,2,1,2,1,2,2,2,2
17,1,2,1,2,2,2,1,1,1,2,1,2,2,2,1,1,1,1
17,2,2,2,2,2,1,1,1,2,2,2,2,2,2,2,1,1,2
17,2,2,2,2,2,2,1,2,2,2,2,2,2,2,1,2,2,2
17,2,2,2,1,1,2,1,1,2,2,1,2,2,1,2,1,1,1
17,2,1,2,2,2,2,1,2,1,2,2,2,2,2,1,1,1,2
17,2,2,2,2,2,2,2,2,2,2,2,2,2,2,2,1,1,2
17,2,2,2,2,2,2,2,2,2,2,2,2,2,2,2,2,2,2
17,2,2,2,2,2,2,2,2,1,2,1,2,2,2,1,1,2,2
17,1,1,1,1,2,1,1,1,2,2,2,2,1,2,2,1,2,2
17,2,2,2,2,2,2,1,2,2,2,2,2,2,2,2,1,2,2
17,2,2,2,2,2,2,2,1,2,2,2,1,2,1,2,2,1,2
17,2,2,2,2,2,2,2,2,2,2,2,2,2,2,2,1,1,2
17,2,2,2,2,2,1,1,2,1,2,2,2,2,2,2,1,2,2
17,2,2,2,2,2,2,2,1,2,2,2,2,2,2,2,2,2,1
17,2,2,2,1,2,2,1,2,2,2,2,2,2,2,2,1,1,2
17,2,2,2,2,2,2,2,2,2,2,2,2,2,2,2,1,2,2
17,2,2,2,2,2,1,2,2,2,2,2,2,2,2,2,2,1,2
17,2,2,2,2,2,2,2,2,2,2,2,2,2,2,2,1,1,2
17,2,2,2,2,2,1,2,2,1,2,2,2,2,2,1,2,1,2
17,2,2,2,2,2,2,2,2,2,2,2,2,2,2,2,1,2,2
17,1,1,2,1,1,1,1,1,1,1,2,2,2,2,2,1,1,2
17,2,2,2,2,2,2,1,2,1,2,2,2,2,2,1,2,2,2
17,2,2,2,2,2,2,1,2,2,2,2,2,2,2,2,2,2,2
17,1,2,2,1,2,2,2,2,2,2,2,2,2,2,2,1,2,2
17,2,2,2,2,2,2,2,2,2,2,2,2,2,2,2,1,2,2
17,2,1,2,1,1,2,1,1,2,2,2,1,2,2,1,1,1,2
17,2,2,2,2,2,2,1,2,2,2,2,1,2,1,1,1,2,2
17,2,2,2,2,1,2,2,2,1,2,2,1,2,2,2,2,2,2
17,2,2,1,2,2,2,1,2,2,2,2,2,2,2,2,1,2,2
17,2,2,2,2,2,1,1,1,1,1,2,2,2,1,1,1,1,2
17,2,2,2,2,2,2,1,1,2,2,1,2,2,2,2,2,2,1
17,2,2,2,1,2,2,1,2,2,2,1,2,1,1,2,2,2,2
17,2,2,2,2,2,2,2,1,2,2,2,2,2,2,2,2,2,2
17,2,2,2,2,2,2,2,2,2,2,1,1,2,2,2,2,2,2
17,2,2,2,1,2,2,1,2,2,2,2,2,2,2,2,1,2,2
17,2,2,2,2,2,2,1,2,2,2,2,2,2,2,2,1,2,2
17,2,2,2,2,2,2,2,1,1,2,2,2,2,2,2,1,1,1
17,2,2,2,2,2,2,2,2,2,2,2,2,2,1,2,2,2,2
17,2,2,2,1,2,1,1,2,1,1,1,1,1,1,1,1,1,1
17,2,2,2,2,2,2,2,2,2,2,2,2,2,2,2,1,2,2
17,2,2,2,2,2,2,1,2,2,2,2,2,2,2,2,1,2,2
17,2,2,2,2,2,2,2,2,2,2,2,2,2,2,1,1,2,2
17,2,2,2,2,2,2,2,2,2,2,2,2,2,1,2,1,2,1
17,2,2,2,2,2,2,1,2,2,2,2,1,2,2,1,2,2,2
17,2,2,2,2,2,2,2,2,2,2,2,2,2,2,2,1,1,2
17,2,2,2,2,2,1,1,2,2,2,2,2,2,2,1,1,2,2
17,2,2,2,2,2,2,1,2,2,2,2,1,2,1,2,2,2,2
17,1,2,2,1,2,1,1,2,1,2,1,2,2,2,2,1,1,1
17,2,2,2,2,2,2,1,1,1,2,1,2,2,2,2,1,1,2
17,2,2,2,2,2,2,1,2,2,2,2,2,2,2,2,1,2,2
17,2,2,2,2,2,2,1,2,2,2,2,2,2,2,2,1,2,2
17,2,2,2,2,2,2,1,1,2,2,2,1,2,2,2,1,1,2
17,2,1,2,2,2,2,1,1,2,2,2,2,2,2,1,1,2,2
17,2,2,2,1,2,2,1,2,1,2,1,2,2,2,1,1,2,2
17,2,2,2,2,2,2,1,1,2,2,1,1,2,2,2,1,1,1
17,1,2,2,2,2,2,1,2,2,2,2,2,2,2,2,1,2,2
17,2,2,2,2,2,1,1,2,2,2,2,2,2,2,1,2,1,2
17,2,2,2,2,2,2,2,2,2,2,1,1,2,2,1,2,2,2
17,2,2,2,2,2,2,1,2,2,2,2,2,2,2,2,2,1,2
17,2,2,2,2,2,2,2,2,2,2,2,2,2,2,2,2,2,2
17,2,2,2,2,2,2,1,2,1,2,2,2,2,2,1,1,2,2
17,2,2,2,2,2,1,1,2,1,2,1,1,2,2,1,1,1,2
17,2,2,2,2,2,1,2,2,1,1,2,1,2,2,1,1,1,2
17,2,2,2,2,2,2,1,2,2,2,2,2,2,2,2,NA,2,2
17,2,2,2,2,2,2,2,2,2,1,1,1,2,2,2,1,1,1
17,2,2,2,2,2,2,2,2,2,2,2,1,2,1,1,2,2,2
17,2,2,2,2,2,NA,1,2,2,1,1,1,2,1,2,1,1,1
17,2,2,2,1,2,2,2,2,2,2,1,1,2,1,2,2,1,2
17,2,2,2,2,2,2,1,2,2,2,2,2,2,2,1,1,1,1
17,2,2,2,1,2,2,1,1,2,2,1,2,2,2,2,1,1,2
17,2,2,2,2,2,2,2,2,2,2,1,2,1,1,1,1,1,2
17,2,2,2,2,2,2,2,1,2,2,2,1,2,1,2,2,2,2
17,2,2,2,2,2,2,2,2,2,2,2,1,2,2,2,1,1,2
17,2,2,2,2,2,2,2,2,2,2,2,2,2,2,2,1,2,2
17,2,2,2,2,2,1,2,2,1,2,2,2,2,1,1,1,2,2
17,2,2,2,2,2,2,2,2,2,2,2,2,2,2,2,1,2,2
17,1,1,1,1,2,2,1,1,2,2,1,1,2,2,2,1,1,2
17,2,2,2,2,2,1,1,1,2,2,2,2,2,1,2,2,2,2
17,2,2,2,2,2,NA,1,2,2,2,2,2,2,2,2,2,2,2
17,2,2,2,2,2,2,1,2,2,1,2,2,2,2,2,1,2,2
17,2,2,2,2,2,2,1,2,1,2,2,2,2,2,2,1,1,1
17,2,2,2,2,2,2,1,2,2,2,2,2,2,2,2,1,2,2
17,2,2,2,2,2,2,1,2,2,2,2,2,2,2,2,2,2,2
17,1,1,2,1,2,2,2,2,2,2,2,2,2,2,2,1,2,2
17,2,2,2,2,2,1,1,2,1,2,1,2,2,2,2,1,1,1
17,2,2,2,2,2,2,1,2,2,2,2,2,2,2,1,1,1,2
17,2,2,2,2,2,2,1,2,2,2,2,1,2,2,2,2,2,2
17,2,2,2,2,2,2,2,2,2,2,2,1,2,2,2,1,1,2
17,2,2,2,2,2,1,1,2,1,2,2,1,2,2,1,1,2,2
17,2,2,2,1,1,2,1,1,2,2,2,2,1,2,1,1,2,1
17,2,2,2,2,2,2,1,2,2,2,2,1,2,1,2,2,2,2
17,2,2,2,2,2,2,1,2,2,2,2,2,2,2,2,2,1,2
17,2,2,2,2,2,2,1,2,2,2,2,1,2,2,2,2,2,2
17,2,2,1,2,1,2,1,2,1,2,2,2,NA,2,2,1,2,2
17,2,2,2,2,2,2,1,2,2,2,1,2,2,1,2,1,1,1
17,2,2,2,2,2,2,2,2,2,2,2,2,2,2,2,1,1,2
17,2,2,2,2,2,2,1,2,2,2,2,1,2,2,2,2,2,2
17,2,2,2,2,2,2,2,2,2,1,2,2,2,2,1,1,2,2
17,2,2,2,2,2,2,1,2,2,2,2,1,2,2,2,2,2,2
17,1,1,2,1,1,2,2,2,1,1,1,2,2,1,1,1,2,1
17,2,2,2,1,2,1,1,2,2,2,2,2,2,2,1,1,2,1
17,2,2,2,2,2,2,2,2,2,2,2,2,2,2,2,1,2,2
17,2,2,2,2,2,2,1,2,2,2,2,2,2,2,2,2,2,2
17,2,2,2,2,2,2,1,1,2,2,2,1,2,2,2,2,2,2
17,2,2,2,2,2,2,2,2,2,2,2,2,2,2,2,1,2,2
17,2,2,2,2,2,1,1,1,2,1,2,1,2,1,1,1,2,2
17,1,1,2,1,1,1,1,2,2,2,2,2,2,2,2,1,2,2
17,2,2,2,2,2,2,2,2,2,2,1,2,2,2,2,1,1,2
17,2,2,1,2,2,2,1,2,2,1,2,2,2,2,2,1,2,2
17,2,1,2,2,2,2,1,2,2,2,2,2,2,2,2,1,2,2
17,2,2,2,2,2,2,2,2,1,2,2,2,2,2,2,1,2,2
17,2,2,2,2,2,2,1,2,2,2,2,2,2,1,1,2,1,2
17,2,2,2,2,2,2,1,1,2,2,2,2,2,2,1,1,2,2
17,2,2,2,1,2,2,2,2,2,2,1,2,2,2,2,1,2,1
17,1,1,1,2,1,2,1,2,1,2,2,2,2,2,2,1,1,2
17,2,1,2,2,1,2,1,2,1,1,1,2,2,2,1,1,1,1
17,2,2,2,2,2,2,2,2,2,2,2,2,2,2,2,2,2,2
17,2,2,2,2,2,2,2,2,2,2,2,2,2,2,2,2,2,2
17,2,2,2,2,2,1,1,1,1,2,1,2,2,2,1,1,1,1
17,2,2,2,2,2,2,2,2,2,2,2,1,1,2,2,2,2,2
17,2,2,2,2,2,1,1,2,2,2,2,2,2,2,2,1,1,2
17,2,2,2,2,2,1,2,2,2,2,2,1,2,2,2,1,2,2
17,2,2,2,2,2,2,2,2,2,2,2,2,2,2,2,1,2,2
17,2,2,2,2,2,2,2,1,2,2,2,1,2,2,2,1,2,2
17,2,2,2,2,2,2,2,1,2,2,2,1,2,2,2,1,1,1
17,2,2,2,2,2,2,1,1,2,2,2,1,2,2,2,1,1,2
17,2,2,2,2,2,2,1,1,2,2,2,1,2,2,2,2,2,2
17,2,1,1,1,1,1,1,1,1,1,1,1,1,1,1,1,1,1
17,2,2,2,2,2,1,1,1,1,2,2,2,2,2,2,1,2,2
17,2,2,2,2,2,1,2,2,2,2,2,1,2,2,2,2,2,2
17,1,1,1,1,1,2,1,2,1,2,1,2,2,2,1,1,1,1
17,2,2,2,2,2,2,1,1,2,2,2,2,2,2,2,2,2,2
17,2,2,2,1,1,1,1,1,1,2,1,2,2,2,2,1,2,1
17,2,1,1,2,1,2,1,2,2,2,1,1,1,1,1,1,2,2
17,2,2,2,2,2,2,2,2,2,2,2,1,2,1,2,1,1,2
17,2,2,2,2,2,2,1,2,2,2,2,2,2,2,2,2,2,2
17,2,2,2,2,2,2,1,2,1,2,2,2,2,2,1,1,2,2
17,2,2,2,2,2,2,2,2,2,2,2,2,2,2,2,1,2,2
17,2,2,2,2,2,2,2,2,1,2,1,2,2,2,2,1,2,2
17,2,2,2,1,2,2,2,2,2,2,2,2,2,1,2,2,1,2
17,2,2,2,2,2,2,1,2,1,2,2,2,2,2,1,1,2,2
17,2,2,2,2,2,2,2,2,2,2,2,2,2,2,2,2,2,2
17,2,2,2,2,2,2,2,2,2,2,2,1,2,2,2,2,2,2
17,2,2,2,2,2,2,1,2,2,2,1,1,2,1,2,1,1,2
17,2,2,2,2,2,2,2,2,2,2,2,2,2,2,2,1,2,2
17,2,2,2,2,2,2,2,2,1,2,1,2,2,2,2,1,1,1
17,2,2,2,2,2,1,1,2,2,2,2,2,2,2,2,1,1,1
17,2,2,2,2,2,1,1,2,2,2,1,2,2,2,2,1,1,2
17,2,2,2,2,2,2,1,2,2,2,2,2,2,1,2,1,2,2
17,2,2,2,2,2,2,1,1,2,2,2,2,2,2,2,1,2,2
17,2,2,2,1,2,1,2,2,2,2,2,2,2,2,2,1,1,2
17,2,2,1,2,1,1,1,1,1,2,2,2,2,2,1,1,2,2
17,2,2,2,2,2,2,1,2,2,2,2,2,2,2,2,2,2,2
17,2,2,2,2,2,2,1,2,2,2,2,2,2,2,2,1,2,2
17,2,2,2,2,2,2,1,2,2,2,2,2,2,2,2,2,2,2
17,1,2,2,2,2,2,2,2,2,2,1,2,2,1,2,1,1,1
17,2,1,2,2,2,2,1,2,2,2,2,1,2,2,2,2,2,2
17,2,2,2,2,2,2,1,1,2,2,2,2,2,2,1,1,1,1
17,2,2,2,2,2,2,2,1,2,2,2,2,2,2,2,1,1,2
17,2,2,2,2,2,1,1,2,2,2,2,2,2,2,1,1,2,2
17,2,2,2,1,2,1,1,1,1,2,1,1,1,2,1,1,2,1
17,2,2,2,2,2,2,2,2,2,2,1,2,2,2,1,2,1,2
17,2,2,2,1,2,2,2,1,2,2,2,2,2,2,2,1,2,2
17,2,2,2,2,2,2,1,1,2,2,2,2,2,1,1,1,1,2
17,2,2,2,2,2,2,2,2,2,2,2,2,2,1,2,2,2,2
17,2,2,2,2,2,2,1,2,2,2,2,2,2,1,1,1,2,1
17,2,2,2,2,2,2,2,2,2,2,2,2,2,2,2,1,1,1
17,2,2,2,2,2,2,2,2,2,2,2,1,2,2,1,2,2,2
17,1,2,2,2,2,1,1,2,2,2,2,2,2,2,2,2,2,2
17,2,2,1,2,2,1,1,1,1,2,1,2,2,2,1,1,1,1
17,2,2,2,2,2,1,2,2,2,2,2,2,2,1,2,2,1,2
17,2,2,2,2,2,2,2,1,2,2,1,2,2,1,1,1,1,1
17,2,2,2,2,2,2,1,1,2,2,2,2,2,2,2,1,2,2
17,2,2,2,2,2,2,1,NA,1,2,1,2,2,2,2,1,2,2
17,2,2,2,2,2,1,2,2,1,1,1,2,2,2,2,1,1,2
17,2,2,2,2,2,2,1,1,2,2,2,2,2,2,1,2,2,2
17,1,1,1,1,1,1,2,2,2,2,2,2,2,2,2,1,2,2
17,2,2,2,2,2,2,2,2,2,2,2,2,1,2,1,1,2,2
17,2,2,2,1,2,2,1,2,2,2,1,2,1,2,2,2,1,2
17,2,2,2,2,2,2,2,2,2,1,2,1,2,1,2,1,2,2
17,2,2,2,2,2,2,1,1,2,2,2,2,2,2,2,2,2,2
17,2,2,2,2,2,2,1,2,2,2,2,2,2,2,1,2,2,2
17,2,2,2,2,2,2,2,2,2,2,2,2,2,2,2,1,2,2
17,2,2,2,2,2,2,1,1,2,2,2,2,2,2,2,1,2,1
17,2,2,2,2,2,2,1,2,2,1,2,2,2,2,1,1,1,2
17,2,2,2,2,2,2,2,2,2,2,2,2,2,2,2,1,2,2
17,2,2,2,2,2,2,2,2,2,2,2,2,2,2,2,1,2,2
17,2,2,2,2,2,2,1,2,2,2,2,2,2,2,2,2,2,2
17,2,2,2,2,2,1,2,2,2,2,2,2,2,1,2,1,1,1
17,2,2,1,2,1,2,2,2,2,2,1,1,2,2,1,1,1,2
17,2,2,2,2,2,2,1,2,1,2,1,2,2,1,1,2,1,2
17,2,2,2,2,2,2,1,2,2,2,2,2,2,2,2,1,2,2
17,2,2,2,2,2,2,1,1,2,2,2,2,2,2,2,2,2,2
17,2,1,2,2,1,1,1,2,2,2,2,2,2,1,2,1,2,2
17,2,2,2,2,2,2,2,2,2,2,2,2,2,2,2,2,2,2
17,2,2,2,2,2,1,2,2,2,1,2,2,2,2,1,1,2,2
17,2,2,2,2,2,2,2,2,2,2,2,2,2,2,2,2,2,2
17,2,2,2,2,2,2,2,2,2,2,2,2,2,2,2,1,2,2
17,2,2,2,2,2,2,1,1,1,2,1,2,2,2,2,1,1,1
17,2,2,2,2,2,2,2,2,2,2,2,1,2,2,2,2,2,2
17,2,2,2,1,2,2,2,2,2,2,2,2,2,2,2,1,2,2
17,1,1,2,1,2,2,1,2,2,1,1,2,1,2,1,1,1,2
17,2,2,2,2,2,2,1,2,1,2,2,2,2,2,1,1,1,2
17,2,2,2,2,2,2,1,2,2,2,2,2,2,2,1,1,2,2
17,2,2,2,2,2,2,1,2,2,2,2,2,2,2,2,1,2,2
17,2,2,2,2,2,2,1,2,1,2,2,1,2,1,1,2,2,2
17,2,2,1,2,1,2,1,1,1,2,2,2,1,1,1,1,2,2
17,2,2,2,2,2,1,1,2,2,2,2,1,2,2,2,1,2,2
17,1,1,2,2,1,1,1,2,1,2,1,2,1,2,2,2,2,2
17,2,2,2,2,2,2,2,2,2,2,1,1,2,2,2,1,2,2
17,2,2,2,2,2,2,1,2,2,1,2,2,2,1,2,2,2,2
17,1,1,2,2,1,NA,1,1,2,2,2,2,2,2,1,1,2,2
17,2,2,2,2,2,2,2,1,2,2,2,2,2,2,2,2,1,2
17,NA,2,2,2,2,2,1,2,2,2,2,2,2,2,2,2,2,2
17,2,2,2,2,2,1,1,2,1,2,2,1,1,2,1,1,1,2
17,2,2,2,2,2,2,1,2,2,2,2,2,2,2,1,2,2,2
17,2,2,2,2,2,2,1,1,2,2,2,2,2,2,2,2,2,2
17,2,1,2,2,1,2,2,1,1,2,2,2,2,2,2,1,2,2
17,2,2,2,2,2,2,2,2,2,2,1,2,2,1,1,1,1,1
17,2,2,2,2,2,2,2,2,2,2,1,2,2,2,1,1,2,1
17,2,2,2,2,2,2,2,2,2,2,1,2,2,2,2,2,2,2
17,2,2,2,2,2,1,1,2,2,2,2,2,2,2,1,1,2,2
17,2,2,2,2,2,2,2,2,2,2,2,2,2,2,2,2,2,2
17,2,2,2,2,2,2,1,1,2,1,2,1,2,2,1,1,2,1
17,2,2,1,1,2,2,1,1,2,2,2,2,2,2,1,1,2,2
17,2,2,2,1,2,2,1,2,1,2,2,1,2,2,2,1,1,2
17,2,2,2,2,2,1,1,2,2,1,2,1,2,2,2,1,2,2
17,2,2,2,1,2,2,1,2,2,2,2,1,2,2,2,2,1,2
17,2,1,2,1,2,1,1,2,2,2,2,1,2,2,2,2,2,2
17,2,2,2,2,2,2,1,2,2,2,2,2,2,2,2,1,2,2
17,2,2,2,2,2,2,1,2,2,2,2,1,2,1,2,2,2,2
17,2,2,2,2,2,2,1,1,2,2,1,2,2,2,2,1,1,2
17,2,2,1,2,2,1,1,2,2,2,2,2,2,2,1,1,2,2
17,2,2,2,2,2,2,1,1,2,2,2,2,2,2,1,2,2,2
17,2,2,2,2,2,1,2,2,1,2,2,2,2,2,1,1,2,2
17,2,2,2,2,2,2,1,2,2,2,1,1,2,2,2,2,2,2
17,2,2,2,2,2,2,1,2,2,2,1,2,2,2,1,1,1,2
17,2,2,2,2,2,1,1,2,2,2,1,1,2,2,2,2,2,2
17,2,2,2,2,2,2,1,2,2,2,1,2,2,1,2,1,1,1
17,2,2,2,2,2,2,2,1,2,2,2,2,2,2,2,1,2,2
17,2,2,2,2,2,2,2,2,2,2,2,2,2,2,2,2,2,2
17,2,2,2,2,2,2,1,2,2,2,2,2,2,2,2,1,1,2
17,2,2,2,2,2,2,1,1,2,2,2,2,2,2,2,2,2,2
17,2,2,2,2,2,1,2,1,2,2,2,2,2,1,2,1,2,2
17,2,2,2,1,2,1,1,2,2,2,2,2,2,2,2,1,1,1
17,2,2,2,2,2,2,2,1,2,2,2,1,2,2,1,1,1,1
17,2,2,2,2,2,2,2,2,1,2,2,2,2,2,2,1,2,1
17,2,2,2,2,2,2,1,2,2,2,2,2,2,2,2,2,2,2
17,1,2,2,1,1,2,1,1,2,2,2,1,2,1,2,2,NA,NA
17,2,2,2,2,2,2,2,1,2,2,2,2,2,1,1,1,2,2
17,2,2,2,1,2,2,2,2,2,NA,2,2,2,1,2,2,1,2
17,2,2,2,2,2,2,1,1,1,2,1,2,2,2,1,1,1,2
17,2,2,2,2,2,2,2,2,2,2,2,2,2,1,2,1,2,2
17,2,2,2,2,2,2,2,1,2,2,2,2,2,2,2,1,2,2
17,2,2,2,2,2,2,2,2,2,2,2,1,2,2,2,1,1,1
17,2,2,2,2,2,2,1,2,2,2,2,2,2,2,2,2,2,2
17,1,2,2,2,2,1,2,2,2,2,2,2,2,2,1,1,2,2
17,2,2,2,2,2,1,1,2,1,2,2,1,1,1,1,2,2,2
17,2,1,2,1,1,2,1,2,1,2,1,2,2,2,1,1,1,1
17,2,2,2,1,2,2,2,2,2,2,2,1,2,1,2,1,1,2
17,2,2,2,2,2,2,1,2,2,2,2,1,2,2,2,1,1,2
17,2,2,1,1,2,2,2,2,2,2,1,2,2,2,2,1,2,2
17,2,2,2,1,2,2,1,1,1,2,2,2,2,2,2,1,2,2
17,2,2,2,2,2,2,1,2,2,2,2,2,2,2,2,1,2,2
17,2,2,2,1,2,2,1,2,2,2,2,2,2,2,2,1,1,1
17,2,2,2,2,2,2,2,1,2,2,2,2,2,2,2,1,2,2
17,2,2,2,2,2,1,2,2,1,2,2,2,2,2,1,1,2,2
17,2,2,2,2,2,1,2,2,2,2,2,2,2,1,2,1,1,2
17,2,2,2,2,2,2,1,1,2,2,2,2,2,1,2,1,2,2
17,2,1,2,1,1,2,2,2,2,2,1,2,2,2,1,1,1,1
17,1,1,2,2,2,2,2,1,1,1,1,2,2,2,1,1,1,1
17,2,2,2,2,2,2,1,2,2,2,1,2,1,2,2,2,2,2
17,2,2,2,2,2,2,2,2,2,2,2,2,2,2,1,2,2,2
17,1,2,2,2,2,2,2,2,1,1,1,1,1,1,1,1,1,1
17,2,2,2,2,2,2,2,2,2,2,2,2,2,1,2,1,2,2
17,2,2,2,2,2,2,2,2,2,2,2,2,2,2,2,1,2,2
17,2,2,2,2,2,2,1,2,2,2,2,1,2,1,1,2,2,2
17,2,2,2,2,2,2,1,1,2,2,2,1,2,2,1,1,1,2
17,2,2,2,2,2,1,1,2,2,2,2,1,2,1,2,2,2,2
17,2,2,2,1,2,2,1,1,1,2,2,2,2,2,2,1,2,2
17,2,2,2,2,2,2,1,1,2,2,2,2,2,2,2,1,1,2
17,2,2,2,2,2,1,1,1,1,1,1,2,2,1,1,1,2,1
17,2,2,2,2,2,2,1,2,1,2,2,2,2,2,1,1,2,2
17,2,2,1,1,2,2,1,1,2,2,1,2,2,2,2,1,1,2
17,2,2,2,1,2,2,1,2,2,2,1,1,1,2,2,2,2,1
17,2,2,2,2,2,2,2,2,2,2,2,2,2,2,2,2,2,2
17,1,2,2,2,2,2,1,1,2,2,2,1,1,1,1,1,2,2
17,2,2,2,2,2,2,1,2,2,2,2,2,2,2,2,2,2,2
17,2,2,2,2,2,2,1,1,1,2,1,2,2,1,2,2,1,2
17,2,2,2,1,2,2,1,2,1,2,2,2,1,2,2,1,1,2
17,2,2,2,2,2,2,2,2,2,2,2,2,2,1,2,2,2,2
17,2,2,2,1,1,1,1,1,2,2,1,1,2,2,2,1,1,2
17,2,2,2,2,2,1,1,1,1,1,2,1,2,1,1,1,1,2
17,2,2,2,1,2,2,1,2,2,2,2,2,2,2,2,1,2,2
17,2,2,2,2,2,2,2,1,2,2,2,2,2,1,2,1,2,2
17,2,2,2,2,2,2,2,1,1,2,1,2,2,2,2,1,1,2
17,2,2,2,2,2,1,1,2,2,2,2,1,2,2,2,2,2,2
17,2,2,2,2,2,2,2,2,2,2,2,2,2,2,2,1,2,2
17,2,2,2,2,2,2,1,2,2,2,2,1,2,1,1,1,2,2
17,2,2,2,2,1,2,1,2,2,2,2,2,1,2,2,1,2,2
17,2,2,2,1,2,1,1,2,1,2,1,2,2,2,1,1,1,1
17,2,2,2,2,2,2,2,2,2,2,2,2,2,2,2,2,2,2
17,2,2,2,2,2,1,1,2,2,2,2,1,2,1,2,2,2,2
17,2,2,2,2,2,2,1,2,2,2,2,2,2,2,2,2,1,2
17,2,2,2,2,2,2,1,2,2,2,2,2,2,2,2,1,1,2
17,2,2,2,2,2,2,1,2,2,2,2,2,2,2,2,1,2,2
17,2,2,2,2,1,2,2,1,2,2,1,2,2,1,2,1,2,1
17,2,2,2,2,2,1,2,2,2,1,2,2,1,1,2,2,2,2
17,2,2,2,2,2,1,1,1,2,2,2,2,2,2,2,1,1,2
17,2,2,2,2,2,2,1,2,2,2,2,1,2,1,2,1,2,2
17,2,2,2,2,2,2,2,2,2,2,1,2,2,2,2,1,1,1
17,1,1,1,1,1,2,1,2,1,1,1,1,2,1,2,1,2,1
17,2,2,2,2,2,2,1,1,1,2,2,2,2,2,2,2,2,2
17,2,2,2,2,2,2,1,1,2,2,1,2,2,2,1,1,1,1
17,2,2,2,2,2,1,1,2,2,2,1,2,2,2,1,2,1,2
17,2,2,2,2,2,2,2,1,1,2,2,2,2,2,1,2,2,2
17,2,2,2,2,2,2,1,2,2,2,2,2,2,2,2,1,1,2
17,2,2,2,2,2,1,2,2,2,2,2,2,1,2,2,1,1,2
17,2,2,2,2,2,1,1,2,1,2,1,2,2,1,1,1,1,1
17,2,2,2,2,2,2,2,2,2,2,1,2,2,1,2,1,2,1
17,2,2,2,1,2,2,1,2,2,1,1,2,2,2,1,2,2,2
17,2,2,2,2,2,2,2,2,2,2,1,2,1,2,2,1,2,2
17,1,2,2,2,2,1,1,2,2,2,2,2,2,2,2,1,2,2
17,2,2,2,2,2,2,1,2,2,2,2,2,2,2,2,1,1,2
17,2,2,2,1,1,2,2,2,2,2,1,2,2,1,1,1,1,1
17,2,2,2,2,2,2,2,2,2,1,1,1,1,2,2,1,2,1
17,2,2,2,1,2,1,1,2,1,2,2,1,1,1,1,2,2,2
17,2,2,2,2,2,1,1,2,2,2,1,1,2,2,1,1,2,2
17,2,1,2,2,1,2,1,2,1,2,2,2,2,2,2,1,1,2
17,2,2,2,2,2,2,2,1,1,2,1,1,2,2,1,1,2,2
17,2,2,2,2,2,2,2,2,2,1,2,2,2,2,1,1,2,2
17,2,2,2,1,2,2,1,2,2,2,1,2,2,2,1,1,1,2
17,1,1,2,1,1,1,2,2,2,1,1,2,2,1,2,1,1,1
17,2,2,2,2,2,1,1,1,2,2,2,2,2,2,1,1,2,2
17,2,2,2,2,2,2,2,2,2,2,2,2,2,2,2,1,1,1
17,2,2,2,1,2,2,1,1,2,2,2,2,2,2,1,1,2,2
17,2,2,2,2,2,2,1,2,2,2,2,1,1,1,2,2,2,2
17,2,2,2,2,2,2,2,2,2,2,2,1,2,2,2,2,1,2
17,2,2,2,2,2,NA,1,1,1,2,1,2,2,2,1,1,1,2
17,2,2,2,2,2,1,1,2,2,2,2,2,2,2,1,1,2,2
17,2,2,2,1,2,1,1,2,2,2,2,2,2,1,2,1,1,2
17,2,2,2,2,2,2,1,1,2,2,2,2,2,2,2,1,2,2
17,2,2,2,2,2,2,2,2,2,2,2,2,2,2,2,1,1,2
17,2,2,2,1,2,2,2,1,1,2,2,2,2,2,1,1,1,2
17,2,2,2,1,2,1,1,1,2,2,2,2,1,1,1,1,1,2
17,2,1,2,2,2,2,2,2,2,2,1,2,2,2,1,1,1,2
17,2,2,2,2,2,2,2,2,2,2,2,1,2,2,2,2,2,2
17,2,2,2,2,2,2,1,2,2,2,2,2,2,1,2,1,2,2
17,2,2,2,1,1,2,2,2,1,1,1,2,2,2,2,1,1,1
17,1,2,1,1,1,1,1,1,1,1,1,1,1,1,1,1,2,2
17,2,2,2,2,2,2,2,2,2,2,2,2,1,1,2,1,2,2
17,1,2,2,1,1,1,1,1,2,2,1,2,1,2,2,1,2,1
17,2,2,2,2,2,2,1,2,2,2,2,2,2,2,2,2,2,2
17,2,2,2,2,2,2,1,2,2,1,2,2,2,1,2,2,2,2
17,2,2,2,2,2,2,1,2,2,2,2,2,2,2,2,1,2,2
17,2,2,2,2,2,2,2,1,2,2,2,2,2,2,2,1,1,2
17,2,2,2,2,2,1,1,2,2,2,2,1,2,1,2,1,2,2
17,2,2,2,2,2,2,1,2,2,2,2,2,2,2,2,1,1,2
17,2,2,2,2,2,2,2,2,2,2,2,2,2,2,2,1,1,2
17,2,2,2,2,2,2,1,2,2,2,2,2,2,2,2,1,2,2
17,2,2,2,2,2,2,1,1,2,2,2,2,2,2,1,1,2,2
17,2,2,2,2,2,1,1,2,2,2,2,2,2,2,2,1,2,2
17,2,2,2,2,2,2,2,2,2,2,2,2,2,2,1,2,2,1
17,2,2,2,2,2,2,1,2,2,2,2,1,2,2,2,2,1,2
17,2,2,2,2,2,2,2,2,2,2,2,2,2,1,2,1,2,2
17,1,1,1,1,2,1,1,2,1,1,1,2,1,2,1,1,1,1
17,2,2,2,2,2,2,2,2,2,2,2,2,2,2,1,1,2,2
17,2,2,2,2,2,2,1,2,2,1,1,1,2,1,2,1,1,2
17,2,2,2,2,2,2,2,2,1,2,2,2,2,2,1,2,1,2
17,2,2,2,2,2,2,2,2,2,2,2,2,2,2,2,1,2,2
17,2,2,2,2,2,2,2,2,2,2,2,2,1,2,2,2,2,2
17,2,2,2,2,2,2,1,1,2,1,1,2,1,1,1,1,1,2
17,2,2,2,2,2,2,2,2,2,1,2,2,2,1,2,1,2,1
17,2,2,2,2,2,2,1,2,2,2,2,2,2,2,2,1,2,2
17,2,2,2,2,2,2,1,2,2,2,2,1,1,2,2,1,2,2
17,2,2,2,2,2,2,2,2,2,2,2,2,2,2,1,1,1,2
17,2,1,2,2,1,2,2,2,2,2,2,2,2,2,1,1,1,1
17,2,2,2,2,1,2,2,2,2,2,2,2,2,2,1,1,2,2
17,2,2,2,2,2,NA,2,2,2,2,2,2,2,2,1,2,2,2
17,2,2,2,2,2,2,2,2,2,2,2,1,2,1,2,2,2,2
17,2,2,2,2,2,2,1,2,2,2,2,2,2,2,2,1,1,2
17,2,2,2,2,2,1,2,2,1,2,2,1,2,1,1,1,2,2
17,2,2,2,2,2,2,2,1,2,2,1,2,2,2,2,1,2,2
17,2,2,2,2,2,2,2,1,2,2,NA,2,2,2,2,2,2,2
17,2,2,2,2,2,1,2,2,2,2,2,2,2,2,2,1,2,2
17,2,2,2,2,2,2,2,1,1,2,2,2,2,2,1,1,2,2
17,2,2,2,2,2,2,1,2,2,2,2,1,2,1,2,1,2,2
17,2,2,2,2,2,2,1,1,2,2,2,2,2,2,2,1,2,2
17,2,2,2,1,1,2,1,2,2,2,1,2,2,2,2,2,2,2
17,2,2,2,1,2,2,2,2,1,2,2,2,2,2,2,1,2,2
17,2,2,2,2,2,2,1,2,1,2,2,2,2,2,2,1,2,2
17,2,2,2,2,2,1,2,2,2,2,2,1,2,2,1,1,2,2
17,2,2,2,2,2,1,2,2,2,2,2,2,2,2,1,1,1,2
17,1,1,1,1,1,1,1,1,1,1,1,2,2,2,1,1,1,1
17,2,2,1,2,2,2,2,2,2,2,2,2,2,1,2,1,2,2
17,2,2,2,2,2,2,2,2,2,1,2,2,2,2,2,1,2,2
17,2,2,2,2,2,2,2,2,2,2,1,2,2,2,1,1,1,2
17,2,2,2,1,2,2,1,2,2,2,1,2,2,2,2,1,1,2
17,2,2,2,2,2,2,1,2,2,2,2,2,2,2,1,1,2,2
17,1,1,2,2,2,2,2,2,1,2,2,1,2,2,2,1,1,1
17,2,2,2,2,2,2,1,2,2,2,2,2,2,2,1,1,2,2
17,2,2,2,2,2,2,2,2,1,2,2,2,2,2,1,1,2,2
17,2,2,2,2,2,2,1,2,1,2,2,2,2,2,1,1,2,2
17,1,1,1,2,2,2,1,2,2,2,1,1,2,2,2,2,2,2
17,2,2,2,2,2,2,2,2,2,2,2,2,1,2,2,1,2,2
17,2,2,2,2,2,2,2,2,2,2,2,2,2,2,2,1,2,2
17,2,2,2,2,2,2,1,2,2,2,2,2,2,2,2,2,2,2
17,1,1,2,2,2,2,2,2,1,2,1,2,2,1,2,2,2,2
17,2,2,2,2,2,2,2,2,2,2,2,2,2,2,2,1,2,2
17,2,2,2,2,2,2,1,1,2,2,2,2,2,2,2,1,1,2
17,2,2,2,2,2,2,1,2,1,2,2,2,1,1,1,1,2,2
17,2,2,2,2,2,2,1,2,2,2,2,2,2,2,2,2,2,2
17,2,2,2,2,2,2,2,1,2,2,2,1,2,2,2,1,2,2
17,1,2,2,2,2,1,1,1,1,2,1,1,2,2,2,1,1,2
17,2,2,2,2,2,2,1,1,1,1,2,1,2,2,1,1,1,1
17,2,2,2,2,2,1,2,1,2,1,1,2,2,2,2,1,2,2
17,2,2,2,2,2,2,2,1,2,2,2,2,2,2,2,1,2,2
17,2,2,2,2,2,1,1,1,2,2,2,1,2,1,2,1,2,2
17,2,2,2,2,2,2,2,1,2,2,2,1,2,2,2,2,2,2
17,2,2,2,2,2,2,2,1,2,2,2,2,2,2,2,1,2,2
17,2,2,2,2,2,2,1,2,2,2,2,2,2,2,2,1,1,2
17,2,2,2,2,2,1,1,2,2,2,1,1,2,1,1,1,2,1
17,2,2,2,2,2,2,1,2,2,2,2,1,2,2,1,1,2,2
17,2,2,2,2,2,2,2,2,2,2,2,1,2,2,2,1,1,2
17,2,2,2,1,2,2,2,2,1,2,1,2,2,2,1,1,2,1
17,2,2,2,2,2,2,2,2,2,2,2,2,2,2,2,1,1,1
17,2,2,2,2,2,2,1,2,2,2,2,2,2,2,2,1,1,2
17,2,2,2,2,2,2,2,2,2,2,2,2,2,2,2,1,2,2
17,2,2,2,2,2,2,2,2,2,2,2,2,2,2,2,1,2,2
17,2,2,2,2,2,1,2,2,2,1,2,2,2,2,2,1,2,2
17,2,2,2,2,2,2,2,2,2,2,2,2,2,2,2,1,2,2
17,2,2,2,2,2,2,2,2,2,2,2,2,2,2,1,1,2,2
17,2,2,2,2,2,2,2,1,2,2,2,2,2,2,2,1,2,2
17,2,2,2,2,2,2,2,2,2,2,2,2,2,2,2,1,1,2
17,2,2,2,2,2,2,1,2,2,2,1,2,2,2,1,1,1,1
17,2,2,2,2,2,2,2,2,2,2,2,2,2,2,2,1,2,2
17,2,2,2,2,2,1,1,2,2,2,1,2,2,2,2,1,2,2
17,2,2,2,2,2,2,2,2,2,2,2,1,2,2,2,2,2,2
17,2,2,2,2,2,2,2,2,2,2,2,2,2,2,2,1,1,2
17,2,2,2,2,2,2,2,2,2,2,2,2,2,2,2,2,1,2
17,2,2,2,1,2,1,1,1,1,2,1,1,1,1,2,1,2,2
17,2,2,2,2,2,2,2,2,2,2,2,2,2,1,2,2,1,2
17,2,2,2,2,2,2,1,2,2,2,2,2,2,2,2,1,2,2
17,2,2,2,2,2,2,2,2,1,2,2,2,2,2,1,1,2,2
17,2,2,2,2,2,2,2,2,2,2,2,2,2,2,2,2,1,2
17,2,2,2,2,2,2,2,2,2,1,2,2,2,2,1,1,2,2
17,2,2,2,2,2,2,1,1,2,2,2,2,2,2,2,1,2,2
17,2,2,2,2,2,2,2,1,2,2,2,2,1,2,2,1,2,2
17,2,1,2,2,1,1,1,1,2,2,2,1,1,1,2,2,1,2
17,2,2,2,2,2,2,1,2,2,2,2,2,2,2,2,1,2,2
17,2,2,2,2,2,2,1,2,2,2,1,2,2,1,2,1,2,2
17,2,1,2,2,1,2,2,1,1,2,1,1,2,1,1,2,1,2
17,2,2,2,2,2,2,1,1,2,2,2,2,2,2,2,1,1,2
17,2,2,2,2,2,2,1,2,2,2,2,2,2,2,1,1,1,2
17,2,2,2,2,2,2,2,1,2,2,2,2,2,2,2,1,2,2
17,2,2,2,2,2,2,1,2,2,2,2,2,2,2,2,1,2,2
17,2,2,2,2,2,2,2,2,2,2,2,2,2,2,2,1,2,1
17,2,2,2,1,2,2,2,2,2,2,1,1,2,2,2,2,1,2
17,2,2,2,2,2,2,1,2,2,2,2,2,2,2,2,1,2,2
17,2,2,2,2,2,2,2,2,2,2,2,1,2,1,2,1,2,2
17,2,2,2,2,2,2,1,2,2,2,2,1,2,1,2,2,2,2
17,2,2,2,1,2,2,1,2,2,2,2,2,2,2,1,2,2,2
17,2,2,2,2,2,2,2,2,2,2,2,2,2,2,1,1,2,2
17,2,2,2,2,2,1,1,1,2,2,2,2,2,2,1,1,2,2
17,2,2,2,2,2,1,1,2,1,1,2,2,2,2,2,1,2,2
17,2,2,2,2,2,2,2,2,2,2,2,2,2,1,2,1,2,2
17,2,2,2,2,2,2,2,2,2,2,2,2,2,2,2,2,2,2
17,2,2,2,2,2,1,1,1,1,2,2,1,2,2,2,2,1,2
17,2,2,2,2,2,2,2,1,1,2,2,2,2,2,1,1,2,2
17,2,2,2,2,2,2,1,2,2,2,2,2,2,2,2,2,2,2
17,2,2,2,2,2,2,1,2,2,2,2,2,2,2,2,1,2,2
17,1,1,2,2,2,1,1,2,1,2,2,1,2,2,1,1,2,2
17,2,2,2,2,2,2,2,2,2,2,1,2,2,2,1,2,1,1
17,2,2,2,2,2,1,1,2,2,2,2,1,2,2,1,1,2,1
17,2,2,2,2,2,1,2,2,2,2,2,2,2,2,2,1,1,2
17,2,2,2,2,2,1,1,1,1,2,2,2,2,2,1,1,1,1
17,2,1,1,2,2,1,1,2,1,1,1,2,2,1,2,1,2,2
17,1,1,1,2,1,2,1,2,2,1,2,1,2,2,1,1,2,1
17,2,2,1,2,2,2,2,1,1,2,2,2,2,2,1,1,1,1
17,2,2,2,2,2,1,1,1,1,2,1,2,2,2,2,1,1,1
17,2,2,2,1,2,1,2,2,1,2,2,2,1,2,1,1,1,2
17,2,2,2,2,2,2,1,2,2,2,2,2,2,1,2,1,2,2
17,2,2,2,1,2,2,1,2,2,2,2,2,2,2,1,1,2,2
17,2,2,2,2,2,1,1,2,2,2,1,2,2,2,1,1,1,2
17,1,2,2,2,2,1,2,2,1,2,2,2,1,1,1,2,2,2
17,2,2,2,2,2,2,1,2,2,2,2,2,2,1,2,1,2,2
17,2,2,2,2,2,2,1,2,2,2,2,2,2,2,2,1,2,2
17,2,2,1,2,2,2,1,2,2,2,1,2,2,2,2,1,2,2
17,2,2,2,2,2,2,1,2,2,1,2,1,2,1,2,1,2,2
17,2,1,2,2,1,2,1,2,1,2,1,2,2,2,2,1,1,1
17,2,1,2,2,1,2,1,1,2,2,2,2,2,2,2,1,2,2
17,2,2,2,2,2,2,1,2,1,2,2,2,1,2,1,1,2,2
17,2,2,2,2,2,1,2,1,2,2,2,2,1,2,2,1,2,2
17,2,2,2,2,2,1,2,2,2,2,2,2,2,2,2,1,2,2
17,2,2,2,2,2,2,2,2,2,2,2,2,2,2,2,2,2,2
17,2,2,2,2,2,2,2,2,2,2,2,2,2,1,2,1,2,1
17,2,2,2,2,1,1,1,2,1,2,1,1,2,2,2,1,2,2
17,2,1,2,2,1,2,1,2,2,2,1,2,2,2,2,1,1,2
17,2,2,2,2,2,2,1,2,2,2,2,2,2,2,2,1,2,2
17,2,2,2,1,2,1,1,2,1,2,1,1,2,1,1,1,1,1
17,2,2,2,2,2,2,1,1,1,2,2,1,2,2,1,1,2,2
17,2,2,2,2,2,1,1,2,2,2,2,2,2,2,2,1,1,2
17,2,2,2,2,2,2,1,2,2,2,2,2,2,2,2,1,1,2
17,2,2,2,2,2,2,1,2,2,2,2,2,2,2,2,1,2,2
17,2,2,2,2,2,1,2,1,2,1,2,1,2,2,1,1,2,2
17,2,2,2,2,2,NA,2,2,2,2,2,2,2,2,2,1,2,2
17,2,2,2,2,2,NA,2,NA,2,2,NA,2,2,2,1,1,2,2
17,2,2,2,2,2,1,1,1,2,2,2,1,2,2,1,1,2,2
17,2,2,2,2,2,1,1,1,1,2,2,2,2,2,1,1,1,2
17,2,2,2,1,2,1,1,2,2,2,2,2,2,2,2,1,2,2
17,2,2,2,2,2,2,2,2,2,2,2,2,2,1,2,1,1,2
17,2,2,2,2,2,2,1,1,2,2,2,1,2,2,1,2,1,2
17,2,2,2,2,2,2,1,2,2,2,2,2,1,2,1,1,2,2
17,2,2,2,2,2,1,1,2,1,2,2,2,2,2,2,1,2,1
17,2,2,2,2,2,2,1,2,2,2,2,2,2,2,2,1,2,2
17,2,2,2,2,2,2,2,2,2,2,2,1,2,1,2,1,1,2
17,2,2,2,2,2,2,2,1,2,2,2,1,1,1,1,1,1,1
17,2,2,2,2,2,2,1,1,2,2,2,2,2,2,2,1,2,2
17,2,1,2,1,1,2,1,1,2,2,2,2,2,2,2,1,2,2
17,2,2,2,2,2,2,1,1,2,2,2,1,1,2,2,2,2,2
17,2,2,2,2,2,2,2,2,2,2,2,2,2,2,2,2,2,2
17,2,2,2,2,2,2,2,1,2,2,2,2,2,2,1,1,2,2
17,1,1,2,1,1,2,2,1,2,1,2,1,1,2,1,2,2,2
17,2,2,2,2,1,1,1,2,2,1,2,1,2,2,2,2,2,2
17,2,2,2,2,2,2,2,2,1,2,2,1,2,2,1,1,2,2
17,2,2,2,2,2,2,1,2,2,2,1,2,2,2,2,1,1,1
17,2,2,2,2,2,2,1,1,2,2,2,2,2,2,1,1,2,2
17,2,2,2,2,2,2,1,1,2,2,1,2,2,2,1,1,2,1
17,2,2,2,2,2,2,2,2,2,2,1,2,2,2,1,1,2,2
17,2,2,2,2,2,2,2,2,2,2,2,2,2,2,2,1,2,2
17,2,2,2,2,2,2,2,2,2,2,2,2,2,2,2,1,2,2
17,2,2,2,2,1,2,2,2,2,2,1,1,2,2,2,1,2,2
17,1,2,2,2,2,2,2,2,2,2,2,2,2,2,2,1,2,2
17,2,2,2,2,2,2,1,2,2,2,2,2,2,2,2,1,1,2
17,2,2,2,1,2,1,1,1,1,2,2,2,2,2,2,1,1,2
17,2,2,2,2,2,2,2,2,2,2,1,2,2,1,2,1,1,1
17,1,1,2,2,2,2,1,2,1,2,1,1,2,2,2,1,1,1
17,2,2,2,2,2,1,2,2,1,2,2,2,2,2,1,2,2,2
17,2,2,2,2,2,1,2,2,2,2,2,1,2,2,2,2,2,2
17,2,2,2,2,2,1,2,2,1,2,2,1,2,2,2,2,1,2
17,2,2,2,2,2,2,1,2,2,2,2,2,2,2,NA,2,2,2
17,2,2,2,2,2,2,1,1,2,2,1,2,2,2,1,1,2,2
17,2,2,2,2,2,1,1,2,2,2,2,2,2,2,1,1,1,2
17,2,2,2,2,2,2,2,2,2,1,2,2,2,2,2,1,2,1
17,2,2,2,2,2,2,1,2,2,2,2,2,2,2,1,1,2,2
17,2,2,2,2,2,1,1,1,2,2,2,2,2,1,2,1,2,2
17,2,2,2,1,2,2,1,2,2,2,1,1,2,2,2,1,2,2
17,2,2,2,2,2,2,1,2,2,2,2,2,2,2,2,1,2,2
17,2,2,2,2,2,1,2,1,1,2,2,1,2,2,1,1,2,1
17,2,1,2,2,2,2,2,2,2,2,1,2,2,2,2,1,1,2
17,2,2,2,1,2,2,1,1,2,2,2,2,2,1,1,1,2,2
17,2,2,2,2,2,1,1,2,2,2,2,2,2,2,2,1,1,2
17,2,2,2,2,1,2,1,1,2,2,1,2,2,2,1,1,1,1
17,2,2,2,2,2,2,2,2,2,2,2,2,2,2,1,1,2,2
17,2,2,2,2,2,2,1,2,1,2,1,1,2,2,1,1,2,1
17,1,1,2,1,1,2,1,2,1,2,1,2,2,2,1,2,1,2
17,2,2,2,2,2,2,2,2,2,2,2,2,2,2,2,2,2,2
17,2,2,2,2,2,2,1,2,2,2,2,2,2,2,2,1,2,2
17,1,2,1,2,2,1,1,1,2,1,2,1,1,1,1,1,1,2
17,2,2,2,2,2,2,1,1,2,2,2,2,2,2,2,1,2,2
17,2,2,2,2,2,2,1,2,2,2,2,2,2,2,2,1,2,2
17,2,2,2,2,2,2,2,1,2,2,2,2,2,2,1,1,2,2
17,2,2,2,2,2,1,1,2,2,2,2,2,2,2,2,1,1,2
17,2,2,2,2,2,2,2,2,2,2,2,2,2,1,2,1,2,2
17,2,2,2,2,2,2,1,1,2,2,2,1,1,1,2,2,2,2
17,2,2,2,2,2,2,1,1,2,2,2,2,2,2,1,1,2,2
17,2,1,2,2,2,1,1,1,1,2,1,NA,1,2,1,1,1,1
17,2,2,2,2,2,2,1,1,2,2,2,1,2,2,1,1,2,2
17,1,1,2,2,2,1,1,2,2,1,2,1,2,2,2,1,1,2
17,2,2,2,2,2,2,1,2,2,2,2,2,2,2,2,1,2,2
17,2,2,2,2,2,2,2,2,2,2,2,2,2,2,2,2,2,2
17,2,2,2,2,2,2,1,2,2,2,2,2,2,2,2,1,2,2
17,2,2,2,2,2,2,2,1,2,2,1,2,2,2,1,1,1,2
17,2,2,2,2,2,1,1,2,2,2,1,1,2,1,2,2,1,2
17,2,2,2,2,2,2,1,1,2,2,2,2,2,2,2,2,2,1
17,2,2,2,2,2,2,1,2,2,2,2,2,2,1,2,1,2,2
17,2,2,2,2,2,2,2,2,2,1,2,2,2,2,2,1,2,2
17,2,2,2,2,2,2,2,2,2,2,2,1,2,2,2,2,2,2
17,2,2,2,2,2,2,1,2,2,2,2,2,2,2,1,2,2,2
17,2,2,2,2,2,2,2,2,2,2,2,2,2,2,2,1,2,2
17,2,2,2,2,2,2,1,2,2,2,2,2,2,2,1,1,2,2
17,2,2,2,1,2,2,2,2,2,2,2,2,2,2,2,1,1,1
17,2,2,2,2,2,1,2,1,1,2,2,2,2,2,1,2,2,2
17,2,2,2,2,2,2,1,2,2,2,2,2,2,2,2,2,2,2
17,1,1,2,1,2,2,1,2,1,2,1,2,2,2,1,1,2,1
17,2,2,2,2,2,2,2,1,2,2,2,2,2,1,1,1,2,2
17,2,2,2,2,2,2,2,1,2,2,2,2,2,2,2,2,1,2
17,2,2,1,2,2,2,1,1,1,1,1,2,2,1,2,1,2,2
17,1,2,2,2,2,2,1,1,2,2,2,1,2,1,1,1,1,2
17,2,2,2,2,2,2,1,2,1,2,2,2,2,2,2,2,2,2
17,2,2,2,2,2,2,2,2,2,2,2,2,2,2,1,1,2,2
17,2,2,2,1,2,2,1,1,2,2,2,2,2,2,2,2,2,1
17,2,2,2,2,2,2,1,1,2,2,2,2,2,2,2,1,2,2
17,2,2,2,2,2,2,2,2,2,2,2,2,2,2,1,1,1,2
17,2,2,2,2,2,2,2,1,2,1,1,2,2,2,2,1,1,1
17,2,2,2,2,2,2,2,1,2,2,2,2,2,2,2,1,2,2
17,2,2,2,2,1,2,1,1,2,2,2,2,2,2,2,1,1,1
17,2,1,2,1,1,1,1,2,1,2,1,2,2,2,1,1,1,1
17,2,2,2,2,2,2,1,2,2,2,2,2,2,2,2,1,2,2
17,2,2,2,2,2,2,2,2,2,2,2,2,2,2,1,1,1,2
17,2,2,2,2,2,2,2,2,2,2,2,2,2,2,1,2,1,2
17,2,2,2,1,2,1,2,1,2,2,1,1,1,1,1,2,1,1
17,2,2,2,2,2,2,2,2,2,1,2,1,1,1,2,2,2,2
17,2,1,2,1,2,2,1,2,2,2,2,2,2,2,2,1,2,2
17,2,2,2,2,2,1,2,2,2,2,2,2,2,2,1,2,2,2
17,2,2,2,2,2,2,1,2,2,2,2,1,2,2,2,1,1,2
17,2,2,2,2,2,2,1,2,2,2,2,1,2,1,2,2,1,2
17,2,2,2,2,2,2,1,2,2,2,2,2,2,2,1,1,2,2
17,1,1,2,2,1,2,2,2,2,1,2,2,2,2,2,2,2,2
17,2,2,2,2,2,2,1,2,2,2,2,2,2,2,2,1,2,2
17,2,2,2,2,2,2,1,2,2,2,2,2,2,2,2,2,2,2
17,2,2,2,2,2,1,1,2,1,1,1,1,1,2,1,1,2,1
17,2,2,2,2,2,2,1,2,2,2,2,2,2,2,2,1,2,2
17,2,2,1,2,2,2,1,2,2,2,2,2,2,2,2,2,2,2
17,2,2,2,2,2,1,1,2,2,1,2,2,2,2,2,1,2,2
17,2,2,2,2,2,2,2,2,2,2,2,2,2,2,2,2,2,2
17,2,2,2,2,1,2,1,1,2,2,2,2,2,2,2,1,2,2
17,2,2,2,2,2,2,1,1,2,2,2,2,2,2,1,2,2,2
17,2,2,2,2,2,2,1,1,2,1,2,1,2,1,2,1,1,2
17,2,2,2,2,2,2,1,2,2,2,2,1,2,2,2,1,2,2
17,2,2,2,2,2,2,2,2,2,2,2,2,2,2,2,2,1,2
17,2,2,2,1,2,2,1,2,NA,2,2,1,2,2,1,1,2,2
17,2,2,2,2,2,2,2,1,2,2,2,2,2,2,2,2,2,2
17,2,2,2,2,2,2,1,2,2,2,2,2,2,2,2,1,2,2
17,2,2,2,2,2,2,1,1,2,2,2,2,2,2,2,1,2,2
17,2,2,2,2,2,1,2,2,2,2,2,2,2,2,1,1,2,2
17,1,1,1,2,2,2,1,2,2,1,1,1,2,1,1,1,1,1
17,2,2,2,2,2,2,1,1,2,2,1,2,2,1,2,2,2,2
17,2,2,2,2,2,2,2,2,2,2,2,2,2,1,1,1,2,2
17,2,2,2,2,2,2,1,1,2,2,1,2,2,2,1,1,2,2
17,2,2,2,2,2,2,2,2,2,2,2,2,2,2,1,2,2,2
17,2,2,2,2,2,2,1,2,2,2,2,2,2,2,2,2,2,2
17,2,2,2,2,2,2,1,2,2,2,2,1,2,2,2,2,1,2
17,2,1,1,1,2,2,1,1,2,2,1,2,2,2,2,1,2,2
17,1,2,1,1,2,2,1,2,2,2,1,2,1,1,1,1,1,2
17,2,2,2,2,2,2,2,2,2,2,2,2,2,2,1,2,2,2
17,2,2,2,2,2,2,2,2,2,2,1,2,2,2,2,1,1,1
17,1,2,1,2,2,2,1,2,2,2,2,2,2,2,1,1,2,2
17,2,2,2,2,2,2,1,2,2,2,2,2,2,2,1,1,1,2
17,2,2,2,2,2,2,2,2,2,2,2,2,2,2,2,2,2,2
17,2,2,2,2,2,1,1,2,2,2,2,2,2,2,2,1,2,1
17,1,1,2,2,2,2,1,1,1,2,1,2,2,2,1,1,1,1
17,2,2,2,2,2,1,2,1,2,1,2,2,2,1,1,2,1,2
17,2,2,2,2,2,1,2,2,2,2,2,2,2,2,1,1,2,2
17,2,2,2,2,2,2,2,1,2,2,2,2,2,2,2,1,2,2
17,2,2,2,2,2,2,2,2,2,2,2,2,2,2,2,1,1,2
17,2,2,2,2,2,2,1,2,2,2,2,2,2,1,2,2,2,2
17,2,2,2,2,1,2,2,2,2,2,1,2,2,2,2,1,1,2
17,1,2,2,2,2,1,1,2,1,1,2,1,2,2,1,2,2,2
17,2,2,2,2,2,2,2,1,2,2,2,2,2,2,2,1,2,2
17,2,2,2,1,2,1,1,2,2,2,2,2,2,2,2,1,2,2
17,2,2,2,2,2,2,2,2,2,2,2,2,2,2,2,1,2,2
17,2,2,2,2,2,1,1,1,1,2,2,2,1,1,1,2,2,2
17,2,2,2,2,2,2,2,2,2,2,2,2,2,2,2,2,2,2
17,1,2,2,2,1,2,2,2,2,2,2,2,2,2,2,1,2,2
17,2,2,2,2,2,1,1,1,2,2,2,2,2,2,2,1,1,2
17,2,2,2,2,2,2,2,2,2,2,1,2,2,2,2,1,1,2
17,2,2,2,2,2,NA,1,1,1,2,1,2,2,2,1,2,2,2
17,2,2,2,2,NA,NA,1,2,1,2,2,2,1,1,2,1,1,1
17,2,2,2,2,2,2,1,2,2,2,2,1,2,2,1,1,2,2
17,2,2,2,1,2,2,1,2,1,2,2,2,2,2,1,2,2,2
17,2,1,1,2,1,1,1,2,1,2,2,1,2,2,1,1,2,2
17,2,2,2,2,2,2,2,1,2,2,2,2,2,2,2,1,2,2
17,2,2,2,1,2,2,2,2,2,2,1,2,2,1,2,2,1,2
17,2,2,2,2,2,2,1,2,2,2,2,2,2,2,NA,1,1,2
17,2,2,2,2,2,2,2,2,2,2,2,2,2,1,2,1,2,2
17,2,2,2,2,2,2,2,2,2,2,2,2,2,2,2,1,2,2
17,2,2,2,2,2,1,2,1,1,2,2,1,2,1,2,2,1,2
17,2,2,2,2,2,2,2,1,2,2,2,2,2,2,2,1,2,2
17,2,2,2,2,2,2,1,2,2,2,2,2,2,2,2,2,2,2
17,2,2,2,2,2,2,2,2,2,2,2,2,2,2,2,1,1,2
17,2,2,2,2,2,2,1,1,2,2,2,1,2,1,2,2,2,2
17,2,2,2,2,2,2,2,2,1,2,1,1,2,2,1,2,2,2
17,1,1,1,2,1,1,1,2,2,2,1,2,2,2,2,1,2,2
17,2,2,2,2,2,2,2,1,2,2,2,2,1,2,1,1,1,2
17,2,2,2,2,2,2,2,2,2,2,2,2,2,2,1,2,2,2
17,2,2,2,2,2,1,1,1,1,2,1,2,2,2,2,1,1,1
17,1,2,2,2,2,2,2,2,2,2,2,2,2,2,2,1,2,2
17,2,2,2,2,2,2,1,2,2,2,2,2,2,2,2,2,2,2
17,2,2,2,2,2,2,1,2,2,2,2,2,2,1,1,1,1,2
17,2,2,2,1,2,2,2,NA,2,2,2,2,2,2,2,1,1,2
17,2,2,2,2,2,1,2,2,2,2,2,1,2,2,2,2,1,2
17,2,2,2,2,1,2,1,1,2,2,1,2,2,2,1,1,1,1
17,2,2,2,2,2,2,1,2,2,2,2,2,2,2,2,1,2,2
17,2,2,2,2,2,2,2,2,2,2,1,2,2,2,2,1,2,2
17,2,2,2,2,2,2,1,2,2,2,2,2,2,2,2,2,2,2
17,1,2,2,1,2,1,1,2,2,2,2,2,2,2,2,2,2,2
17,1,1,1,2,1,1,2,2,2,2,2,2,2,2,2,1,1,1
17,2,2,2,1,2,2,2,2,2,2,2,1,2,2,2,2,2,2
17,2,2,2,2,2,2,2,2,2,2,2,2,2,2,2,2,1,2
17,2,2,2,2,2,2,1,2,2,2,2,2,2,2,2,1,2,2
17,2,2,2,2,2,2,2,2,2,2,2,2,2,2,1,1,2,2
17,2,2,2,2,2,2,2,2,2,2,1,2,2,2,1,2,2,2
17,2,1,2,2,2,1,1,2,2,2,2,2,2,2,1,1,2,2
17,2,1,2,1,1,1,1,2,1,2,2,2,2,2,1,1,1,1
17,2,2,2,2,2,2,1,2,2,2,1,1,2,2,2,2,1,2
17,2,2,2,2,2,2,2,2,2,2,2,1,2,2,2,2,1,2
17,2,2,2,2,2,2,1,2,2,2,2,2,2,2,2,1,2,2
17,2,2,2,2,2,2,2,2,2,2,2,2,2,2,2,2,2,2
17,2,2,2,2,2,2,2,2,2,2,2,2,2,2,2,2,2,2
17,2,2,2,1,1,2,2,1,2,2,1,2,2,2,2,1,2,1
17,2,2,2,2,2,2,2,1,2,2,2,2,2,2,1,1,1,2
17,2,2,2,2,2,2,2,2,2,2,2,2,2,2,1,1,2,2
17,2,2,2,2,2,2,2,2,2,2,2,2,2,2,2,2,2,2
17,2,2,2,2,2,2,1,2,2,2,2,2,2,2,2,2,2,2
17,1,2,2,1,1,1,1,1,2,2,2,2,2,2,2,1,1,2
17,2,1,1,2,1,1,1,2,2,2,2,2,2,2,2,1,2,2
17,2,2,2,2,2,1,1,2,2,2,2,2,2,2,2,2,2,2
17,2,2,2,2,2,2,1,2,2,2,2,1,2,2,2,1,2,2
17,2,2,2,2,2,1,2,1,1,2,2,2,2,2,2,1,2,2
17,2,2,1,2,2,1,2,2,1,2,2,2,1,2,1,2,1,2
17,2,2,2,2,2,1,1,2,2,2,1,2,2,2,2,1,1,2
17,2,2,2,2,2,2,1,2,2,2,2,2,2,2,1,2,2,2
17,2,2,2,2,2,2,1,2,2,2,2,2,2,2,1,2,1,2
17,2,2,2,2,2,2,1,2,1,2,2,2,2,2,1,1,2,2
17,2,2,2,2,2,2,2,2,2,2,2,2,2,2,1,1,2,2
17,2,2,2,1,2,1,1,1,2,2,1,1,2,2,2,1,1,1
17,2,2,2,2,2,2,2,2,2,2,2,2,2,2,2,1,2,2
17,2,2,2,1,2,2,2,2,2,1,2,1,2,1,1,1,1,2
17,2,2,2,2,2,2,1,1,2,2,1,2,2,2,1,1,2,2
17,2,2,2,2,2,2,2,2,1,2,2,2,2,2,2,1,2,2
17,2,2,2,2,2,2,2,1,2,2,2,1,1,2,2,1,2,2
17,2,2,2,1,2,2,1,2,1,2,2,2,2,2,2,1,2,1
17,2,1,2,2,2,1,1,2,2,2,2,2,2,1,1,1,2,2
17,2,2,2,2,2,2,1,2,2,2,2,1,1,2,2,2,2,2
17,1,1,1,2,2,2,1,2,1,1,1,2,2,1,1,1,1,1
17,2,2,2,2,2,2,2,2,2,2,2,2,2,2,2,1,2,2
17,2,1,2,2,1,2,2,2,2,2,2,2,2,2,1,2,1,2
17,2,2,2,2,2,2,1,2,2,2,1,2,2,2,2,1,1,2
17,2,2,2,2,2,2,1,2,2,2,2,2,2,2,2,1,2,2
17,2,2,2,2,2,2,1,1,2,2,2,2,2,2,2,1,2,2
17,2,2,2,1,2,1,2,1,2,2,2,1,2,2,1,1,2,2
17,2,2,2,2,2,2,2,2,2,2,2,2,2,2,2,1,2,2
17,2,2,2,2,2,2,1,1,1,2,1,2,2,2,1,1,1,1
17,2,2,2,2,2,2,2,2,2,2,2,2,2,2,2,1,1,2
17,2,2,2,2,2,2,1,2,2,2,2,2,2,2,2,1,2,2
17,2,2,2,2,2,2,1,2,2,2,2,2,2,2,2,1,2,1
17,2,2,2,1,2,2,2,1,1,2,1,1,2,1,1,2,2,2
17,2,2,2,2,2,2,1,2,2,2,2,2,2,2,2,2,2,2
17,2,2,2,2,2,2,1,2,2,2,1,1,1,1,1,1,1,1
17,2,2,2,2,2,1,1,1,2,2,2,2,2,2,2,1,2,2
17,1,1,1,1,1,1,1,2,2,2,1,2,2,2,2,2,1,2
17,2,2,2,2,2,2,1,1,2,2,2,2,2,2,1,1,2,2
17,2,2,2,2,2,1,1,2,2,2,2,2,2,2,2,2,2,2
17,2,2,2,2,2,2,2,2,2,2,2,2,2,1,2,1,1,2
17,2,2,2,2,2,2,2,2,2,2,2,2,2,2,2,1,2,2
17,2,2,2,2,2,2,1,2,2,2,2,2,2,2,2,1,2,2
17,2,2,2,2,2,2,2,2,1,2,2,2,2,2,2,1,2,2
17,2,2,2,2,2,2,1,2,2,2,2,2,2,1,2,2,2,2
17,2,2,2,2,2,2,1,2,2,2,2,2,2,2,2,1,2,2
17,1,2,2,2,2,2,2,2,2,2,2,2,2,2,2,1,1,2
17,2,2,2,2,2,2,1,2,2,2,2,2,2,1,1,2,1,2
17,2,2,2,2,2,2,2,2,2,2,2,2,2,2,2,2,2,2
17,2,2,2,1,2,1,1,2,1,2,1,2,2,2,2,1,2,2
17,1,2,2,2,1,1,2,2,2,2,2,2,2,2,2,2,1,2
17,2,2,2,2,2,1,1,2,2,2,2,2,2,2,2,1,2,2
17,2,2,2,2,2,2,1,2,2,2,2,2,2,2,2,1,2,2
17,2,2,2,2,2,1,2,2,2,2,2,1,2,2,2,1,1,2
17,2,2,2,2,2,1,1,2,2,2,2,2,1,2,2,1,1,2
17,2,2,2,2,2,2,1,2,2,2,2,2,2,2,2,2,2,2
17,2,2,2,2,2,2,2,2,2,2,2,2,2,2,2,1,1,1
17,2,2,2,2,2,2,1,2,2,2,2,2,2,2,2,2,2,2
17,1,2,2,2,2,2,1,1,2,2,2,2,2,2,2,2,2,2
17,2,2,2,2,1,2,2,1,2,2,2,1,2,1,2,2,2,2
17,2,2,2,1,2,2,2,2,2,2,1,1,2,2,1,2,1,1
17,2,2,2,2,2,1,1,1,1,2,2,2,1,2,1,2,2,2
17,2,2,2,2,2,2,1,2,2,2,2,2,2,2,1,1,1,2
17,2,2,2,2,2,2,2,2,2,2,2,2,2,2,2,1,2,2
17,2,2,2,2,2,1,2,2,1,2,2,2,2,1,2,2,2,2
17,2,2,2,1,1,1,2,2,1,1,1,2,2,2,2,1,1,1
17,2,2,2,2,2,2,2,2,2,2,2,2,2,2,2,1,1,2
17,2,2,2,2,2,2,2,2,2,2,2,2,2,2,2,1,2,2
17,2,2,2,2,2,2,2,1,2,2,2,2,1,2,2,2,1,2
17,2,2,2,2,2,2,1,2,2,2,2,2,2,2,2,1,2,2
17,2,2,2,2,2,2,1,1,2,2,2,2,2,2,2,1,2,2
17,1,1,2,1,1,1,2,2,1,2,2,2,2,2,1,1,1,1
17,2,2,2,2,2,2,2,2,2,2,1,2,2,2,1,1,1,1
17,2,2,2,2,2,2,2,2,2,2,2,2,2,2,2,1,2,1
17,2,2,2,2,2,2,1,2,2,2,2,2,2,2,2,1,2,2
17,2,2,2,2,2,2,2,1,2,2,2,2,2,2,2,2,2,2
17,2,2,2,2,1,2,1,1,2,2,2,2,2,2,2,1,2,2
17,2,2,2,2,2,2,2,2,2,2,2,1,2,2,1,1,2,2
17,2,2,2,2,2,2,1,2,2,2,2,2,2,2,1,1,2,1
17,1,1,1,1,1,2,2,2,1,1,1,1,2,1,2,1,1,2
17,2,2,2,2,2,2,1,2,2,2,1,2,1,2,2,1,1,1
17,2,2,2,2,1,2,2,2,2,2,2,2,2,2,2,1,1,2
17,2,2,2,2,2,2,1,2,2,2,1,2,2,1,2,1,2,2
17,2,2,2,2,2,2,1,2,2,2,2,2,2,2,2,2,2,2
17,2,2,1,1,1,1,2,2,1,1,1,2,2,1,1,1,1,1
17,2,2,2,2,2,2,1,2,1,2,1,2,2,2,2,1,1,2
17,2,2,2,2,2,2,1,2,2,2,2,2,2,2,2,1,2,2
17,2,2,2,1,2,2,1,2,1,2,1,2,2,2,1,2,2,2
17,2,2,2,2,2,2,2,1,2,2,2,1,2,1,1,1,2,2
17,2,2,2,1,2,1,1,1,1,1,1,1,1,1,1,1,1,1
17,2,2,2,2,2,2,2,2,2,2,2,2,2,2,2,2,2,2
17,2,2,2,1,2,2,1,2,2,2,2,1,2,2,2,1,2,2
17,2,2,2,2,2,2,2,2,2,2,2,2,2,2,2,1,2,2
17,2,2,2,2,2,2,1,1,2,2,2,2,2,2,2,1,2,2
17,2,2,2,2,1,1,1,1,2,2,2,2,2,2,1,1,1,2
17,2,2,2,2,2,2,1,2,2,2,2,2,2,2,2,2,2,2
17,2,2,2,1,2,1,2,2,2,2,2,2,2,2,2,1,2,2
17,2,2,2,2,2,2,2,2,2,2,2,2,2,2,2,1,1,2
17,2,2,2,2,2,2,2,2,2,2,2,1,2,2,2,2,2,2
17,2,2,2,2,2,2,2,2,2,2,2,2,2,2,2,2,2,2
17,2,2,2,2,2,2,2,2,2,2,2,2,1,2,2,1,1,2
17,2,2,2,2,2,2,2,2,2,2,2,2,2,2,1,1,1,1
17,2,1,2,2,2,2,2,2,2,2,2,2,2,2,2,1,2,2
17,2,2,2,2,2,2,2,2,2,2,2,2,2,2,2,1,1,2
17,1,2,2,2,2,2,1,1,2,2,2,2,2,2,2,1,2,2
17,2,2,2,2,2,2,2,1,2,2,2,2,2,2,2,1,2,2
17,2,2,2,2,2,2,2,2,2,2,2,2,2,2,2,1,1,2
17,2,2,2,2,2,2,1,2,2,2,2,2,2,2,2,2,2,2
17,2,1,2,1,1,2,1,1,2,1,1,2,1,2,2,1,1,1
17,2,1,2,1,2,2,1,2,2,2,2,2,2,2,2,1,1,2
17,2,2,2,2,2,2,2,1,2,2,2,2,2,2,1,2,1,2
17,2,2,2,1,2,2,1,1,2,2,1,2,2,2,1,2,1,2
17,2,2,2,1,2,2,2,2,2,1,1,1,2,2,2,1,1,1
17,2,2,2,2,2,2,1,2,2,2,1,2,2,1,2,2,2,2
17,2,2,2,1,1,1,1,1,1,1,2,1,2,1,1,2,2,2
17,2,2,2,2,2,1,1,2,2,2,2,2,2,1,1,1,1,2
17,2,2,2,2,2,2,1,2,2,2,1,2,2,2,2,2,2,2
17,2,2,2,2,2,2,2,2,2,2,2,2,2,2,2,2,2,2
17,2,2,2,2,2,2,1,2,1,2,1,2,2,2,1,1,2,2
17,2,2,2,2,2,2,2,1,2,2,2,2,2,1,2,1,2,2
17,1,2,2,1,1,2,1,2,2,1,1,2,2,1,1,1,1,1
17,2,2,2,2,2,2,1,1,1,2,2,2,2,2,1,1,2,2
17,2,1,2,2,1,2,1,2,2,2,2,2,2,2,2,1,2,2
17,2,2,2,2,2,2,1,2,2,2,2,2,2,2,2,2,2,2
17,2,1,2,1,1,1,1,2,1,2,1,1,2,2,1,1,1,1
17,2,2,2,2,2,2,1,2,2,2,2,2,2,2,2,2,2,2
17,2,2,2,2,2,2,2,1,1,2,2,2,2,2,2,2,1,2
17,2,2,1,2,2,2,1,2,2,2,2,2,2,2,1,1,2,2
17,2,2,2,2,2,2,2,2,2,2,2,2,2,2,2,1,2,2
17,2,2,2,2,2,2,1,1,2,2,2,2,2,1,2,1,2,2
17,1,2,2,1,1,2,1,2,2,1,1,1,1,2,1,1,1,1
17,2,2,2,1,2,2,1,2,2,2,2,2,2,2,2,1,2,2
17,2,2,2,2,1,2,2,2,2,2,2,2,2,2,1,1,1,1
17,2,2,2,2,1,2,1,2,2,2,2,2,2,NA,NA,1,1,2
17,2,2,2,2,2,2,2,2,2,2,2,1,2,2,1,1,1,1
17,2,2,2,2,2,2,1,2,2,2,2,2,1,2,1,1,2,2
17,2,2,2,1,2,2,2,1,1,1,2,1,2,2,1,1,2,2
17,2,2,2,1,2,1,2,2,2,2,2,2,2,1,2,1,2,2
17,2,2,2,2,2,2,1,1,2,2,1,2,2,2,2,1,1,1
17,2,2,2,2,2,1,2,2,2,2,2,1,2,2,1,2,2,2
17,1,2,2,1,1,2,1,1,2,2,1,2,2,2,1,1,1,2
17,2,2,2,2,2,2,2,2,2,2,1,2,2,2,2,1,2,2
17,2,2,2,2,2,2,1,2,2,2,2,2,2,2,2,1,2,2
17,2,2,2,2,2,2,2,2,2,2,2,2,2,2,2,1,2,2
17,2,2,2,2,2,1,1,2,2,2,2,1,2,2,1,2,1,2
17,2,2,2,2,2,2,1,1,2,2,2,2,2,2,2,1,1,1
17,2,2,1,2,2,2,2,2,2,2,2,1,2,2,2,2,2,2
17,2,2,2,2,2,2,2,2,2,2,2,2,2,2,2,2,2,2
17,2,2,2,2,2,1,1,2,1,2,2,2,2,2,1,1,2,2
17,2,2,2,2,2,2,1,2,2,2,2,2,2,2,2,2,2,2
17,2,2,2,2,2,2,1,2,2,2,2,2,2,2,2,2,2,2
17,2,2,2,2,2,2,2,2,1,2,1,2,2,2,2,1,2,2
17,1,1,1,2,1,2,2,2,2,2,2,2,2,2,2,1,2,2
17,2,2,2,2,2,2,1,2,2,2,2,2,2,2,2,1,1,2
17,2,2,2,2,2,2,2,2,2,2,2,2,2,2,2,2,2,2
17,2,2,2,2,2,2,1,2,2,2,2,2,2,2,2,2,2,2
17,2,2,2,1,2,2,2,2,2,2,2,2,2,1,2,1,2,2
17,2,2,2,2,2,2,1,2,2,2,2,2,2,1,2,2,2,2
17,2,2,2,2,2,2,2,2,2,2,2,2,2,2,2,2,2,2
17,2,2,2,2,2,2,2,2,2,2,2,2,2,2,2,1,2,2
17,2,2,2,2,2,2,2,1,1,2,2,2,1,2,2,1,2,2
17,2,2,2,2,1,2,1,2,2,2,2,2,2,2,1,1,1,1
17,2,2,2,2,2,2,2,2,2,2,2,2,2,2,1,1,2,2
17,2,2,2,1,2,2,1,2,2,2,2,2,2,2,2,1,2,2
17,2,2,2,2,1,1,1,2,2,2,2,2,2,1,2,1,2,2
17,2,2,2,2,2,1,1,2,2,2,2,2,2,2,2,1,2,2
