pais,np1,Frequency,Percent
México,Sí,115,7.4
México,No,1436,92.1
México,NS,9,0.6
Guatemala,Sí,225,14.9
Guatemala,No,1273,84.4
Guatemala,NS,8,0.5
Guatemala,NR,3,0.2
El Salvador,Sí,170,11.4
El Salvador,No,1312,87.6
El Salvador,NS,14,0.9
El Salvador,NR,1,0.1
Honduras,Sí,229,13.3
Honduras,No,1463,84.7
Honduras,NS,29,1.7
Honduras,NR,7,0.4
Nicaragua,Sí,176,10.4
Nicaragua,No,1508,89.4
Nicaragua,NS,1,0.1
Nicaragua,NR,1,0.1
Costa Rica,Sí,76,5.1
Costa Rica,No,1403,93.7
Costa Rica,NS,15,1
Costa Rica,NR,4,0.3
Panamá,Sí,90,5.6
Panamá,No,1521,93.9
Panamá,NS,5,0.3
Panamá,NR,4,0.2
Colombia,Sí,147,9.7
Colombia,No,1356,89.7
Colombia,NS,9,0.6
Ecuador,Sí,160,10.7
Ecuador,No,1289,85.9
Ecuador,NS,35,2.3
Ecuador,NR,16,1.1
Bolivia,Sí,299,9.9
Bolivia,No,2706,89.3
Bolivia,NS,16,0.5
Bolivia,NR,8,0.3
Perú,Sí,178,11.9
Perú,No,1311,87.4
Perú,NS,11,0.7
Paraguay,Sí,137,9.1
Paraguay,No,1336,88.5
Paraguay,NS,19,1.3
Paraguay,NR,18,1.2
Chile,Sí,61,3.9
Chile,No,1497,95.3
Chile,NS,9,0.6
Chile,NR,4,0.3
Uruguay,Sí,136,9
Uruguay,No,1371,90.7
Uruguay,NS,1,0.1
Uruguay,NR,4,0.3
Brasil,Sí,96,6.4
Brasil,No,1399,93.3
Brasil,NS,3,0.2
Brasil,NR,2,0.1
Argentina,Sí,64,4.2
Argentina,No,1431,94.6
Argentina,NS,16,1.1
Argentina,NR,1,0.1
Rep. Dom.,Sí,276,18.3
Rep. Dom.,No,1236,81.7
